Out/fan138.vcd
$date
	Fri Jul 21 11:29:14 2023
$end
$version
	Icarus Verilog
$end
$timescale
	1ns
$end
$scope module tb_fan138 $end
$var wire 8 ! out [7:0] $end
$var reg 32 " i [31:0] $end
$var reg 1 # in $end
$var reg 1 $ phi0 $end
$var reg 32 % seed [31:0] $end
$var reg 3 & selector [2:0] $end
$scope module fan $end
$var wire 1 $ clk $end
$var wire 1 # in $end
$var wire 3 ' selector [2:0] $end
$var wire 1 ( out7 $end
$var wire 1 ) out6 $end
$var wire 1 * out5 $end
$var wire 1 + out4 $end
$var wire 1 , out3 $end
$var wire 1 - out2 $end
$var wire 1 . out1 $end
$var wire 1 / out0 $end
$var parameter 32 0 SIGNAL_WIDTH $end
$upscope $end
$upscope $end
$enddefinitions $end
$comment Show the parameter values. $end
$dumpall
b1 0
$end
#0
$dumpvars
z/
z.
z-
0,
z+
z*
z)
z(
b11 '
b11 &
b11101101101001101111010100110101 %
0$
0#
b0 "
bz0zzz !
$end
#5
1$
#11
0$
#12
z,
bz0zzzzz !
0*
b101 &
b101 '
b11010111111001100000101001011 %
b1 "
#17
1$
#23
0$
#24
1-
bz1zz !
z*
b10 &
b10 '
1#
b1111001010111001001010011010001 %
b10 "
#29
1$
#35
0$
#36
1/
bz1 !
z-
b0 &
b0 '
b100000010001010011100101000111 %
b11 "
#41
1$
#47
0$
#48
z/
b1zzzzzzz !
1(
b111 &
b111 '
b10000111111001011111010000101101 %
b100 "
#53
1$
#59
0$
#60
1,
bz1zzz !
z(
b11 &
b11 '
b10011101110110011110011100000011 %
b101 "
#65
1$
#71
0$
#72
0-
bz0zz !
z,
b10 &
b10 '
0#
b1110101011010100110111101001001 %
b110 "
#77
1$
#83
0$
#84
z-
bz0zzzz !
0+
b100 &
b100 '
b11010011100001000011001111111 %
b111 "
#89
1$
#95
0$
#96
0,
bz0zzz !
z+
b11 &
b11 '
b111001101011010010001000100101 %
b1000 "
#101
1$
#107
0$
#108
1)
bz1zzzzzz !
z,
b110 &
b110 '
1#
b11010011001100001001001110111011 %
b1001 "
#113
1$
#119
0$
#120
bz0zzzzzz !
0)
0#
b1110011001010001110100011000001 %
b1010 "
#125
1$
#131
0$
#132
b1101011001011110100101010110111 %
b1011 "
#137
1$
#143
0$
#144
0,
bz0zzz !
z)
b11 &
b11 '
b10101001111011000101111100011101 %
b1100 "
#149
1$
#155
0$
#156
0.
bz0z !
z,
b1 &
b1 '
b1000101010111010011101110011 %
b1101 "
#161
1$
#167
0$
#168
z.
bz0zzzz !
0+
b100 &
b100 '
b10100110001101011110000100111001 %
b1110 "
#173
1$
#179
0$
#180
1/
bz1 !
z+
b0 &
b0 '
1#
b11100000010100110010111101111 %
b1111 "
#185
1$
#191
0$
#192
0*
bz0zzzzz !
z/
b101 &
b101 '
0#
b1110110110011111000101100010101 %
b10000 "
#197
1$
#203
0$
#204
0.
bz0z !
z*
b1 &
b1 '
b11001100100100100000001000101011 %
b10001 "
#209
1$
#215
0$
#216
z.
bz0zzzzzz !
0)
b110 &
b110 '
b10000011001010110011100010110001 %
b10010 "
#221
1$
#227
0$
#228
0*
bz0zzzzz !
z)
b101 &
b101 '
b11000110111001101011100000100111 %
b10011 "
#233
1$
#239
0$
#240
0-
bz0zz !
z*
b10 &
b10 '
b11000101001111101000011000001101 %
b10100 "
#245
1$
#251
0$
#252
bz1zz !
1-
1#
b11101001010001101000001111100011 %
b10101 "
#257
1$
#263
0$
#264
0)
bz0zzzzzz !
z-
b110 &
b110 '
0#
b111000111101100111100101001 %
b10110 "
#269
1$
#275
0$
#276
0,
bz0zzz !
z)
b11 &
b11 '
b1001100001010010000101011111 %
b10111 "
#281
1$
#287
0$
#288
1/
bz1 !
z,
b0 &
b0 '
1#
b11000000010111010011000000000101 %
b11000 "
#293
1$
#299
0$
#300
0.
bz0z !
z/
b1 &
b1 '
0#
b11010000110010000000110010011011 %
b11001 "
#305
1$
#311
0$
#312
z.
bz0zzzzzz !
0)
b110 &
b110 '
b11101111001000101000010010100001 %
b11010 "
#317
1$
#323
0$
#324
0-
bz0zz !
z)
b10 &
b10 '
b1101001000000101000000110010111 %
b11011 "
#329
1$
#335
0$
#336
b1001000010110110100011111101 %
b11100 "
#341
1$
#347
0$
#348
0/
bz0 !
z-
b0 &
b0 '
b1111000001100010111110001010011 %
b11101 "
#353
1$
#359
0$
#360
b11110 "
