Out/iflow.vcd
$date
	Tue Jul 25 22:14:06 2023
$end
$version
	Icarus Verilog
$end
$timescale
	1ns
$end
$scope module tb_iflow $end
$var wire 8 ! iADD [7:0] $end
$var wire 8 " iSP [7:0] $end
$var wire 8 # iSTATUS [7:0] $end
$var wire 8 $ iX [7:0] $end
$var wire 8 % iY [7:0] $end
$var wire 8 & pc [7:0] $end
$var wire 8 ' pc_next [7:0] $end
$var wire 7 ( we [6:0] $end
$var wire 1 ) we_y $end
$var wire 1 * we_x $end
$var wire 1 + we_stat $end
$var wire 1 , we_sp $end
$var wire 1 - we_pc $end
$var wire 1 . we_dout $end
$var wire 1 / we_add $end
$var wire 3 0 target_selector_1 [2:0] $end
$var wire 3 1 target_selector_01 [2:0] $end
$var wire 3 2 target_selector_0 [2:0] $end
$var wire 3 3 source_selector_1 [2:0] $end
$var wire 3 4 source_selector_01 [2:0] $end
$var wire 3 5 source_selector_0 [2:0] $end
$var wire 8 6 reg_connect_1 [7:0] $end
$var wire 8 7 reg_connect_0 [7:0] $end
$var wire 1 8 phi2_int $end
$var wire 1 9 phi1_int $end
$var wire 8 : oY [7:0] $end
$var wire 8 ; oX [7:0] $end
$var wire 8 < oSTATUS [7:0] $end
$var wire 8 = oSP [7:0] $end
$var wire 8 > oPC [7:0] $end
$var wire 8 ? oADD [7:0] $end
$var wire 1 @ instruction_ready $end
$var wire 8 A instruction [7:0] $end
$var wire 8 B imm [7:0] $end
$var wire 8 C ialu_b [7:0] $end
$var wire 8 D ialu_a [7:0] $end
$var wire 8 E iPC [7:0] $end
$var wire 1 F get_next $end
$var wire 16 G fetcher_addr [15:0] $end
$var wire 3 H fetch_selector [2:0] $end
$var wire 8 I d_to_mem1 [7:0] $end
$var wire 8 J d_to_mem [7:0] $end
$var wire 8 K d_to_fetch [7:0] $end
$var wire 8 L d_from_mem [7:0] $end
$var wire 8 M d_from_fetch [7:0] $end
$var wire 1 N ask_next $end
$var wire 16 O addr [15:0] $end
$var reg 16 P addr_in [15:0] $end
$var reg 8 Q d_in [7:0] $end
$var reg 32 R i [31:0] $end
$var reg 1 S manual_mem $end
$var reg 1 T mem_write $end
$var reg 1 U phi0 $end
$var reg 1 V reset_n $end
$var reg 32 W seed [31:0] $end
$var reg 1 X trigger_program $end
$scope module ADD $end
$var wire 8 Y din [7:0] $end
$var wire 1 V reset_n $end
$var wire 1 Z valid $end
$var wire 1 / we $end
$var wire 1 8 clk $end
$var parameter 32 [ REG_WIDTH $end
$var reg 8 \ dout [7:0] $end
$upscope $end
$scope module PC $end
$var wire 8 ] din [7:0] $end
$var wire 1 V reset_n $end
$var wire 1 ^ valid $end
$var wire 1 - we $end
$var wire 1 8 clk $end
$var parameter 32 _ REG_WIDTH $end
$var reg 8 ` dout [7:0] $end
$upscope $end
$scope module SP $end
$var wire 8 a din [7:0] $end
$var wire 1 V reset_n $end
$var wire 1 b valid $end
$var wire 1 , we $end
$var wire 1 8 clk $end
$var parameter 32 c REG_WIDTH $end
$var reg 8 d dout [7:0] $end
$upscope $end
$scope module STAT $end
$var wire 8 e din [7:0] $end
$var wire 1 V reset_n $end
$var wire 1 f valid $end
$var wire 1 + we $end
$var wire 1 8 clk $end
$var parameter 32 g REG_WIDTH $end
$var reg 8 h dout [7:0] $end
$upscope $end
$scope module X $end
$var wire 8 i din [7:0] $end
$var wire 1 V reset_n $end
$var wire 1 j valid $end
$var wire 1 * we $end
$var wire 1 8 clk $end
$var parameter 32 k REG_WIDTH $end
$var reg 8 l dout [7:0] $end
$upscope $end
$scope module Y $end
$var wire 8 m din [7:0] $end
$var wire 1 V reset_n $end
$var wire 1 n valid $end
$var wire 1 ) we $end
$var wire 1 8 clk $end
$var parameter 32 o REG_WIDTH $end
$var reg 8 p dout [7:0] $end
$upscope $end
$scope module clk_mod $end
$var wire 1 U phi0 $end
$var wire 1 9 phi1 $end
$var wire 1 8 phi2 $end
$var wire 1 q reset_n $end
$upscope $end
$scope module decode $end
$var wire 1 9 clk $end
$var wire 1 V reset_n $end
$var wire 1 @ instruction_ready $end
$var wire 8 r instruction_in [7:0] $end
$var wire 16 s address_in [15:0] $end
$var parameter 32 t ADDR_WIDTH $end
$var parameter 32 u OPP_WIDTH $end
$var parameter 32 v REG_WIDTH $end
$var reg 3 w add_mode [2:0] $end
$var reg 16 x addr [15:0] $end
$var reg 4 y fetch_counter [3:0] $end
$var reg 4 z fetch_target [3:0] $end
$var reg 1 N get_next $end
$var reg 8 { imm_addr [7:0] $end
$var reg 8 | instruction [7:0] $end
$var reg 8 } opp [7:0] $end
$var reg 5 ~ opp_code [4:0] $end
$var reg 3 !" source_selector_0 [2:0] $end
$var reg 3 "" source_selector_1 [2:0] $end
$var reg 3 #" target_selector_0 [2:0] $end
$var reg 3 $" target_selector_1 [2:0] $end
$var reg 7 %" we [6:0] $end
$upscope $end
$scope module fetch $end
$var wire 1 9 clk $end
$var wire 1 F get_next $end
$var wire 8 &" pc [7:0] $end
$var wire 1 V reset_n $end
$var wire 8 '" data_in [7:0] $end
$var parameter 32 (" ADDR_WIDTH $end
$var parameter 32 )" OPP_WIDTH $end
$var parameter 32 *" REG_WIDTH $end
$var reg 3 +" add_mode [2:0] $end
$var reg 16 ," addr [15:0] $end
$var reg 3 -" fetch_counter [2:0] $end
$var reg 3 ." fetch_source_selector [2:0] $end
$var reg 8 /" instruction [7:0] $end
$var reg 8 0" instruction_out [7:0] $end
$var reg 1 @ instruction_ready $end
$var reg 8 1" pc_next [7:0] $end
$var reg 8 2" reg_out [7:0] $end
$upscope $end
$scope module mem_test $end
$var wire 16 3" addr [15:0] $end
$var wire 1 U clk $end
$var wire 8 4" din [7:0] $end
$var wire 1 V reset_n $end
$var wire 1 5" we $end
$var wire 16 6" local_addr [15:0] $end
$var wire 8 7" dout [7:0] $end
$var parameter 32 8" ADDR_WIDTH $end
$var parameter 32 9" BASE $end
$var parameter 32 :" DEPTH $end
$var parameter 32 ;" WIDTH $end
$upscope $end
$scope module reg_fan0 $end
$var wire 1 8 clk $end
$var wire 8 <" out0 [7:0] $end
$var wire 8 =" out1 [7:0] $end
$var wire 8 >" out2 [7:0] $end
$var wire 8 ?" out3 [7:0] $end
$var wire 3 @" selector [2:0] $end
$var wire 8 A" out7 [7:0] $end
$var wire 8 B" out6 [7:0] $end
$var wire 8 C" out5 [7:0] $end
$var wire 8 D" out4 [7:0] $end
$var wire 8 E" in [7:0] $end
$var parameter 32 F" SIGNAL_WIDTH $end
$upscope $end
$scope module reg_fan1 $end
$var wire 1 8 clk $end
$var wire 8 G" out0 [7:0] $end
$var wire 8 H" out1 [7:0] $end
$var wire 8 I" out2 [7:0] $end
$var wire 8 J" out3 [7:0] $end
$var wire 3 K" selector [2:0] $end
$var wire 8 L" out7 [7:0] $end
$var wire 8 M" out6 [7:0] $end
$var wire 8 N" out5 [7:0] $end
$var wire 8 O" out4 [7:0] $end
$var wire 8 P" in [7:0] $end
$var parameter 32 Q" SIGNAL_WIDTH $end
$upscope $end
$scope module reg_mux0 $end
$var wire 1 8 clk $end
$var wire 8 R" in0 [7:0] $end
$var wire 8 S" in1 [7:0] $end
$var wire 8 T" in2 [7:0] $end
$var wire 8 U" in3 [7:0] $end
$var wire 8 V" in4 [7:0] $end
$var wire 8 W" in5 [7:0] $end
$var wire 8 X" in6 [7:0] $end
$var wire 8 Y" in7 [7:0] $end
$var wire 3 Z" selector [2:0] $end
$var wire 8 [" out [7:0] $end
$var parameter 32 \" SIGNAL_WIDTH $end
$upscope $end
$scope module reg_mux1 $end
$var wire 1 8 clk $end
$var wire 8 ]" in0 [7:0] $end
$var wire 8 ^" in1 [7:0] $end
$var wire 8 _" in2 [7:0] $end
$var wire 8 `" in3 [7:0] $end
$var wire 8 a" in4 [7:0] $end
$var wire 8 b" in5 [7:0] $end
$var wire 8 c" in6 [7:0] $end
$var wire 8 d" in7 [7:0] $end
$var wire 3 e" selector [2:0] $end
$var wire 8 f" out [7:0] $end
$var parameter 32 g" SIGNAL_WIDTH $end
$upscope $end
$scope module selector_switch0 $end
$var wire 3 h" in0 [2:0] $end
$var wire 3 i" in1 [2:0] $end
$var wire 1 j" in_select $end
$var wire 3 k" out0 [2:0] $end
$var wire 3 l" out1 [2:0] $end
$var wire 1 m" out_select $end
$var wire 3 n" connect [2:0] $end
$var parameter 32 o" SIGNAL_WIDTH $end
$upscope $end
$scope module selector_switch1 $end
$var wire 3 p" in0 [2:0] $end
$var wire 3 q" in1 [2:0] $end
$var wire 1 r" in_select $end
$var wire 3 s" out0 [2:0] $end
$var wire 3 t" out1 [2:0] $end
$var wire 1 u" out_select $end
$var wire 3 v" connect [2:0] $end
$var parameter 32 w" SIGNAL_WIDTH $end
$upscope $end
$scope begin main_loop $end
$var reg 8 x" mem_unit [7:0] $end
$upscope $end
$upscope $end
$enddefinitions $end
$comment Show the parameter values. $end
$dumpall
b11 w"
b11 o"
b1000 g"
b1000 \"
b1000 Q"
b1000 F"
b1000 ;"
b100000 :"
b0 9"
b10000 8"
b1000 *"
b1000 )"
b10000 ("
b1000 v
b1000 u
b10000 t
b1000 o
b1000 k
b1000 g
b1000 c
b1000 _
b1000 [
$end
#0
$dumpvars
bx x"
bx v"
0u"
bz t"
bx s"
xr"
b111 q"
b0 p"
bx n"
0m"
bz l"
bx k"
xj"
bx i"
bx h"
bx f"
bx e"
bx d"
b0 c"
bx b"
bx a"
bx `"
bx _"
bx ^"
bx ]"
bx ["
bx Z"
bx Y"
b0 X"
bx W"
bx V"
bx U"
bx T"
bx S"
bx R"
bx P"
bz O"
bz N"
bz M"
bz L"
b0 K"
bx J"
bx I"
bx H"
bx G"
bx E"
bx D"
bx C"
bx B"
bx A"
bx @"
bx ?"
bx >"
bx ="
bx <"
bx 7"
bx 6"
x5"
bx 4"
bx 3"
bx 2"
bx 1"
bx 0"
bx /"
bx ."
bx -"
bx ,"
bx +"
bx '"
bx &"
b0 %"
b0 $"
b0 #"
bx ""
bx !"
bx ~
bx }
bx |
bx {
bx z
bx y
bx x
bx w
bx s
bx r
zq
bx p
zn
bx m
bx l
zj
bx i
bx h
zf
bz e
bx d
zb
bz a
bx `
z^
bx ]
bx \
zZ
bx Y
xX
b1000001100001111 W
1V
0U
xT
1S
bx R
bx Q
bx P
bx O
0N
bx M
bx L
bx K
bx J
bx I
bx H
bx G
xF
bx E
bx D
bz C
bx B
bx A
x@
bx ?
bx >
bx =
bx <
bx ;
bx :
19
08
bx 7
bx 6
bx 5
bx 4
bx 3
b0 2
bx 1
b0 0
0/
0.
x-
0,
0+
0*
0)
bx00000x (
bx '
bx &
bx %
bx $
bz #
bz "
bx !
$end
#5
09
18
1U
#10
b0 B
b0 {
b0 V"
b0 a"
b0 }
b10000 1"
1@
b1 -"
19
0V
08
0U
#15
b0 <
b0 h
b0 :
b0 p
b0 U"
b0 `"
b0 ;
b0 l
b0 T"
b0 _"
b0 ?
b0 \
b0 S"
b0 ^"
b0 =
b0 d
b0 &
b0 &"
b0 >
b0 `
b0 R"
b0 ]"
09
18
1U
#20
bz L
bz 7"
bz W"
bz b"
b0 6"
15"
b10100 I
b10100 4"
b0 O
b0 3"
b100000x (
19
b10100 Q
b0 P
1T
b10100 x"
b10001010000111111011011000000100 W
b0 R
08
0U
#25
09
18
1U
#30
b1 6"
b11011011 I
b11011011 4"
b1 O
b1 3"
19
b11011011 Q
b1 P
b11011011 x"
b11101101101001101111010100110101 W
b1 R
08
0U
#35
09
18
1U
#40
b10 6"
b1111100 I
b1111100 4"
b10 O
b10 3"
19
b1111100 Q
b10 P
b1111100 x"
b10111110010110110000110001110010 W
b10 R
08
0U
#45
09
18
1U
#50
b11 6"
b110101 I
b110101 4"
b11 O
b11 3"
19
b110101 Q
b11 P
b110101 x"
b11010111111001100000101001011 W
b11 R
08
0U
#55
09
18
1U
#60
b100 6"
b1100111 I
b1100111 4"
b100 O
b100 3"
19
b1100111 Q
b100 P
b1100111 x"
b110011100000101001100000010000 W
b100 R
08
0U
#65
09
18
1U
#70
b101 6"
b11110010 I
b11110010 4"
b101 O
b101 3"
19
b11110010 Q
b101 P
b11110010 x"
b1111001010111001001010011010001 W
b101 R
08
0U
#75
09
18
1U
#80
b110 6"
b11101111 I
b11101111 4"
b110 O
b110 3"
19
b11101111 Q
b110 P
b11101111 x"
b1110111100000101100100001011110 W
b110 R
08
0U
#85
09
18
1U
#90
b111 6"
b1000000 I
b1000000 4"
b111 O
b111 3"
19
b1000000 Q
b111 P
b1000000 x"
b100000010001010011100101000111 W
b111 R
08
0U
#95
09
18
1U
#100
b1000 6"
b101001 I
b101001 4"
b1000 O
b1000 3"
19
b101001 Q
b1000 P
b101001 x"
b10010100100111100111100011011100 W
b1000 R
08
0U
#105
09
18
1U
#110
b1001 6"
b1111 I
b1111 4"
b1001 O
b1001 3"
19
b1111 Q
b1001 P
b1111 x"
b10000111111001011111010000101101 W
b1001 R
08
0U
#115
09
18
1U
#120
b1010 6"
b11101001 I
b11101001 4"
b1010 O
b1010 3"
19
b11101001 Q
b1010 P
b11101001 x"
b1110100101101111101000100001010 W
b1010 R
08
0U
#125
09
18
1U
#130
b1011 6"
b111011 I
b111011 4"
b1011 O
b1011 3"
19
b111011 Q
b1011 P
b111011 x"
b10011101110110011110011100000011 W
b1011 R
08
0U
#135
09
18
1U
#140
b1100 6"
b10111110 I
b10111110 4"
b1100 O
b1100 3"
19
b10111110 Q
b1100 P
b10111110 x"
b1011111001111000010010001101000 W
b1100 R
08
0U
#145
09
18
1U
#150
b1101 6"
b11101010 I
b11101010 4"
b1101 O
b1101 3"
19
b11101010 Q
b1101 P
b11101010 x"
b1110101011010100110111101001001 W
b1101 R
08
0U
#155
09
18
1U
#160
b1110 6"
b10111010 I
b10111010 4"
b1110 O
b1110 3"
19
b10111010 Q
b1110 P
b10111010 x"
b11011101001010101101001001110110 W
b1110 R
08
0U
#165
09
18
1U
#170
b1111 6"
b110100 I
b110100 4"
b1111 O
b1111 3"
19
b110100 Q
b1111 P
b110100 x"
b11010011100001000011001111111 W
b1111 R
08
0U
#175
09
18
1U
#180
b10100 L
b10100 7"
b10100 W"
b10100 b"
b0 6"
05"
b0 O
b0 3"
b0x (
19
b0 P
0T
b0 R
08
0U
#185
09
18
1U
#190
19
08
0U
#195
b11011011 L
b11011011 7"
b11011011 W"
b11011011 b"
b1 6"
b1 O
b1 3"
b1 P
b1 R
b10100 x"
#200
09
18
1U
#205
19
08
0U
#210
b1111100 L
b1111100 7"
b1111100 W"
b1111100 b"
b10 6"
b10 O
b10 3"
b10 P
b10 R
b11011011 x"
#215
09
18
1U
#220
19
08
0U
#225
b110101 L
b110101 7"
b110101 W"
b110101 b"
b11 6"
b11 O
b11 3"
b11 P
b11 R
b1111100 x"
#230
09
18
1U
#235
19
08
0U
#240
b1100111 L
b1100111 7"
b1100111 W"
b1100111 b"
b100 6"
b100 O
b100 3"
b100 P
b100 R
b110101 x"
#245
09
18
1U
#250
19
08
0U
#255
b11110010 L
b11110010 7"
b11110010 W"
b11110010 b"
b101 6"
b101 O
b101 3"
b101 P
b101 R
b1100111 x"
#260
09
18
1U
#265
19
08
0U
#270
b11101111 L
b11101111 7"
b11101111 W"
b11101111 b"
b110 6"
b110 O
b110 3"
b110 P
b110 R
b11110010 x"
#275
09
18
1U
#280
19
08
0U
#285
b1000000 L
b1000000 7"
b1000000 W"
b1000000 b"
b111 6"
b111 O
b111 3"
b111 P
b111 R
b11101111 x"
#290
09
18
1U
#295
19
08
0U
#300
b101001 L
b101001 7"
b101001 W"
b101001 b"
b1000 6"
b1000 O
b1000 3"
b1000 P
b1000 R
b1000000 x"
#305
09
18
1U
#310
19
08
0U
#315
b1111 L
b1111 7"
b1111 W"
b1111 b"
b1001 6"
b1001 O
b1001 3"
b1001 P
b1001 R
b101001 x"
#320
09
18
1U
#325
19
08
0U
#330
b11101001 L
b11101001 7"
b11101001 W"
b11101001 b"
b1010 6"
b1010 O
b1010 3"
b1010 P
b1010 R
b1111 x"
#335
09
18
1U
#340
19
08
0U
#345
b111011 L
b111011 7"
b111011 W"
b111011 b"
b1011 6"
b1011 O
b1011 3"
b1011 P
b1011 R
b11101001 x"
#350
09
18
1U
#355
19
08
0U
#360
b10111110 L
b10111110 7"
b10111110 W"
b10111110 b"
b1100 6"
b1100 O
b1100 3"
b1100 P
b1100 R
b111011 x"
#365
09
18
1U
#370
19
08
0U
#375
b11101010 L
b11101010 7"
b11101010 W"
b11101010 b"
b1101 6"
b1101 O
b1101 3"
b1101 P
b1101 R
b10111110 x"
#380
09
18
1U
#385
19
08
0U
#390
b10111010 L
b10111010 7"
b10111010 W"
b10111010 b"
b1110 6"
b1110 O
b1110 3"
b1110 P
b1110 R
b11101010 x"
#395
09
18
1U
#400
19
08
0U
#405
b110100 L
b110100 7"
b110100 W"
b110100 b"
b1111 6"
b1111 O
b1111 3"
b1111 P
b1111 R
b10111010 x"
#410
09
18
1U
#415
19
08
0U
#420
bz L
bz 7"
bz W"
bz b"
b10000 6"
15"
b10101001 I
b10101001 4"
b10000 O
b10000 3"
b100000x (
b10101001 Q
b10000 P
1T
b0 R
b110100 x"
#425
09
18
1U
#430
b10001 6"
b100 I
b100 4"
b10001 O
b10001 3"
19
b100 Q
b10001 P
b1 R
08
0U
#435
09
18
1U
#440
b10010 6"
b10000101 I
b10000101 4"
b10010 O
b10010 3"
19
b10000101 Q
b10010 P
b10 R
08
0U
#445
09
18
1U
#450
b10011 6"
b10 I
b10 4"
b10011 O
b10011 3"
19
b10 Q
b10011 P
b11 R
08
0U
#455
09
18
1U
#460
b10100 6"
b0 I
b0 4"
b10100 O
b10100 3"
19
b0 Q
b10100 P
b100 R
08
0U
#465
09
18
1U
#470
b10101 6"
b10101 O
b10101 3"
19
b10101 P
b101 R
08
0U
#475
09
18
1U
#480
b10110 6"
b10110 O
b10110 3"
19
b10110 P
b110 R
08
0U
#485
09
18
1U
#490
b10111 6"
b10111 O
b10111 3"
19
b10111 P
b111 R
08
0U
#495
09
18
1U
#500
b11000 6"
b11000 O
b11000 3"
19
b11000 P
b1000 R
08
0U
#505
09
18
1U
#510
b11001 6"
b11001 O
b11001 3"
19
b11001 P
b1001 R
08
0U
#515
09
18
1U
#520
b11010 6"
b11010 O
b11010 3"
19
b11010 P
b1010 R
08
0U
#525
09
18
1U
#530
b11011 6"
b11011 O
b11011 3"
19
b11011 P
b1011 R
08
0U
#535
09
18
1U
#540
b11100 6"
b11100 O
b11100 3"
19
b11100 P
b1100 R
08
0U
#545
09
18
1U
#550
b11101 6"
b11101 O
b11101 3"
19
b11101 P
b1101 R
08
0U
#555
09
18
1U
#560
b11110 6"
b11110 O
b11110 3"
19
b11110 P
b1110 R
08
0U
#565
09
18
1U
#570
b11111 6"
b11111 O
b11111 3"
19
b11111 P
b1111 R
08
0U
#575
09
18
1U
#580
b10101001 L
b10101001 7"
b10101001 W"
b10101001 b"
b10000 6"
05"
b10000 O
b10000 3"
b0x (
19
b10000 P
0T
b0 R
08
0U
#585
09
18
1U
#590
b100 L
b100 7"
b100 W"
b100 b"
b10001 6"
b10001 O
b10001 3"
19
b10001 P
b1 R
b10101001 x"
08
0U
#595
09
18
1U
#600
b10000101 L
b10000101 7"
b10000101 W"
b10000101 b"
b10010 6"
b10010 O
b10010 3"
19
b10010 P
b10 R
b100 x"
08
0U
#605
09
18
1U
#610
b10 L
b10 7"
b10 W"
b10 b"
b10011 6"
b10011 O
b10011 3"
19
b10011 P
b11 R
b10000101 x"
08
0U
#615
09
18
1U
#620
b0 L
b0 7"
b0 W"
b0 b"
b10100 6"
b10100 O
b10100 3"
19
b10100 P
b100 R
b10 x"
08
0U
#625
09
18
1U
#630
b10101 6"
b10101 O
b10101 3"
19
b10101 P
b101 R
b0 x"
08
0U
#635
09
18
1U
#640
b10110 6"
b10110 O
b10110 3"
19
b10110 P
b110 R
08
0U
#645
09
18
1U
#650
b10111 6"
b10111 O
b10111 3"
19
b10111 P
b111 R
08
0U
#655
09
18
1U
#660
b11000 6"
b11000 O
b11000 3"
19
b11000 P
b1000 R
08
0U
#665
09
18
1U
#670
b11001 6"
b11001 O
b11001 3"
19
b11001 P
b1001 R
08
0U
#675
09
18
1U
#680
b11010 6"
b11010 O
b11010 3"
19
b11010 P
b1010 R
08
0U
#685
09
18
1U
#690
b11011 6"
b11011 O
b11011 3"
19
b11011 P
b1011 R
08
0U
#695
09
18
1U
#700
b11100 6"
b11100 O
b11100 3"
19
b11100 P
b1100 R
08
0U
#705
09
18
1U
#710
b11101 6"
b11101 O
b11101 3"
19
b11101 P
b1101 R
08
0U
#715
09
18
1U
#720
b11110 6"
b11110 O
b11110 3"
19
b11110 P
b1110 R
08
0U
#725
09
18
1U
#730
b11111 6"
b11111 O
b11111 3"
19
b11111 P
b1111 R
08
0U
#735
09
18
1U
#740
b10100 K
b10100 '"
b10100 A"
b10100 7
b10100 E"
b10100 ["
bz D
bz B"
bz J
bz C"
bz D"
bz %
bz m
bz ?"
bz J"
bz $
bz i
bz >"
bz I"
bz !
bz Y
bz ="
bz H"
b10100 L
b10100 7"
b10100 W"
b10100 b"
b111 1
b111 @"
b111 s"
b111 v"
b101 4
b101 Z"
b101 k"
b101 n"
b0 6"
1r"
1j"
b101 H
b101 ."
b101 i"
0@
b0 -"
b0 z
b0 y
1F
b0 O
b0 3"
bz I
bz 4"
19
1X
1V
0S
b10000 R
08
0U
#745
09
18
1U
#750
19
08
0U
#755
0F
b0 R
0X
#760
09
18
1U
#765
b1 -"
b10100 /"
b1 1"
b10100 A
b10100 r
b10100 0"
b101 +"
1r"
1j"
b101 H
b101 ."
b101 i"
19
b1 R
08
0U
#770
09
18
1U
#775
b0 K
b0 '"
b0 A"
b0 7
b0 E"
b0 ["
b10 4
b10 Z"
b10 k"
b10 n"
b10 -"
b10100 G
b10100 s
b10100 ,"
1r"
1j"
b10 H
b10 ."
b10 i"
19
b10 R
08
0U
#780
09
18
1U
#785
b0 L
b0 7"
b0 W"
b0 b"
bx 7
bx E"
bx ["
b10100 6"
b10100 O
b10100 3"
bz K
bz '"
bz A"
b0 1
b0 @"
b0 s"
b0 v"
bx 4
bx Z"
bx k"
bx n"
b11 -"
1@
0r"
0j"
b0 H
b0 ."
b0 i"
19
b11 R
08
0U
#790
09
18
1U
#795
b10100 |
b0 ~
b101 w
19
b100 R
08
0U
