Out/iflow.vcd
$date
	Wed Aug 02 15:34:20 2023
$end
$version
	Icarus Verilog
$end
$timescale
	1ns
$end
$scope module tb_iflow $end
$var wire 1 ! get_next $end
$var wire 4 " y_selector [3:0] $end
$var wire 4 # x_selector [3:0] $end
$var wire 1 $ we_y $end
$var wire 1 % we_x $end
$var wire 1 & we_stat $end
$var wire 1 ' we_sp $end
$var wire 1 ( we_pc $end
$var wire 1 ) we_dout $end
$var wire 1 * we_add $end
$var wire 7 + we [6:0] $end
$var wire 4 , stat_selector [3:0] $end
$var wire 4 - sp_selector [3:0] $end
$var wire 1 . phi2_int $end
$var wire 1 / phi1_int $end
$var wire 4 0 pc_selector [3:0] $end
$var wire 16 1 pc_next [15:0] $end
$var wire 8 2 oY [7:0] $end
$var wire 8 3 oX [7:0] $end
$var wire 8 4 oSTATUS [7:0] $end
$var wire 8 5 oSP [7:0] $end
$var wire 8 6 oPC [7:0] $end
$var wire 8 7 oADD [7:0] $end
$var wire 4 8 mem_selector [3:0] $end
$var wire 1 9 instruction_ready $end
$var wire 1 : instruction_done $end
$var wire 8 ; instruction [7:0] $end
$var wire 8 < imm [7:0] $end
$var wire 8 = iY [7:0] $end
$var wire 8 > iX [7:0] $end
$var wire 8 ? iSTATUS [7:0] $end
$var wire 8 @ iSP [7:0] $end
$var wire 8 A iPC [7:0] $end
$var wire 8 B iADD [7:0] $end
$var wire 16 C fetcher_addr [15:0] $end
$var wire 4 D fetch_selector [3:0] $end
$var wire 4 E decode_selector [3:0] $end
$var wire 8 F d_to_mem1 [7:0] $end
$var wire 8 G d_to_mem [7:0] $end
$var wire 8 H d_to_fetch [7:0] $end
$var wire 8 I d_to_alu_1 [7:0] $end
$var wire 8 J d_to_alu_0 [7:0] $end
$var wire 8 K d_from_mem [7:0] $end
$var wire 8 L d_from_fetch [7:0] $end
$var wire 8 M d_from_alu [7:0] $end
$var wire 8 N alu_opp [7:0] $end
$var wire 4 O alu1_selector [3:0] $end
$var wire 4 P alu0_selector [3:0] $end
$var wire 16 Q addr [15:0] $end
$var wire 4 R add_selector [3:0] $end
$var reg 16 S addr_in [15:0] $end
$var reg 8 T d_in [7:0] $end
$var reg 32 U i [31:0] $end
$var reg 1 V manual_mem $end
$var reg 1 W mem_write $end
$var reg 16 X pc [15:0] $end
$var reg 1 Y phi0 $end
$var reg 1 Z reset_n $end
$var reg 32 [ seed [31:0] $end
$var reg 1 \ trigger_program $end
$scope module ADD $end
$var wire 1 Z reset_n $end
$var wire 1 ] valid $end
$var wire 1 * we $end
$var wire 8 ^ din [7:0] $end
$var wire 1 . clk $end
$var parameter 32 _ REG_WIDTH $end
$var reg 8 ` dout [7:0] $end
$upscope $end
$scope module PC $end
$var wire 1 Z reset_n $end
$var wire 1 a valid $end
$var wire 1 ( we $end
$var wire 8 b din [7:0] $end
$var wire 1 . clk $end
$var parameter 32 c REG_WIDTH $end
$var reg 8 d dout [7:0] $end
$upscope $end
$scope module SP $end
$var wire 1 Z reset_n $end
$var wire 1 e valid $end
$var wire 1 ' we $end
$var wire 8 f din [7:0] $end
$var wire 1 . clk $end
$var parameter 32 g REG_WIDTH $end
$var reg 8 h dout [7:0] $end
$upscope $end
$scope module STAT $end
$var wire 1 Z reset_n $end
$var wire 1 i valid $end
$var wire 1 & we $end
$var wire 8 j din [7:0] $end
$var wire 1 . clk $end
$var parameter 32 k REG_WIDTH $end
$var reg 8 l dout [7:0] $end
$upscope $end
$scope module X $end
$var wire 1 Z reset_n $end
$var wire 1 m valid $end
$var wire 1 % we $end
$var wire 8 n din [7:0] $end
$var wire 1 . clk $end
$var parameter 32 o REG_WIDTH $end
$var reg 8 p dout [7:0] $end
$upscope $end
$scope module Y $end
$var wire 1 Z reset_n $end
$var wire 1 q valid $end
$var wire 1 $ we $end
$var wire 8 r din [7:0] $end
$var wire 1 . clk $end
$var parameter 32 s REG_WIDTH $end
$var reg 8 t dout [7:0] $end
$upscope $end
$scope module alu $end
$var wire 1 u carry_in $end
$var wire 1 v dec_mode $end
$var wire 1 w half_carry $end
$var wire 1 x overflow $end
$var wire 1 Z reset_n $end
$var wire 1 . phi2 $end
$var wire 1 / phi1 $end
$var wire 8 y func [7:0] $end
$var wire 8 z b [7:0] $end
$var wire 8 { a [7:0] $end
$var reg 1 | carry_out $end
$var reg 8 } dout [7:0] $end
$var reg 8 ~ status [7:0] $end
$var reg 1 !" wout $end
$var reg 1 "" wout_status $end
$upscope $end
$scope module bus $end
$var wire 8 #" add_in [7:0] $end
$var wire 8 $" alu_in [7:0] $end
$var wire 8 %" decode_in [7:0] $end
$var wire 8 &" pc_in [7:0] $end
$var wire 1 Z reset_n $end
$var wire 8 '" sp_in [7:0] $end
$var wire 8 (" stat_in [7:0] $end
$var wire 8 )" x_in [7:0] $end
$var wire 8 *" y_in [7:0] $end
$var wire 4 +" y_selector [3:0] $end
$var wire 8 ," y_out [7:0] $end
$var wire 4 -" x_selector [3:0] $end
$var wire 8 ." x_out [7:0] $end
$var wire 4 /" stat_selector [3:0] $end
$var wire 8 0" stat_out [7:0] $end
$var wire 4 1" sp_selector [3:0] $end
$var wire 8 2" sp_out [7:0] $end
$var wire 4 3" pc_selector [3:0] $end
$var wire 8 4" pc_out [7:0] $end
$var wire 4 5" mem_selector [3:0] $end
$var wire 8 6" mem_out [7:0] $end
$var wire 8 7" mem_in [7:0] $end
$var wire 8 8" imm_in [7:0] $end
$var wire 4 9" fetch_selector [3:0] $end
$var wire 8 :" fetch_out [7:0] $end
$var wire 8 ;" fetch_in [7:0] $end
$var wire 4 <" decode_selector [3:0] $end
$var wire 8 =" decode_out [7:0] $end
$var wire 1 . clk $end
$var wire 4 >" alu1_selector [3:0] $end
$var wire 8 ?" alu1_out [7:0] $end
$var wire 4 @" alu0_selector [3:0] $end
$var wire 8 A" alu0_out [7:0] $end
$var wire 4 B" add_selector [3:0] $end
$var wire 8 C" add_out [7:0] $end
$var parameter 32 D" SELECTOR_WIDTH $end
$var parameter 32 E" SIGNAL_WIDTH $end
$scope module add_mux $end
$var wire 8 F" in0 [7:0] $end
$var wire 8 G" in1 [7:0] $end
$var wire 8 H" in10 [7:0] $end
$var wire 8 I" in11 [7:0] $end
$var wire 8 J" in12 [7:0] $end
$var wire 8 K" in13 [7:0] $end
$var wire 8 L" in14 [7:0] $end
$var wire 8 M" in15 [7:0] $end
$var wire 8 N" in2 [7:0] $end
$var wire 8 O" in3 [7:0] $end
$var wire 8 P" in4 [7:0] $end
$var wire 8 Q" in5 [7:0] $end
$var wire 8 R" in6 [7:0] $end
$var wire 4 S" selector [3:0] $end
$var wire 8 T" out [7:0] $end
$var wire 8 U" in9 [7:0] $end
$var wire 8 V" in8 [7:0] $end
$var wire 8 W" in7 [7:0] $end
$var wire 1 . clk $end
$var parameter 32 X" SELECTOR_WIDTH $end
$var parameter 32 Y" SIGNAL_WIDTH $end
$upscope $end
$scope module alu0_mux $end
$var wire 8 Z" in0 [7:0] $end
$var wire 8 [" in1 [7:0] $end
$var wire 8 \" in10 [7:0] $end
$var wire 8 ]" in11 [7:0] $end
$var wire 8 ^" in12 [7:0] $end
$var wire 8 _" in13 [7:0] $end
$var wire 8 `" in14 [7:0] $end
$var wire 8 a" in15 [7:0] $end
$var wire 8 b" in2 [7:0] $end
$var wire 8 c" in3 [7:0] $end
$var wire 8 d" in4 [7:0] $end
$var wire 8 e" in5 [7:0] $end
$var wire 8 f" in6 [7:0] $end
$var wire 4 g" selector [3:0] $end
$var wire 8 h" out [7:0] $end
$var wire 8 i" in9 [7:0] $end
$var wire 8 j" in8 [7:0] $end
$var wire 8 k" in7 [7:0] $end
$var wire 1 . clk $end
$var parameter 32 l" SELECTOR_WIDTH $end
$var parameter 32 m" SIGNAL_WIDTH $end
$upscope $end
$scope module alu1_mux $end
$var wire 8 n" in0 [7:0] $end
$var wire 8 o" in1 [7:0] $end
$var wire 8 p" in10 [7:0] $end
$var wire 8 q" in11 [7:0] $end
$var wire 8 r" in12 [7:0] $end
$var wire 8 s" in13 [7:0] $end
$var wire 8 t" in14 [7:0] $end
$var wire 8 u" in15 [7:0] $end
$var wire 8 v" in2 [7:0] $end
$var wire 8 w" in3 [7:0] $end
$var wire 8 x" in4 [7:0] $end
$var wire 8 y" in5 [7:0] $end
$var wire 8 z" in6 [7:0] $end
$var wire 4 {" selector [3:0] $end
$var wire 8 |" out [7:0] $end
$var wire 8 }" in9 [7:0] $end
$var wire 8 ~" in8 [7:0] $end
$var wire 8 !# in7 [7:0] $end
$var wire 1 . clk $end
$var parameter 32 "# SELECTOR_WIDTH $end
$var parameter 32 ## SIGNAL_WIDTH $end
$upscope $end
$scope module decode_mux $end
$var wire 8 $# in0 [7:0] $end
$var wire 8 %# in1 [7:0] $end
$var wire 8 &# in10 [7:0] $end
$var wire 8 '# in11 [7:0] $end
$var wire 8 (# in12 [7:0] $end
$var wire 8 )# in13 [7:0] $end
$var wire 8 *# in14 [7:0] $end
$var wire 8 +# in15 [7:0] $end
$var wire 8 ,# in2 [7:0] $end
$var wire 8 -# in3 [7:0] $end
$var wire 8 .# in4 [7:0] $end
$var wire 8 /# in5 [7:0] $end
$var wire 8 0# in6 [7:0] $end
$var wire 4 1# selector [3:0] $end
$var wire 8 2# out [7:0] $end
$var wire 8 3# in9 [7:0] $end
$var wire 8 4# in8 [7:0] $end
$var wire 8 5# in7 [7:0] $end
$var wire 1 . clk $end
$var parameter 32 6# SELECTOR_WIDTH $end
$var parameter 32 7# SIGNAL_WIDTH $end
$upscope $end
$scope module fetch_mux $end
$var wire 8 8# in0 [7:0] $end
$var wire 8 9# in1 [7:0] $end
$var wire 8 :# in10 [7:0] $end
$var wire 8 ;# in11 [7:0] $end
$var wire 8 <# in12 [7:0] $end
$var wire 8 =# in13 [7:0] $end
$var wire 8 ># in14 [7:0] $end
$var wire 8 ?# in15 [7:0] $end
$var wire 8 @# in2 [7:0] $end
$var wire 8 A# in3 [7:0] $end
$var wire 8 B# in4 [7:0] $end
$var wire 8 C# in5 [7:0] $end
$var wire 8 D# in6 [7:0] $end
$var wire 4 E# selector [3:0] $end
$var wire 8 F# out [7:0] $end
$var wire 8 G# in9 [7:0] $end
$var wire 8 H# in8 [7:0] $end
$var wire 8 I# in7 [7:0] $end
$var wire 1 . clk $end
$var parameter 32 J# SELECTOR_WIDTH $end
$var parameter 32 K# SIGNAL_WIDTH $end
$upscope $end
$scope module mem_mux $end
$var wire 8 L# in0 [7:0] $end
$var wire 8 M# in1 [7:0] $end
$var wire 8 N# in10 [7:0] $end
$var wire 8 O# in11 [7:0] $end
$var wire 8 P# in12 [7:0] $end
$var wire 8 Q# in13 [7:0] $end
$var wire 8 R# in14 [7:0] $end
$var wire 8 S# in15 [7:0] $end
$var wire 8 T# in2 [7:0] $end
$var wire 8 U# in3 [7:0] $end
$var wire 8 V# in4 [7:0] $end
$var wire 8 W# in5 [7:0] $end
$var wire 8 X# in6 [7:0] $end
$var wire 4 Y# selector [3:0] $end
$var wire 8 Z# out [7:0] $end
$var wire 8 [# in9 [7:0] $end
$var wire 8 \# in8 [7:0] $end
$var wire 8 ]# in7 [7:0] $end
$var wire 1 . clk $end
$var parameter 32 ^# SELECTOR_WIDTH $end
$var parameter 32 _# SIGNAL_WIDTH $end
$upscope $end
$scope module pc_mux $end
$var wire 8 `# in0 [7:0] $end
$var wire 8 a# in1 [7:0] $end
$var wire 8 b# in10 [7:0] $end
$var wire 8 c# in11 [7:0] $end
$var wire 8 d# in12 [7:0] $end
$var wire 8 e# in13 [7:0] $end
$var wire 8 f# in14 [7:0] $end
$var wire 8 g# in15 [7:0] $end
$var wire 8 h# in2 [7:0] $end
$var wire 8 i# in3 [7:0] $end
$var wire 8 j# in4 [7:0] $end
$var wire 8 k# in5 [7:0] $end
$var wire 8 l# in6 [7:0] $end
$var wire 4 m# selector [3:0] $end
$var wire 8 n# out [7:0] $end
$var wire 8 o# in9 [7:0] $end
$var wire 8 p# in8 [7:0] $end
$var wire 8 q# in7 [7:0] $end
$var wire 1 . clk $end
$var parameter 32 r# SELECTOR_WIDTH $end
$var parameter 32 s# SIGNAL_WIDTH $end
$upscope $end
$scope module sp_mux $end
$var wire 8 t# in0 [7:0] $end
$var wire 8 u# in1 [7:0] $end
$var wire 8 v# in10 [7:0] $end
$var wire 8 w# in11 [7:0] $end
$var wire 8 x# in12 [7:0] $end
$var wire 8 y# in13 [7:0] $end
$var wire 8 z# in14 [7:0] $end
$var wire 8 {# in15 [7:0] $end
$var wire 8 |# in2 [7:0] $end
$var wire 8 }# in3 [7:0] $end
$var wire 8 ~# in4 [7:0] $end
$var wire 8 !$ in5 [7:0] $end
$var wire 8 "$ in6 [7:0] $end
$var wire 4 #$ selector [3:0] $end
$var wire 8 $$ out [7:0] $end
$var wire 8 %$ in9 [7:0] $end
$var wire 8 &$ in8 [7:0] $end
$var wire 8 '$ in7 [7:0] $end
$var wire 1 . clk $end
$var parameter 32 ($ SELECTOR_WIDTH $end
$var parameter 32 )$ SIGNAL_WIDTH $end
$upscope $end
$scope module stat_mux $end
$var wire 8 *$ in0 [7:0] $end
$var wire 8 +$ in1 [7:0] $end
$var wire 8 ,$ in10 [7:0] $end
$var wire 8 -$ in11 [7:0] $end
$var wire 8 .$ in12 [7:0] $end
$var wire 8 /$ in13 [7:0] $end
$var wire 8 0$ in14 [7:0] $end
$var wire 8 1$ in15 [7:0] $end
$var wire 8 2$ in2 [7:0] $end
$var wire 8 3$ in3 [7:0] $end
$var wire 8 4$ in4 [7:0] $end
$var wire 8 5$ in5 [7:0] $end
$var wire 8 6$ in6 [7:0] $end
$var wire 4 7$ selector [3:0] $end
$var wire 8 8$ out [7:0] $end
$var wire 8 9$ in9 [7:0] $end
$var wire 8 :$ in8 [7:0] $end
$var wire 8 ;$ in7 [7:0] $end
$var wire 1 . clk $end
$var parameter 32 <$ SELECTOR_WIDTH $end
$var parameter 32 =$ SIGNAL_WIDTH $end
$upscope $end
$scope module x_mux $end
$var wire 8 >$ in0 [7:0] $end
$var wire 8 ?$ in1 [7:0] $end
$var wire 8 @$ in10 [7:0] $end
$var wire 8 A$ in11 [7:0] $end
$var wire 8 B$ in12 [7:0] $end
$var wire 8 C$ in13 [7:0] $end
$var wire 8 D$ in14 [7:0] $end
$var wire 8 E$ in15 [7:0] $end
$var wire 8 F$ in2 [7:0] $end
$var wire 8 G$ in3 [7:0] $end
$var wire 8 H$ in4 [7:0] $end
$var wire 8 I$ in5 [7:0] $end
$var wire 8 J$ in6 [7:0] $end
$var wire 4 K$ selector [3:0] $end
$var wire 8 L$ out [7:0] $end
$var wire 8 M$ in9 [7:0] $end
$var wire 8 N$ in8 [7:0] $end
$var wire 8 O$ in7 [7:0] $end
$var wire 1 . clk $end
$var parameter 32 P$ SELECTOR_WIDTH $end
$var parameter 32 Q$ SIGNAL_WIDTH $end
$upscope $end
$scope module y_mux $end
$var wire 8 R$ in0 [7:0] $end
$var wire 8 S$ in1 [7:0] $end
$var wire 8 T$ in10 [7:0] $end
$var wire 8 U$ in11 [7:0] $end
$var wire 8 V$ in12 [7:0] $end
$var wire 8 W$ in13 [7:0] $end
$var wire 8 X$ in14 [7:0] $end
$var wire 8 Y$ in15 [7:0] $end
$var wire 8 Z$ in2 [7:0] $end
$var wire 8 [$ in3 [7:0] $end
$var wire 8 \$ in4 [7:0] $end
$var wire 8 ]$ in5 [7:0] $end
$var wire 8 ^$ in6 [7:0] $end
$var wire 4 _$ selector [3:0] $end
$var wire 8 `$ out [7:0] $end
$var wire 8 a$ in9 [7:0] $end
$var wire 8 b$ in8 [7:0] $end
$var wire 8 c$ in7 [7:0] $end
$var wire 1 . clk $end
$var parameter 32 d$ SELECTOR_WIDTH $end
$var parameter 32 e$ SIGNAL_WIDTH $end
$upscope $end
$upscope $end
$scope module clk_mod $end
$var wire 1 Y phi0 $end
$var wire 1 / phi1 $end
$var wire 1 . phi2 $end
$var wire 1 f$ reset_n $end
$upscope $end
$scope module decode $end
$var wire 1 / clk $end
$var wire 1 Z reset_n $end
$var wire 1 9 instruction_ready $end
$var wire 8 g$ instruction_in [7:0] $end
$var wire 16 h$ addr_in [15:0] $end
$var parameter 32 i$ ADDR_WIDTH $end
$var parameter 32 j$ OPP_WIDTH $end
$var parameter 32 k$ REG_WIDTH $end
$var reg 3 l$ add_mode [2:0] $end
$var reg 4 m$ add_selector [3:0] $end
$var reg 16 n$ addr [15:0] $end
$var reg 4 o$ alu0_selector [3:0] $end
$var reg 4 p$ alu1_selector [3:0] $end
$var reg 8 q$ decode_counter [7:0] $end
$var reg 4 r$ decode_selector [3:0] $end
$var reg 8 s$ instruction [7:0] $end
$var reg 1 : instruction_done $end
$var reg 4 t$ mem_selector [3:0] $end
$var reg 8 u$ opp [7:0] $end
$var reg 5 v$ opp_code [4:0] $end
$var reg 4 w$ pc_selector [3:0] $end
$var reg 4 x$ sp_selector [3:0] $end
$var reg 4 y$ stat_selector [3:0] $end
$var reg 7 z$ we [6:0] $end
$var reg 4 {$ x_selector [3:0] $end
$var reg 4 |$ y_selector [3:0] $end
$upscope $end
$scope module fetch $end
$var wire 8 }$ data_in [7:0] $end
$var wire 1 ! get_next $end
$var wire 1 : instruction_done $end
$var wire 16 ~$ pc [15:0] $end
$var wire 1 / phi1 $end
$var wire 1 . phi2 $end
$var wire 1 Z reset_n $end
$var parameter 32 !% ADDR_WIDTH $end
$var parameter 32 "% OPP_WIDTH $end
$var parameter 32 #% REG_WIDTH $end
$var reg 3 $% add_mode [2:0] $end
$var reg 16 %% addr [15:0] $end
$var reg 16 &% addr_reg [15:0] $end
$var reg 3 '% fetch_counter [2:0] $end
$var reg 4 (% fetch_selector [3:0] $end
$var reg 8 )% imm [7:0] $end
$var reg 8 *% instruction_out [7:0] $end
$var reg 1 9 instruction_ready $end
$var reg 16 +% pc_next [15:0] $end
$var reg 1 ,% pc_wait $end
$var reg 8 -% reg_out [7:0] $end
$upscope $end
$scope module mem_test $end
$var wire 16 .% addr [15:0] $end
$var wire 1 . clk $end
$var wire 8 /% din [7:0] $end
$var wire 1 Z reset_n $end
$var wire 1 0% we $end
$var wire 16 1% local_addr [15:0] $end
$var wire 8 2% dout [7:0] $end
$var parameter 32 3% ADDR_WIDTH $end
$var parameter 32 4% BASE $end
$var parameter 32 5% DEPTH $end
$var parameter 32 6% WIDTH $end
$upscope $end
$scope begin main_loop $end
$var reg 8 7% mem_unit [7:0] $end
$upscope $end
$upscope $end
$enddefinitions $end
$comment Show the parameter values. $end
$dumpall
b1000 6%
b111111111 5%
b0 4%
b10000 3%
b1000 #%
b1000 "%
b10000 !%
b1000 k$
b1000 j$
b10000 i$
b1000 e$
b100 d$
b1000 Q$
b100 P$
b1000 =$
b100 <$
b1000 )$
b100 ($
b1000 s#
b100 r#
b1000 _#
b100 ^#
b1000 K#
b100 J#
b1000 7#
b100 6#
b1000 ##
b100 "#
b1000 m"
b100 l"
b1000 Y"
b100 X"
b1000 E"
b100 D"
b1000 s
b1000 o
b1000 k
b1000 g
b1000 c
b1000 _
$end
#0
$dumpvars
bx 7%
bx 2%
bx 1%
x0%
bx /%
bx .%
bx -%
x,%
bx +%
bx *%
bx )%
bx (%
bx '%
bx &%
bx %%
bx $%
bx ~$
bx }$
bx |$
bx {$
b0 z$
bx y$
bx x$
bx w$
bx v$
bx u$
bx t$
bx s$
bx r$
bx q$
bx p$
bx o$
bx n$
bx m$
bx l$
bx h$
bx g$
zf$
bx c$
bx b$
bx a$
bx `$
bx _$
bx ^$
bx ]$
bx \$
bx [$
bx Z$
bz Y$
bz X$
bz W$
bz V$
bz U$
bz T$
bx S$
b0 R$
bx O$
bx N$
bx M$
bx L$
bx K$
bx J$
bx I$
bx H$
bx G$
bx F$
bz E$
bz D$
bz C$
bz B$
bz A$
bz @$
bx ?$
b0 >$
bx ;$
bx :$
bx 9$
bx 8$
bx 7$
bx 6$
bx 5$
bx 4$
bx 3$
bx 2$
bz 1$
bz 0$
bz /$
bz .$
bz -$
bz ,$
bx +$
b0 *$
bx '$
bx &$
bx %$
bx $$
bx #$
bx "$
bx !$
bx ~#
bx }#
bx |#
bz {#
bz z#
bz y#
bz x#
bz w#
bz v#
bx u#
b0 t#
bx q#
bx p#
bx o#
bx n#
bx m#
bx l#
bx k#
bx j#
bx i#
bx h#
bz g#
bz f#
bz e#
bz d#
bz c#
bz b#
bx a#
b0 `#
bx ]#
bx \#
bx [#
bx Z#
bx Y#
bx X#
bx W#
bx V#
bx U#
bx T#
bz S#
bz R#
bz Q#
bz P#
bz O#
bz N#
bx M#
b0 L#
bx I#
bx H#
bx G#
bx F#
bx E#
bx D#
bx C#
bx B#
bx A#
bx @#
bz ?#
bz >#
bz =#
bz <#
bz ;#
bz :#
bx 9#
b0 8#
bx 5#
bx 4#
bx 3#
bx 2#
bx 1#
bx 0#
bx /#
bx .#
bx -#
bx ,#
bz +#
bz *#
bz )#
bz (#
bz '#
bz &#
bx %#
b0 $#
bx !#
bx ~"
bx }"
bx |"
bx {"
bx z"
bx y"
bx x"
bx w"
bx v"
bz u"
bz t"
bz s"
bz r"
bz q"
bz p"
bx o"
b0 n"
bx k"
bx j"
bx i"
bx h"
bx g"
bx f"
bx e"
bx d"
bx c"
bx b"
bz a"
bz `"
bz _"
bz ^"
bz ]"
bz \"
bx ["
b0 Z"
bx W"
bx V"
bx U"
bx T"
bx S"
bx R"
bx Q"
bx P"
bx O"
bx N"
bz M"
bz L"
bz K"
bz J"
bz I"
bz H"
bx G"
b0 F"
bx C"
bx B"
bx A"
bx @"
bx ?"
bx >"
bx ="
bx <"
bx ;"
bx :"
bx 9"
bx 8"
bx 7"
bx 6"
bx 5"
bx 4"
bx 3"
bx 2"
bx 1"
bx 0"
bx /"
bx ."
bx -"
bx ,"
bx +"
bx *"
bx )"
bx ("
bx '"
bx &"
bz %"
bz $"
bx #"
x""
0!"
bx ~
bz }
x|
bx {
bx z
bx y
zx
zw
zv
0u
bx t
bx r
zq
bx p
bx n
zm
bx l
bx j
zi
bx h
bx f
ze
bx d
bx b
za
bx `
bx ^
z]
x\
b1000001100001111 [
1Z
0Y
bx X
xW
1V
bx U
bx T
bx S
bx R
bx Q
bx P
bx O
bx N
bz M
bx L
bx K
bx J
bx I
bx H
bx G
bx F
bx E
bx D
bx C
bx B
bx A
bx @
bx ?
bx >
bx =
bx <
bx ;
x:
x9
bx 8
bx 7
bx 6
bx 5
bx 4
bx 3
bx 2
bx 1
bx 0
1/
0.
bx -
bx ,
bx000000 +
0*
0)
0(
0'
0&
0%
0$
bx #
bx "
x!
$end
#5
0/
1.
1Y
#10
b101010000 X
b101010000 ~$
0:
b0 M
b0 }
b0 $"
b0 I"
b0 ]"
b0 q"
b0 '#
b0 ;#
b0 O#
b0 c#
b0 w#
b0 -$
b0 A$
b0 U$
b0 q$
b0 N
b0 y
b0 u$
1,%
b101010000 1
b101010000 +%
19
b0 '%
1/
0Z
0.
0Y
#15
b0 4
b0 l
b0 ("
b0 R"
b0 f"
b0 z"
b0 0#
b0 D#
b0 X#
b0 l#
b0 "$
b0 6$
b0 J$
b0 ^$
b0 2
b0 t
b0 *"
b0 Q"
b0 e"
b0 y"
b0 /#
b0 C#
b0 W#
b0 k#
b0 !$
b0 5$
b0 I$
b0 ]$
b0 3
b0 p
b0 )"
b0 P"
b0 d"
b0 x"
b0 .#
b0 B#
b0 V#
b0 j#
b0 ~#
b0 4$
b0 H$
b0 \$
b0 7
b0 `
b0 #"
b0 O"
b0 c"
b0 w"
b0 -#
b0 A#
b0 U#
b0 i#
b0 }#
b0 3$
b0 G$
b0 [$
b0 5
b0 h
b0 '"
b0 N"
b0 b"
b0 v"
b0 ,#
b0 @#
b0 T#
b0 h#
b0 |#
b0 2$
b0 F$
b0 Z$
b0 6
b0 d
b0 &"
b0 G"
b0 ["
b0 o"
b0 %#
b0 9#
b0 M#
b0 a#
b0 u#
b0 +$
b0 ?$
b0 S$
0/
1.
1Y
#20
bz K
bz 7"
bz W"
bz k"
bz !#
bz 5#
bz I#
bz ]#
bz q#
bz '$
bz ;$
bz O$
bz c$
bz 2%
b0 1%
10%
b10100 F
b10100 /%
b0 Q
b0 .%
b1000000 +
1/
b10100 T
b0 S
1W
b10100 7%
b10001010000111111011011000000100 [
b0 U
0.
0Y
#25
0/
1.
1Y
#30
b1 1%
b11011011 F
b11011011 /%
b1 Q
b1 .%
1/
b11011011 T
b1 S
b11011011 7%
b11101101101001101111010100110101 [
b1 U
0.
0Y
#35
0/
1.
1Y
#40
b10 1%
b1111100 F
b1111100 /%
b10 Q
b10 .%
1/
b1111100 T
b10 S
b1111100 7%
b10111110010110110000110001110010 [
b10 U
0.
0Y
#45
0/
1.
1Y
#50
b11 1%
b110101 F
b110101 /%
b11 Q
b11 .%
1/
b110101 T
b11 S
b110101 7%
b11010111111001100000101001011 [
b11 U
0.
0Y
#55
0/
1.
1Y
#60
b100 1%
b1100111 F
b1100111 /%
b100 Q
b100 .%
1/
b1100111 T
b100 S
b1100111 7%
b110011100000101001100000010000 [
b100 U
0.
0Y
#65
0/
1.
1Y
#70
b101 1%
b11110010 F
b11110010 /%
b101 Q
b101 .%
1/
b11110010 T
b101 S
b11110010 7%
b1111001010111001001010011010001 [
b101 U
0.
0Y
#75
0/
1.
1Y
#80
b110 1%
b11101111 F
b11101111 /%
b110 Q
b110 .%
1/
b11101111 T
b110 S
b11101111 7%
b1110111100000101100100001011110 [
b110 U
0.
0Y
#85
0/
1.
1Y
#90
b111 1%
b1000000 F
b1000000 /%
b111 Q
b111 .%
1/
b1000000 T
b111 S
b1000000 7%
b100000010001010011100101000111 [
b111 U
0.
0Y
#95
0/
1.
1Y
#100
b1000 1%
b101001 F
b101001 /%
b1000 Q
b1000 .%
1/
b101001 T
b1000 S
b101001 7%
b10010100100111100111100011011100 [
b1000 U
0.
0Y
#105
0/
1.
1Y
#110
b1001 1%
b1111 F
b1111 /%
b1001 Q
b1001 .%
1/
b1111 T
b1001 S
b1111 7%
b10000111111001011111010000101101 [
b1001 U
0.
0Y
#115
0/
1.
1Y
#120
b1010 1%
b11101001 F
b11101001 /%
b1010 Q
b1010 .%
1/
b11101001 T
b1010 S
b11101001 7%
b1110100101101111101000100001010 [
b1010 U
0.
0Y
#125
0/
1.
1Y
#130
b1011 1%
b111011 F
b111011 /%
b1011 Q
b1011 .%
1/
b111011 T
b1011 S
b111011 7%
b10011101110110011110011100000011 [
b1011 U
0.
0Y
#135
0/
1.
1Y
#140
b1100 1%
b10111110 F
b10111110 /%
b1100 Q
b1100 .%
1/
b10111110 T
b1100 S
b10111110 7%
b1011111001111000010010001101000 [
b1100 U
0.
0Y
#145
0/
1.
1Y
#150
b1101 1%
b11101010 F
b11101010 /%
b1101 Q
b1101 .%
1/
b11101010 T
b1101 S
b11101010 7%
b1110101011010100110111101001001 [
b1101 U
0.
0Y
#155
0/
1.
1Y
#160
b1110 1%
b10111010 F
b10111010 /%
b1110 Q
b1110 .%
1/
b10111010 T
b1110 S
b10111010 7%
b11011101001010101101001001110110 [
b1110 U
0.
0Y
#165
0/
1.
1Y
#170
b1111 1%
b110100 F
b110100 /%
b1111 Q
b1111 .%
1/
b110100 T
b1111 S
b110100 7%
b11010011100001000011001111111 [
b1111 U
0.
0Y
#175
0/
1.
1Y
#180
b10000 1%
b11010010 F
b11010010 /%
b10000 Q
b10000 .%
1/
b11010010 T
b10000 S
b11010010 7%
b1101001011011110010011010110100 [
b10000 U
0.
0Y
#185
0/
1.
1Y
#190
b10001 1%
b1110011 F
b1110011 /%
b10001 Q
b10001 .%
1/
b1110011 T
b10001 S
b1110011 7%
b111001101011010010001000100101 [
b10001 U
0.
0Y
#195
0/
1.
1Y
#200
b10010 1%
b111001 F
b111001 /%
b10010 Q
b10010 .%
1/
b111001 T
b10010 S
b111001 7%
b11100100001010011100010100010 [
b10010 U
0.
0Y
#205
0/
1.
1Y
#210
b10011 1%
b10100110 F
b10100110 /%
b10011 Q
b10011 .%
1/
b10100110 T
b10011 S
b10100110 7%
b11010011001100001001001110111011 [
b10011 U
0.
0Y
#215
0/
1.
1Y
#220
b10100 1%
b1010010 F
b1010010 /%
b10100 Q
b10100 .%
1/
b1010010 T
b10100 S
b1010010 7%
b101001001000011100101111000000 [
b10100 U
0.
0Y
#225
0/
1.
1Y
#230
b10101 1%
b11100110 F
b11100110 /%
b10101 Q
b10101 .%
1/
b11100110 T
b10101 S
b11100110 7%
b1110011001010001110100011000001 [
b10101 U
0.
0Y
#235
0/
1.
1Y
#240
b10110 1%
b1101000 F
b1101000 /%
b10110 Q
b10110 .%
1/
b1101000 T
b10110 S
b1101000 7%
b110100010101010010111110001110 [
b10110 U
0.
0Y
#245
0/
1.
1Y
#250
b10111 1%
b11010110 F
b11010110 /%
b10111 Q
b10111 .%
1/
b11010110 T
b10111 S
b11010110 7%
b1101011001011110100101010110111 [
b10111 U
0.
0Y
#255
0/
1.
1Y
#260
b11000 1%
b1100 F
b1100 /%
b11000 Q
b11000 .%
1/
b1100 T
b11000 S
b1100 7%
b10000110011000010001111110001100 [
b11000 U
0.
0Y
#265
0/
1.
1Y
#270
b11001 1%
b1010011 F
b1010011 /%
b11001 Q
b11001 .%
1/
b1010011 T
b11001 S
b1010011 7%
b10101001111011000101111100011101 [
b11001 U
0.
0Y
#275
0/
1.
1Y
#280
b11010 1%
b11100100 F
b11100100 /%
b11010 Q
b11010 .%
1/
b11100100 T
b11010 S
b11100100 7%
b1110010001110011010001100111010 [
b11010 U
0.
0Y
#285
0/
1.
1Y
#290
b11011 1%
b10001 F
b10001 /%
b11011 Q
b11011 .%
1/
b10001 T
b11011 S
b10001 7%
b1000101010111010011101110011 [
b11011 U
0.
0Y
#295
0/
1.
1Y
