Out/iflow.vcd
$date
	Fri Aug 18 18:30:59 2023
$end
$version
	Icarus Verilog
$end
$timescale
	1ns
$end
$scope module tb_iflow $end
$var wire 1 ! get_next $end
$var wire 4 " y_selector [3:0] $end
$var wire 4 # x_selector [3:0] $end
$var wire 1 $ we_y $end
$var wire 1 % we_x $end
$var wire 1 & we_stat $end
$var wire 1 ' we_sp $end
$var wire 1 ( we_pc $end
$var wire 1 ) we_dout $end
$var wire 1 * we_add $end
$var wire 7 + we [6:0] $end
$var wire 1 , update_status $end
$var wire 8 - status_from_bus [7:0] $end
$var wire 8 . status_from_alu [7:0] $end
$var wire 4 / stat_selector [3:0] $end
$var wire 4 0 sp_selector [3:0] $end
$var wire 1 1 phi2_int $end
$var wire 1 2 phi1_int $end
$var wire 4 3 pc_selector [3:0] $end
$var wire 16 4 pc_next [15:0] $end
$var wire 8 5 oY [7:0] $end
$var wire 8 6 oX [7:0] $end
$var wire 8 7 oSTATUS [7:0] $end
$var wire 8 8 oSP [7:0] $end
$var wire 8 9 oPC [7:0] $end
$var wire 8 : oADD [7:0] $end
$var wire 4 ; mem_selector [3:0] $end
$var wire 1 < instruction_ready $end
$var wire 1 = instruction_done $end
$var wire 8 > instruction [7:0] $end
$var wire 8 ? imm [7:0] $end
$var wire 8 @ iY [7:0] $end
$var wire 8 A iX [7:0] $end
$var wire 8 B iSTATUS [7:0] $end
$var wire 8 C iSP [7:0] $end
$var wire 8 D iPC [7:0] $end
$var wire 8 E iADD [7:0] $end
$var wire 16 F fetcher_addr [15:0] $end
$var wire 4 G fetch_selector [3:0] $end
$var wire 4 H decode_selector [3:0] $end
$var wire 8 I d_to_mem1 [7:0] $end
$var wire 8 J d_to_mem [7:0] $end
$var wire 8 K d_to_fetch [7:0] $end
$var wire 8 L d_to_alu_1 [7:0] $end
$var wire 8 M d_to_alu_0 [7:0] $end
$var wire 8 N d_from_mem [7:0] $end
$var wire 8 O d_from_fetch [7:0] $end
$var wire 8 P d_from_alu [7:0] $end
$var wire 8 Q alu_opp [7:0] $end
$var wire 1 R alu_done $end
$var wire 4 S alu1_selector [3:0] $end
$var wire 4 T alu0_selector [3:0] $end
$var wire 16 U addr [15:0] $end
$var wire 4 V add_selector [3:0] $end
$var reg 16 W addr_in [15:0] $end
$var reg 8 X d_in [7:0] $end
$var reg 32 Y i [31:0] $end
$var reg 1 Z manual_mem $end
$var reg 1 [ mem_write $end
$var reg 16 \ pc [15:0] $end
$var reg 1 ] phi0 $end
$var reg 1 ^ reset_n $end
$var reg 32 _ seed [31:0] $end
$var reg 1 ` test_carry $end
$var reg 1 a trigger_program $end
$scope module ADD $end
$var wire 1 ^ reset_n $end
$var wire 1 b valid $end
$var wire 1 * we $end
$var wire 8 c din [7:0] $end
$var wire 1 1 clk $end
$var parameter 32 d REG_WIDTH $end
$var reg 8 e dout [7:0] $end
$upscope $end
$scope module PC $end
$var wire 1 ^ reset_n $end
$var wire 1 f valid $end
$var wire 1 ( we $end
$var wire 8 g din [7:0] $end
$var wire 1 1 clk $end
$var parameter 32 h REG_WIDTH $end
$var reg 8 i dout [7:0] $end
$upscope $end
$scope module SP $end
$var wire 1 ^ reset_n $end
$var wire 1 j valid $end
$var wire 1 ' we $end
$var wire 8 k din [7:0] $end
$var wire 1 1 clk $end
$var parameter 32 l REG_WIDTH $end
$var reg 8 m dout [7:0] $end
$upscope $end
$scope module STAT $end
$var wire 8 n din [7:0] $end
$var wire 1 ^ reset_n $end
$var wire 1 o valid $end
$var wire 1 & we $end
$var wire 1 1 clk $end
$var parameter 32 p REG_WIDTH $end
$var reg 8 q dout [7:0] $end
$upscope $end
$scope module X $end
$var wire 1 ^ reset_n $end
$var wire 1 r valid $end
$var wire 1 % we $end
$var wire 8 s din [7:0] $end
$var wire 1 1 clk $end
$var parameter 32 t REG_WIDTH $end
$var reg 8 u dout [7:0] $end
$upscope $end
$scope module Y $end
$var wire 1 ^ reset_n $end
$var wire 1 v valid $end
$var wire 1 $ we $end
$var wire 8 w din [7:0] $end
$var wire 1 1 clk $end
$var parameter 32 x REG_WIDTH $end
$var reg 8 y dout [7:0] $end
$upscope $end
$scope module alu $end
$var wire 1 z carry_in $end
$var wire 1 { dec_mode $end
$var wire 1 ^ reset_n $end
$var wire 8 | status_in [7:0] $end
$var wire 1 1 phi2 $end
$var wire 1 2 phi1 $end
$var wire 8 } func [7:0] $end
$var wire 8 ~ b [7:0] $end
$var wire 8 !" a [7:0] $end
$var reg 1 "" break_out $end
$var reg 1 #" carry_out $end
$var reg 1 $" decimal_out $end
$var reg 8 %" dout [7:0] $end
$var reg 1 &" interrupt_mask_out $end
$var reg 1 '" opp_reg $end
$var reg 1 (" overflow_out $end
$var reg 8 )" status_out [7:0] $end
$var reg 1 R wout $end
$upscope $end
$scope module bus $end
$var wire 8 *" add_in [7:0] $end
$var wire 8 +" alu_in [7:0] $end
$var wire 8 ," decode_in [7:0] $end
$var wire 8 -" pc_in [7:0] $end
$var wire 1 ^ reset_n $end
$var wire 8 ." sp_in [7:0] $end
$var wire 8 /" stat_in [7:0] $end
$var wire 8 0" x_in [7:0] $end
$var wire 8 1" y_in [7:0] $end
$var wire 4 2" y_selector [3:0] $end
$var wire 8 3" y_out [7:0] $end
$var wire 4 4" x_selector [3:0] $end
$var wire 8 5" x_out [7:0] $end
$var wire 4 6" stat_selector [3:0] $end
$var wire 8 7" stat_out [7:0] $end
$var wire 4 8" sp_selector [3:0] $end
$var wire 8 9" sp_out [7:0] $end
$var wire 4 :" pc_selector [3:0] $end
$var wire 8 ;" pc_out [7:0] $end
$var wire 4 <" mem_selector [3:0] $end
$var wire 8 =" mem_out [7:0] $end
$var wire 8 >" mem_in [7:0] $end
$var wire 8 ?" imm_in [7:0] $end
$var wire 4 @" fetch_selector [3:0] $end
$var wire 8 A" fetch_out [7:0] $end
$var wire 8 B" fetch_in [7:0] $end
$var wire 4 C" decode_selector [3:0] $end
$var wire 8 D" decode_out [7:0] $end
$var wire 1 1 clk $end
$var wire 4 E" alu1_selector [3:0] $end
$var wire 8 F" alu1_out [7:0] $end
$var wire 4 G" alu0_selector [3:0] $end
$var wire 8 H" alu0_out [7:0] $end
$var wire 4 I" add_selector [3:0] $end
$var wire 8 J" add_out [7:0] $end
$var parameter 32 K" SELECTOR_WIDTH $end
$var parameter 32 L" SIGNAL_WIDTH $end
$scope module add_mux $end
$var wire 8 M" in0 [7:0] $end
$var wire 8 N" in1 [7:0] $end
$var wire 8 O" in10 [7:0] $end
$var wire 8 P" in11 [7:0] $end
$var wire 8 Q" in12 [7:0] $end
$var wire 8 R" in13 [7:0] $end
$var wire 8 S" in14 [7:0] $end
$var wire 8 T" in15 [7:0] $end
$var wire 8 U" in2 [7:0] $end
$var wire 8 V" in3 [7:0] $end
$var wire 8 W" in4 [7:0] $end
$var wire 8 X" in5 [7:0] $end
$var wire 8 Y" in6 [7:0] $end
$var wire 4 Z" selector [3:0] $end
$var wire 8 [" out [7:0] $end
$var wire 8 \" in9 [7:0] $end
$var wire 8 ]" in8 [7:0] $end
$var wire 8 ^" in7 [7:0] $end
$var wire 1 1 clk $end
$var parameter 32 _" SELECTOR_WIDTH $end
$var parameter 32 `" SIGNAL_WIDTH $end
$upscope $end
$scope module alu0_mux $end
$var wire 8 a" in0 [7:0] $end
$var wire 8 b" in1 [7:0] $end
$var wire 8 c" in10 [7:0] $end
$var wire 8 d" in11 [7:0] $end
$var wire 8 e" in12 [7:0] $end
$var wire 8 f" in13 [7:0] $end
$var wire 8 g" in14 [7:0] $end
$var wire 8 h" in15 [7:0] $end
$var wire 8 i" in2 [7:0] $end
$var wire 8 j" in3 [7:0] $end
$var wire 8 k" in4 [7:0] $end
$var wire 8 l" in5 [7:0] $end
$var wire 8 m" in6 [7:0] $end
$var wire 4 n" selector [3:0] $end
$var wire 8 o" out [7:0] $end
$var wire 8 p" in9 [7:0] $end
$var wire 8 q" in8 [7:0] $end
$var wire 8 r" in7 [7:0] $end
$var wire 1 1 clk $end
$var parameter 32 s" SELECTOR_WIDTH $end
$var parameter 32 t" SIGNAL_WIDTH $end
$upscope $end
$scope module alu1_mux $end
$var wire 8 u" in0 [7:0] $end
$var wire 8 v" in1 [7:0] $end
$var wire 8 w" in10 [7:0] $end
$var wire 8 x" in11 [7:0] $end
$var wire 8 y" in12 [7:0] $end
$var wire 8 z" in13 [7:0] $end
$var wire 8 {" in14 [7:0] $end
$var wire 8 |" in15 [7:0] $end
$var wire 8 }" in2 [7:0] $end
$var wire 8 ~" in3 [7:0] $end
$var wire 8 !# in4 [7:0] $end
$var wire 8 "# in5 [7:0] $end
$var wire 8 ## in6 [7:0] $end
$var wire 4 $# selector [3:0] $end
$var wire 8 %# out [7:0] $end
$var wire 8 &# in9 [7:0] $end
$var wire 8 '# in8 [7:0] $end
$var wire 8 (# in7 [7:0] $end
$var wire 1 1 clk $end
$var parameter 32 )# SELECTOR_WIDTH $end
$var parameter 32 *# SIGNAL_WIDTH $end
$upscope $end
$scope module decode_mux $end
$var wire 8 +# in0 [7:0] $end
$var wire 8 ,# in1 [7:0] $end
$var wire 8 -# in10 [7:0] $end
$var wire 8 .# in11 [7:0] $end
$var wire 8 /# in12 [7:0] $end
$var wire 8 0# in13 [7:0] $end
$var wire 8 1# in14 [7:0] $end
$var wire 8 2# in15 [7:0] $end
$var wire 8 3# in2 [7:0] $end
$var wire 8 4# in3 [7:0] $end
$var wire 8 5# in4 [7:0] $end
$var wire 8 6# in5 [7:0] $end
$var wire 8 7# in6 [7:0] $end
$var wire 4 8# selector [3:0] $end
$var wire 8 9# out [7:0] $end
$var wire 8 :# in9 [7:0] $end
$var wire 8 ;# in8 [7:0] $end
$var wire 8 <# in7 [7:0] $end
$var wire 1 1 clk $end
$var parameter 32 =# SELECTOR_WIDTH $end
$var parameter 32 ># SIGNAL_WIDTH $end
$upscope $end
$scope module fetch_mux $end
$var wire 8 ?# in0 [7:0] $end
$var wire 8 @# in1 [7:0] $end
$var wire 8 A# in10 [7:0] $end
$var wire 8 B# in11 [7:0] $end
$var wire 8 C# in12 [7:0] $end
$var wire 8 D# in13 [7:0] $end
$var wire 8 E# in14 [7:0] $end
$var wire 8 F# in15 [7:0] $end
$var wire 8 G# in2 [7:0] $end
$var wire 8 H# in3 [7:0] $end
$var wire 8 I# in4 [7:0] $end
$var wire 8 J# in5 [7:0] $end
$var wire 8 K# in6 [7:0] $end
$var wire 4 L# selector [3:0] $end
$var wire 8 M# out [7:0] $end
$var wire 8 N# in9 [7:0] $end
$var wire 8 O# in8 [7:0] $end
$var wire 8 P# in7 [7:0] $end
$var wire 1 1 clk $end
$var parameter 32 Q# SELECTOR_WIDTH $end
$var parameter 32 R# SIGNAL_WIDTH $end
$upscope $end
$scope module mem_mux $end
$var wire 8 S# in0 [7:0] $end
$var wire 8 T# in1 [7:0] $end
$var wire 8 U# in10 [7:0] $end
$var wire 8 V# in11 [7:0] $end
$var wire 8 W# in12 [7:0] $end
$var wire 8 X# in13 [7:0] $end
$var wire 8 Y# in14 [7:0] $end
$var wire 8 Z# in15 [7:0] $end
$var wire 8 [# in2 [7:0] $end
$var wire 8 \# in3 [7:0] $end
$var wire 8 ]# in4 [7:0] $end
$var wire 8 ^# in5 [7:0] $end
$var wire 8 _# in6 [7:0] $end
$var wire 4 `# selector [3:0] $end
$var wire 8 a# out [7:0] $end
$var wire 8 b# in9 [7:0] $end
$var wire 8 c# in8 [7:0] $end
$var wire 8 d# in7 [7:0] $end
$var wire 1 1 clk $end
$var parameter 32 e# SELECTOR_WIDTH $end
$var parameter 32 f# SIGNAL_WIDTH $end
$upscope $end
$scope module pc_mux $end
$var wire 8 g# in0 [7:0] $end
$var wire 8 h# in1 [7:0] $end
$var wire 8 i# in10 [7:0] $end
$var wire 8 j# in11 [7:0] $end
$var wire 8 k# in12 [7:0] $end
$var wire 8 l# in13 [7:0] $end
$var wire 8 m# in14 [7:0] $end
$var wire 8 n# in15 [7:0] $end
$var wire 8 o# in2 [7:0] $end
$var wire 8 p# in3 [7:0] $end
$var wire 8 q# in4 [7:0] $end
$var wire 8 r# in5 [7:0] $end
$var wire 8 s# in6 [7:0] $end
$var wire 4 t# selector [3:0] $end
$var wire 8 u# out [7:0] $end
$var wire 8 v# in9 [7:0] $end
$var wire 8 w# in8 [7:0] $end
$var wire 8 x# in7 [7:0] $end
$var wire 1 1 clk $end
$var parameter 32 y# SELECTOR_WIDTH $end
$var parameter 32 z# SIGNAL_WIDTH $end
$upscope $end
$scope module sp_mux $end
$var wire 8 {# in0 [7:0] $end
$var wire 8 |# in1 [7:0] $end
$var wire 8 }# in10 [7:0] $end
$var wire 8 ~# in11 [7:0] $end
$var wire 8 !$ in12 [7:0] $end
$var wire 8 "$ in13 [7:0] $end
$var wire 8 #$ in14 [7:0] $end
$var wire 8 $$ in15 [7:0] $end
$var wire 8 %$ in2 [7:0] $end
$var wire 8 &$ in3 [7:0] $end
$var wire 8 '$ in4 [7:0] $end
$var wire 8 ($ in5 [7:0] $end
$var wire 8 )$ in6 [7:0] $end
$var wire 4 *$ selector [3:0] $end
$var wire 8 +$ out [7:0] $end
$var wire 8 ,$ in9 [7:0] $end
$var wire 8 -$ in8 [7:0] $end
$var wire 8 .$ in7 [7:0] $end
$var wire 1 1 clk $end
$var parameter 32 /$ SELECTOR_WIDTH $end
$var parameter 32 0$ SIGNAL_WIDTH $end
$upscope $end
$scope module stat_mux $end
$var wire 8 1$ in0 [7:0] $end
$var wire 8 2$ in1 [7:0] $end
$var wire 8 3$ in10 [7:0] $end
$var wire 8 4$ in11 [7:0] $end
$var wire 8 5$ in12 [7:0] $end
$var wire 8 6$ in13 [7:0] $end
$var wire 8 7$ in14 [7:0] $end
$var wire 8 8$ in15 [7:0] $end
$var wire 8 9$ in2 [7:0] $end
$var wire 8 :$ in3 [7:0] $end
$var wire 8 ;$ in4 [7:0] $end
$var wire 8 <$ in5 [7:0] $end
$var wire 8 =$ in6 [7:0] $end
$var wire 4 >$ selector [3:0] $end
$var wire 8 ?$ out [7:0] $end
$var wire 8 @$ in9 [7:0] $end
$var wire 8 A$ in8 [7:0] $end
$var wire 8 B$ in7 [7:0] $end
$var wire 1 1 clk $end
$var parameter 32 C$ SELECTOR_WIDTH $end
$var parameter 32 D$ SIGNAL_WIDTH $end
$upscope $end
$scope module x_mux $end
$var wire 8 E$ in0 [7:0] $end
$var wire 8 F$ in1 [7:0] $end
$var wire 8 G$ in10 [7:0] $end
$var wire 8 H$ in11 [7:0] $end
$var wire 8 I$ in12 [7:0] $end
$var wire 8 J$ in13 [7:0] $end
$var wire 8 K$ in14 [7:0] $end
$var wire 8 L$ in15 [7:0] $end
$var wire 8 M$ in2 [7:0] $end
$var wire 8 N$ in3 [7:0] $end
$var wire 8 O$ in4 [7:0] $end
$var wire 8 P$ in5 [7:0] $end
$var wire 8 Q$ in6 [7:0] $end
$var wire 4 R$ selector [3:0] $end
$var wire 8 S$ out [7:0] $end
$var wire 8 T$ in9 [7:0] $end
$var wire 8 U$ in8 [7:0] $end
$var wire 8 V$ in7 [7:0] $end
$var wire 1 1 clk $end
$var parameter 32 W$ SELECTOR_WIDTH $end
$var parameter 32 X$ SIGNAL_WIDTH $end
$upscope $end
$scope module y_mux $end
$var wire 8 Y$ in0 [7:0] $end
$var wire 8 Z$ in1 [7:0] $end
$var wire 8 [$ in10 [7:0] $end
$var wire 8 \$ in11 [7:0] $end
$var wire 8 ]$ in12 [7:0] $end
$var wire 8 ^$ in13 [7:0] $end
$var wire 8 _$ in14 [7:0] $end
$var wire 8 `$ in15 [7:0] $end
$var wire 8 a$ in2 [7:0] $end
$var wire 8 b$ in3 [7:0] $end
$var wire 8 c$ in4 [7:0] $end
$var wire 8 d$ in5 [7:0] $end
$var wire 8 e$ in6 [7:0] $end
$var wire 4 f$ selector [3:0] $end
$var wire 8 g$ out [7:0] $end
$var wire 8 h$ in9 [7:0] $end
$var wire 8 i$ in8 [7:0] $end
$var wire 8 j$ in7 [7:0] $end
$var wire 1 1 clk $end
$var parameter 32 k$ SELECTOR_WIDTH $end
$var parameter 32 l$ SIGNAL_WIDTH $end
$upscope $end
$upscope $end
$scope module clk_mod $end
$var wire 1 ] phi0 $end
$var wire 1 2 phi1 $end
$var wire 1 1 phi2 $end
$var wire 1 m$ reset_n $end
$upscope $end
$scope module decode $end
$var wire 1 R alu_done $end
$var wire 1 2 clk $end
$var wire 1 ^ reset_n $end
$var wire 1 < instruction_ready $end
$var wire 8 n$ instruction_in [7:0] $end
$var wire 16 o$ addr_in [15:0] $end
$var parameter 32 p$ ADDR_WIDTH $end
$var parameter 32 q$ OPP_WIDTH $end
$var parameter 32 r$ REG_WIDTH $end
$var reg 3 s$ add_mode [2:0] $end
$var reg 4 t$ add_selector [3:0] $end
$var reg 16 u$ addr [15:0] $end
$var reg 4 v$ alu0_selector [3:0] $end
$var reg 4 w$ alu1_selector [3:0] $end
$var reg 1 , alu_update_status $end
$var reg 8 x$ decode_counter [7:0] $end
$var reg 4 y$ decode_selector [3:0] $end
$var reg 8 z$ instruction [7:0] $end
$var reg 1 = instruction_done $end
$var reg 4 {$ mem_selector [3:0] $end
$var reg 8 |$ opp [7:0] $end
$var reg 5 }$ opp_code [4:0] $end
$var reg 4 ~$ pc_selector [3:0] $end
$var reg 4 !% sp_selector [3:0] $end
$var reg 4 "% stat_selector [3:0] $end
$var reg 7 #% we [6:0] $end
$var reg 4 $% x_selector [3:0] $end
$var reg 4 %% y_selector [3:0] $end
$upscope $end
$scope module fetch $end
$var wire 8 &% data_in [7:0] $end
$var wire 1 ! get_next $end
$var wire 1 = instruction_done $end
$var wire 16 '% pc [15:0] $end
$var wire 1 2 phi1 $end
$var wire 1 1 phi2 $end
$var wire 1 ^ reset_n $end
$var parameter 32 (% ADDR_WIDTH $end
$var parameter 32 )% OPP_WIDTH $end
$var parameter 32 *% REG_WIDTH $end
$var reg 3 +% add_mode [2:0] $end
$var reg 16 ,% addr [15:0] $end
$var reg 16 -% addr_reg [15:0] $end
$var reg 3 .% fetch_counter [2:0] $end
$var reg 4 /% fetch_selector [3:0] $end
$var reg 8 0% imm [7:0] $end
$var reg 8 1% instruction_out [7:0] $end
$var reg 1 < instruction_ready $end
$var reg 16 2% pc_next [15:0] $end
$var reg 1 3% pc_wait $end
$var reg 8 4% reg_out [7:0] $end
$upscope $end
$scope module mem_test $end
$var wire 16 5% addr [15:0] $end
$var wire 1 1 clk $end
$var wire 8 6% din [7:0] $end
$var wire 1 ^ reset_n $end
$var wire 1 7% we $end
$var wire 16 8% local_addr [15:0] $end
$var wire 8 9% dout [7:0] $end
$var parameter 32 :% ADDR_WIDTH $end
$var parameter 32 ;% BASE $end
$var parameter 32 <% DEPTH $end
$var parameter 32 =% WIDTH $end
$upscope $end
$scope begin main_loop $end
$var reg 8 >% mem_unit [7:0] $end
$upscope $end
$upscope $end
$enddefinitions $end
$comment Show the parameter values. $end
$dumpall
b1000 =%
b111111111 <%
b0 ;%
b10000 :%
b1000 *%
b1000 )%
b10000 (%
b1000 r$
b1000 q$
b10000 p$
b1000 l$
b100 k$
b1000 X$
b100 W$
b1000 D$
b100 C$
b1000 0$
b100 /$
b1000 z#
b100 y#
b1000 f#
b100 e#
b1000 R#
b100 Q#
b1000 >#
b100 =#
b1000 *#
b100 )#
b1000 t"
b100 s"
b1000 `"
b100 _"
b1000 L"
b100 K"
b1000 x
b1000 t
b1000 p
b1000 l
b1000 h
b1000 d
$end
#0
$dumpvars
bx >%
bx 9%
bx 8%
x7%
bx 6%
bx 5%
bx 4%
x3%
bx 2%
bx 1%
bx 0%
bx /%
bx .%
bx -%
bx ,%
bx +%
bx '%
bx &%
bx %%
bx $%
b0 #%
bx "%
bx !%
bx ~$
bx }$
bx |$
bx {$
bx z$
bx y$
bx x$
bx w$
bx v$
bx u$
bx t$
bx s$
bx o$
bx n$
zm$
bx j$
bx i$
bx h$
bx g$
bx f$
bx e$
bx d$
bx c$
bx b$
bx a$
bz `$
bz _$
bz ^$
b1 ]$
bz \$
bz [$
bx Z$
b0 Y$
bx V$
bx U$
bx T$
bx S$
bx R$
bx Q$
bx P$
bx O$
bx N$
bx M$
bz L$
bz K$
bz J$
b1 I$
bz H$
bz G$
bx F$
b0 E$
bx B$
bx A$
bx @$
bx ?$
bx >$
bx =$
bx <$
bx ;$
bx :$
bx 9$
bz 8$
bz 7$
bz 6$
b1 5$
bz 4$
bz 3$
bx 2$
b0 1$
bx .$
bx -$
bx ,$
bx +$
bx *$
bx )$
bx ($
bx '$
bx &$
bx %$
bz $$
bz #$
bz "$
b1 !$
bz ~#
bz }#
bx |#
b0 {#
bx x#
bx w#
bx v#
bx u#
bx t#
bx s#
bx r#
bx q#
bx p#
bx o#
bz n#
bz m#
bz l#
b1 k#
bz j#
bz i#
bx h#
b0 g#
bx d#
bx c#
bx b#
bx a#
bx `#
bx _#
bx ^#
bx ]#
bx \#
bx [#
bz Z#
bz Y#
bz X#
b1 W#
bz V#
bz U#
bx T#
b0 S#
bx P#
bx O#
bx N#
bx M#
bx L#
bx K#
bx J#
bx I#
bx H#
bx G#
bz F#
bz E#
bz D#
b1 C#
bz B#
bz A#
bx @#
b0 ?#
bx <#
bx ;#
bx :#
bx 9#
bx 8#
bx 7#
bx 6#
bx 5#
bx 4#
bx 3#
bz 2#
bz 1#
bz 0#
b1 /#
bz .#
bz -#
bx ,#
b0 +#
bx (#
bx '#
bx &#
bx %#
bx $#
bx ##
bx "#
bx !#
bx ~"
bx }"
bz |"
bz {"
bz z"
b1 y"
bz x"
bz w"
bx v"
b0 u"
bx r"
bx q"
bx p"
bx o"
bx n"
bx m"
bx l"
bx k"
bx j"
bx i"
bz h"
bz g"
bz f"
b1 e"
bz d"
bz c"
bx b"
b0 a"
bx ^"
bx ]"
bx \"
bx ["
bx Z"
bx Y"
bx X"
bx W"
bx V"
bx U"
bz T"
bz S"
bz R"
b1 Q"
bz P"
bz O"
bx N"
b0 M"
bx J"
bx I"
bx H"
bx G"
bx F"
bx E"
bx D"
bx C"
bx B"
bx A"
bx @"
bx ?"
bx >"
bx ="
bx <"
bx ;"
bx :"
bx 9"
bx 8"
bx 7"
bx 6"
bx 5"
bx 4"
bx 3"
bx 2"
bx 1"
bx 0"
bx /"
bx ."
bx -"
bz ,"
bz +"
bx *"
b0x00000 )"
x("
x'"
x&"
bz %"
x$"
x#"
x""
bx !"
bx ~
bx }
bx |
z{
zz
bx y
bx w
zv
bx u
bx s
zr
bx q
zo
bx n
bx m
bx k
zj
bx i
bx g
zf
bx e
bx c
zb
xa
0`
b1000001100001111 _
1^
0]
bx \
x[
1Z
bx Y
bx X
bx W
bx V
bx U
bx T
bx S
0R
bx Q
bz P
bx O
bx N
bx M
bx L
bx K
bx J
bx I
bx H
bx G
bx F
bx E
bx D
bx C
bx B
bx A
bx @
bx ?
bx >
x=
x<
bx ;
bx :
bx 9
bx 8
bx 7
bx 6
bx 5
bx 4
bx 3
12
01
bx 0
bx /
b0x00000 .
bx -
x,
bx000000 +
0*
0)
0(
0'
x&
0%
0$
bx #
bx "
x!
$end
#5
b0x00000 .
b0x00000 )"
02
11
1]
#10
0&
b101010000 \
b101010000 '%
b110 /
b110 6"
b110 >$
b110 "%
0,
0=
b0 P
b0 %"
b0 +"
b0 P"
b0 d"
b0 x"
b0 .#
b0 B#
b0 V#
b0 j#
b0 ~#
b0 4$
b0 H$
b0 \$
0'"
b0 x$
b0 Q
b0 }
b0 |$
13%
b101010000 4
b101010000 2%
1<
b0 .%
b0 .
b0 )"
12
0^
01
0]
#15
b0 B
b0 n
b0 -
b0 7"
b0 ?$
b0 7
b0 q
b0 |
b0 /"
b0 Y"
b0 m"
b0 ##
b0 7#
b0 K#
b0 _#
b0 s#
b0 )$
b0 =$
b0 Q$
b0 e$
b0 5
b0 y
b0 1"
b0 X"
b0 l"
b0 "#
b0 6#
b0 J#
b0 ^#
b0 r#
b0 ($
b0 <$
b0 P$
b0 d$
b0 6
b0 u
b0 0"
b0 W"
b0 k"
b0 !#
b0 5#
b0 I#
b0 ]#
b0 q#
b0 '$
b0 ;$
b0 O$
b0 c$
b0 :
b0 e
b0 *"
b0 V"
b0 j"
b0 ~"
b0 4#
b0 H#
b0 \#
b0 p#
b0 &$
b0 :$
b0 N$
b0 b$
b0 8
b0 m
b0 ."
b0 U"
b0 i"
b0 }"
b0 3#
b0 G#
b0 [#
b0 o#
b0 %$
b0 9$
b0 M$
b0 a$
b0 9
b0 i
b0 -"
b0 N"
b0 b"
b0 v"
b0 ,#
b0 @#
b0 T#
b0 h#
b0 |#
b0 2$
b0 F$
b0 Z$
b0x00010 .
b0x00010 )"
02
11
1]
#20
bz N
bz >"
bz ^"
bz r"
bz (#
bz <#
bz P#
bz d#
bz x#
bz .$
bz B$
bz V$
bz j$
bz 9%
b0 8%
17%
b10100 I
b10100 6%
b0 U
b0 5%
b1000000 +
b0 .
b0 )"
12
b10100 X
b0 W
1[
b10100 >%
b10001010000111111011011000000100 _
b0 Y
01
0]
#25
b10 .
b10 )"
02
11
1]
#30
b1 8%
b11011011 I
b11011011 6%
b1 U
b1 5%
b0 .
b0 )"
12
b11011011 X
b1 W
b11011011 >%
b11101101101001101111010100110101 _
b1 Y
01
0]
#35
b10 .
b10 )"
02
11
1]
#40
b10 8%
b1111100 I
b1111100 6%
b10 U
b10 5%
b0 .
b0 )"
12
b1111100 X
b10 W
b1111100 >%
b10111110010110110000110001110010 _
b10 Y
01
0]
#45
b10 .
b10 )"
02
11
1]
#50
b11 8%
b110101 I
b110101 6%
b11 U
b11 5%
b0 .
b0 )"
12
b110101 X
b11 W
b110101 >%
b11010111111001100000101001011 _
b11 Y
01
0]
#55
b10 .
b10 )"
02
11
1]
#60
b100 8%
b1100111 I
b1100111 6%
b100 U
b100 5%
b0 .
b0 )"
12
b1100111 X
b100 W
b1100111 >%
b110011100000101001100000010000 _
b100 Y
01
0]
#65
b10 .
b10 )"
02
11
1]
#70
b101 8%
b11110010 I
b11110010 6%
b101 U
b101 5%
b0 .
b0 )"
12
b11110010 X
b101 W
b11110010 >%
b1111001010111001001010011010001 _
b101 Y
01
0]
#75
b10 .
b10 )"
02
11
1]
#80
b110 8%
b11101111 I
b11101111 6%
b110 U
b110 5%
b0 .
b0 )"
12
b11101111 X
b110 W
b11101111 >%
b1110111100000101100100001011110 _
b110 Y
01
0]
#85
b10 .
b10 )"
02
11
1]
#90
b111 8%
b1000000 I
b1000000 6%
b111 U
b111 5%
b0 .
b0 )"
12
b1000000 X
b111 W
b1000000 >%
b100000010001010011100101000111 _
b111 Y
01
0]
#95
b10 .
b10 )"
02
11
1]
#100
b1000 8%
b101001 I
b101001 6%
b1000 U
b1000 5%
b0 .
b0 )"
12
b101001 X
b1000 W
b101001 >%
b10010100100111100111100011011100 _
b1000 Y
01
0]
#105
b10 .
b10 )"
02
11
1]
#110
b1001 8%
b1111 I
b1111 6%
b1001 U
b1001 5%
b0 .
b0 )"
12
b1111 X
b1001 W
b1111 >%
b10000111111001011111010000101101 _
b1001 Y
01
0]
#115
b10 .
b10 )"
02
11
1]
#120
b1010 8%
b11101001 I
b11101001 6%
b1010 U
b1010 5%
b0 .
b0 )"
12
b11101001 X
b1010 W
b11101001 >%
b1110100101101111101000100001010 _
b1010 Y
01
0]
#125
b10 .
b10 )"
02
11
1]
#130
b1011 8%
b111011 I
b111011 6%
b1011 U
b1011 5%
b0 .
b0 )"
12
b111011 X
b1011 W
b111011 >%
b10011101110110011110011100000011 _
b1011 Y
01
0]
#135
b10 .
b10 )"
02
11
1]
#140
b1100 8%
b10111110 I
b10111110 6%
b1100 U
b1100 5%
b0 .
b0 )"
12
b10111110 X
b1100 W
b10111110 >%
b1011111001111000010010001101000 _
b1100 Y
01
0]
#145
b10 .
b10 )"
02
11
1]
#150
b1101 8%
b11101010 I
b11101010 6%
b1101 U
b1101 5%
b0 .
b0 )"
12
b11101010 X
b1101 W
b11101010 >%
b1110101011010100110111101001001 _
b1101 Y
01
0]
#155
b10 .
b10 )"
02
11
1]
#160
b1110 8%
b10111010 I
b10111010 6%
b1110 U
b1110 5%
b0 .
b0 )"
12
b10111010 X
b1110 W
b10111010 >%
b11011101001010101101001001110110 _
b1110 Y
01
0]
#165
b10 .
b10 )"
02
11
1]
#170
b1111 8%
b110100 I
b110100 6%
b1111 U
b1111 5%
b0 .
b0 )"
12
b110100 X
b1111 W
b110100 >%
b11010011100001000011001111111 _
b1111 Y
01
0]
#175
b10 .
b10 )"
02
11
1]
#180
b10000 8%
b11010010 I
b11010010 6%
b10000 U
b10000 5%
b0 .
b0 )"
12
b11010010 X
b10000 W
b11010010 >%
b1101001011011110010011010110100 _
b10000 Y
01
0]
#185
b10 .
b10 )"
02
11
1]
#190
b10001 8%
b1110011 I
b1110011 6%
b10001 U
b10001 5%
b0 .
b0 )"
12
b1110011 X
b10001 W
b1110011 >%
b111001101011010010001000100101 _
b10001 Y
01
0]
#195
b10 .
b10 )"
02
11
1]
#200
b10010 8%
b111001 I
b111001 6%
b10010 U
b10010 5%
b0 .
b0 )"
12
b111001 X
b10010 W
b111001 >%
b11100100001010011100010100010 _
b10010 Y
01
0]
#205
b10 .
b10 )"
02
11
1]
#210
b10011 8%
b10100110 I
b10100110 6%
b10011 U
b10011 5%
b0 .
b0 )"
12
b10100110 X
b10011 W
b10100110 >%
b11010011001100001001001110111011 _
b10011 Y
01
0]
#215
b10 .
b10 )"
02
11
1]
#220
b10100 8%
b1010010 I
b1010010 6%
b10100 U
b10100 5%
b0 .
b0 )"
12
b1010010 X
b10100 W
b1010010 >%
b101001001000011100101111000000 _
b10100 Y
01
0]
#225
b10 .
b10 )"
02
11
1]
