Out/iflow.vcd
$date
	Fri Jul 28 17:12:14 2023
$end
$version
	Icarus Verilog
$end
$timescale
	1ns
$end
$scope module tb_iflow $end
$var wire 1 ! get_next $end
$var wire 4 " y_selector [3:0] $end
$var wire 4 # x_selector [3:0] $end
$var wire 1 $ we_y $end
$var wire 1 % we_x $end
$var wire 1 & we_stat $end
$var wire 1 ' we_sp $end
$var wire 1 ( we_pc $end
$var wire 1 ) we_dout $end
$var wire 1 * we_add $end
$var wire 7 + we [6:0] $end
$var wire 4 , stat_selector [3:0] $end
$var wire 4 - sp_selector [3:0] $end
$var wire 1 . phi2_int $end
$var wire 1 / phi1_int $end
$var wire 4 0 pc_selector [3:0] $end
$var wire 16 1 pc_next [15:0] $end
$var wire 8 2 oY [7:0] $end
$var wire 8 3 oX [7:0] $end
$var wire 8 4 oSTATUS [7:0] $end
$var wire 8 5 oSP [7:0] $end
$var wire 8 6 oPC [7:0] $end
$var wire 8 7 oADD [7:0] $end
$var wire 4 8 mem_selector [3:0] $end
$var wire 1 9 instruction_ready $end
$var wire 1 : instruction_done $end
$var wire 8 ; instruction [7:0] $end
$var wire 8 < imm [7:0] $end
$var wire 8 = iY [7:0] $end
$var wire 8 > iX [7:0] $end
$var wire 8 ? iSTATUS [7:0] $end
$var wire 8 @ iSP [7:0] $end
$var wire 8 A iPC [7:0] $end
$var wire 8 B iADD [7:0] $end
$var wire 16 C fetcher_addr [15:0] $end
$var wire 4 D fetch_selector [3:0] $end
$var wire 4 E decode_selector [3:0] $end
$var wire 8 F d_to_mem1 [7:0] $end
$var wire 8 G d_to_mem [7:0] $end
$var wire 8 H d_to_fetch [7:0] $end
$var wire 8 I d_from_mem [7:0] $end
$var wire 8 J d_from_fetch [7:0] $end
$var wire 4 K alu1_selector [3:0] $end
$var wire 4 L alu0_selector [3:0] $end
$var wire 16 M addr [15:0] $end
$var wire 4 N add_selector [3:0] $end
$var reg 16 O addr_in [15:0] $end
$var reg 8 P d_in [7:0] $end
$var reg 32 Q i [31:0] $end
$var reg 1 R manual_mem $end
$var reg 1 S mem_write $end
$var reg 16 T pc [15:0] $end
$var reg 1 U phi0 $end
$var reg 1 V reset_n $end
$var reg 32 W seed [31:0] $end
$var reg 1 X trigger_program $end
$scope module ADD $end
$var wire 1 V reset_n $end
$var wire 1 Y valid $end
$var wire 1 * we $end
$var wire 8 Z din [7:0] $end
$var wire 1 . clk $end
$var parameter 32 [ REG_WIDTH $end
$var reg 8 \ dout [7:0] $end
$upscope $end
$scope module PC $end
$var wire 1 V reset_n $end
$var wire 1 ] valid $end
$var wire 1 ( we $end
$var wire 8 ^ din [7:0] $end
$var wire 1 . clk $end
$var parameter 32 _ REG_WIDTH $end
$var reg 8 ` dout [7:0] $end
$upscope $end
$scope module SP $end
$var wire 1 V reset_n $end
$var wire 1 a valid $end
$var wire 1 ' we $end
$var wire 8 b din [7:0] $end
$var wire 1 . clk $end
$var parameter 32 c REG_WIDTH $end
$var reg 8 d dout [7:0] $end
$upscope $end
$scope module STAT $end
$var wire 1 V reset_n $end
$var wire 1 e valid $end
$var wire 1 & we $end
$var wire 8 f din [7:0] $end
$var wire 1 . clk $end
$var parameter 32 g REG_WIDTH $end
$var reg 8 h dout [7:0] $end
$upscope $end
$scope module X $end
$var wire 1 V reset_n $end
$var wire 1 i valid $end
$var wire 1 % we $end
$var wire 8 j din [7:0] $end
$var wire 1 . clk $end
$var parameter 32 k REG_WIDTH $end
$var reg 8 l dout [7:0] $end
$upscope $end
$scope module Y $end
$var wire 1 V reset_n $end
$var wire 1 m valid $end
$var wire 1 $ we $end
$var wire 8 n din [7:0] $end
$var wire 1 . clk $end
$var parameter 32 o REG_WIDTH $end
$var reg 8 p dout [7:0] $end
$upscope $end
$scope module bus $end
$var wire 8 q add_in [7:0] $end
$var wire 8 r alu_in [7:0] $end
$var wire 8 s decode_in [7:0] $end
$var wire 8 t pc_in [7:0] $end
$var wire 1 V reset_n $end
$var wire 8 u sp_in [7:0] $end
$var wire 8 v stat_in [7:0] $end
$var wire 8 w x_in [7:0] $end
$var wire 8 x y_in [7:0] $end
$var wire 4 y y_selector [3:0] $end
$var wire 8 z y_out [7:0] $end
$var wire 4 { x_selector [3:0] $end
$var wire 8 | x_out [7:0] $end
$var wire 4 } stat_selector [3:0] $end
$var wire 8 ~ stat_out [7:0] $end
$var wire 4 !" sp_selector [3:0] $end
$var wire 8 "" sp_out [7:0] $end
$var wire 4 #" pc_selector [3:0] $end
$var wire 8 $" pc_out [7:0] $end
$var wire 4 %" mem_selector [3:0] $end
$var wire 8 &" mem_out [7:0] $end
$var wire 8 '" mem_in [7:0] $end
$var wire 8 (" imm_in [7:0] $end
$var wire 4 )" fetch_selector [3:0] $end
$var wire 8 *" fetch_out [7:0] $end
$var wire 8 +" fetch_in [7:0] $end
$var wire 4 ," decode_selector [3:0] $end
$var wire 8 -" decode_out [7:0] $end
$var wire 1 . clk $end
$var wire 4 ." alu1_selector [3:0] $end
$var wire 8 /" alu1_out [7:0] $end
$var wire 4 0" alu0_selector [3:0] $end
$var wire 8 1" alu0_out [7:0] $end
$var wire 4 2" add_selector [3:0] $end
$var wire 8 3" add_out [7:0] $end
$var parameter 32 4" SELECTOR_WIDTH $end
$var parameter 32 5" SIGNAL_WIDTH $end
$scope module add_mux $end
$var wire 8 6" in0 [7:0] $end
$var wire 8 7" in1 [7:0] $end
$var wire 8 8" in10 [7:0] $end
$var wire 8 9" in11 [7:0] $end
$var wire 8 :" in12 [7:0] $end
$var wire 8 ;" in13 [7:0] $end
$var wire 8 <" in14 [7:0] $end
$var wire 8 =" in15 [7:0] $end
$var wire 8 >" in2 [7:0] $end
$var wire 8 ?" in3 [7:0] $end
$var wire 8 @" in4 [7:0] $end
$var wire 8 A" in5 [7:0] $end
$var wire 8 B" in6 [7:0] $end
$var wire 4 C" selector [3:0] $end
$var wire 8 D" out [7:0] $end
$var wire 8 E" in9 [7:0] $end
$var wire 8 F" in8 [7:0] $end
$var wire 8 G" in7 [7:0] $end
$var wire 1 . clk $end
$var parameter 32 H" SELECTOR_WIDTH $end
$var parameter 32 I" SIGNAL_WIDTH $end
$upscope $end
$scope module alu0_mux $end
$var wire 8 J" in0 [7:0] $end
$var wire 8 K" in1 [7:0] $end
$var wire 8 L" in10 [7:0] $end
$var wire 8 M" in11 [7:0] $end
$var wire 8 N" in12 [7:0] $end
$var wire 8 O" in13 [7:0] $end
$var wire 8 P" in14 [7:0] $end
$var wire 8 Q" in15 [7:0] $end
$var wire 8 R" in2 [7:0] $end
$var wire 8 S" in3 [7:0] $end
$var wire 8 T" in4 [7:0] $end
$var wire 8 U" in5 [7:0] $end
$var wire 8 V" in6 [7:0] $end
$var wire 4 W" selector [3:0] $end
$var wire 8 X" out [7:0] $end
$var wire 8 Y" in9 [7:0] $end
$var wire 8 Z" in8 [7:0] $end
$var wire 8 [" in7 [7:0] $end
$var wire 1 . clk $end
$var parameter 32 \" SELECTOR_WIDTH $end
$var parameter 32 ]" SIGNAL_WIDTH $end
$upscope $end
$scope module alu1_mux $end
$var wire 8 ^" in0 [7:0] $end
$var wire 8 _" in1 [7:0] $end
$var wire 8 `" in10 [7:0] $end
$var wire 8 a" in11 [7:0] $end
$var wire 8 b" in12 [7:0] $end
$var wire 8 c" in13 [7:0] $end
$var wire 8 d" in14 [7:0] $end
$var wire 8 e" in15 [7:0] $end
$var wire 8 f" in2 [7:0] $end
$var wire 8 g" in3 [7:0] $end
$var wire 8 h" in4 [7:0] $end
$var wire 8 i" in5 [7:0] $end
$var wire 8 j" in6 [7:0] $end
$var wire 4 k" selector [3:0] $end
$var wire 8 l" out [7:0] $end
$var wire 8 m" in9 [7:0] $end
$var wire 8 n" in8 [7:0] $end
$var wire 8 o" in7 [7:0] $end
$var wire 1 . clk $end
$var parameter 32 p" SELECTOR_WIDTH $end
$var parameter 32 q" SIGNAL_WIDTH $end
$upscope $end
$scope module decode_mux $end
$var wire 8 r" in0 [7:0] $end
$var wire 8 s" in1 [7:0] $end
$var wire 8 t" in10 [7:0] $end
$var wire 8 u" in11 [7:0] $end
$var wire 8 v" in12 [7:0] $end
$var wire 8 w" in13 [7:0] $end
$var wire 8 x" in14 [7:0] $end
$var wire 8 y" in15 [7:0] $end
$var wire 8 z" in2 [7:0] $end
$var wire 8 {" in3 [7:0] $end
$var wire 8 |" in4 [7:0] $end
$var wire 8 }" in5 [7:0] $end
$var wire 8 ~" in6 [7:0] $end
$var wire 4 !# selector [3:0] $end
$var wire 8 "# out [7:0] $end
$var wire 8 ## in9 [7:0] $end
$var wire 8 $# in8 [7:0] $end
$var wire 8 %# in7 [7:0] $end
$var wire 1 . clk $end
$var parameter 32 &# SELECTOR_WIDTH $end
$var parameter 32 '# SIGNAL_WIDTH $end
$upscope $end
$scope module fetch_mux $end
$var wire 8 (# in0 [7:0] $end
$var wire 8 )# in1 [7:0] $end
$var wire 8 *# in10 [7:0] $end
$var wire 8 +# in11 [7:0] $end
$var wire 8 ,# in12 [7:0] $end
$var wire 8 -# in13 [7:0] $end
$var wire 8 .# in14 [7:0] $end
$var wire 8 /# in15 [7:0] $end
$var wire 8 0# in2 [7:0] $end
$var wire 8 1# in3 [7:0] $end
$var wire 8 2# in4 [7:0] $end
$var wire 8 3# in5 [7:0] $end
$var wire 8 4# in6 [7:0] $end
$var wire 4 5# selector [3:0] $end
$var wire 8 6# out [7:0] $end
$var wire 8 7# in9 [7:0] $end
$var wire 8 8# in8 [7:0] $end
$var wire 8 9# in7 [7:0] $end
$var wire 1 . clk $end
$var parameter 32 :# SELECTOR_WIDTH $end
$var parameter 32 ;# SIGNAL_WIDTH $end
$upscope $end
$scope module mem_mux $end
$var wire 8 <# in0 [7:0] $end
$var wire 8 =# in1 [7:0] $end
$var wire 8 ># in10 [7:0] $end
$var wire 8 ?# in11 [7:0] $end
$var wire 8 @# in12 [7:0] $end
$var wire 8 A# in13 [7:0] $end
$var wire 8 B# in14 [7:0] $end
$var wire 8 C# in15 [7:0] $end
$var wire 8 D# in2 [7:0] $end
$var wire 8 E# in3 [7:0] $end
$var wire 8 F# in4 [7:0] $end
$var wire 8 G# in5 [7:0] $end
$var wire 8 H# in6 [7:0] $end
$var wire 4 I# selector [3:0] $end
$var wire 8 J# out [7:0] $end
$var wire 8 K# in9 [7:0] $end
$var wire 8 L# in8 [7:0] $end
$var wire 8 M# in7 [7:0] $end
$var wire 1 . clk $end
$var parameter 32 N# SELECTOR_WIDTH $end
$var parameter 32 O# SIGNAL_WIDTH $end
$upscope $end
$scope module pc_mux $end
$var wire 8 P# in0 [7:0] $end
$var wire 8 Q# in1 [7:0] $end
$var wire 8 R# in10 [7:0] $end
$var wire 8 S# in11 [7:0] $end
$var wire 8 T# in12 [7:0] $end
$var wire 8 U# in13 [7:0] $end
$var wire 8 V# in14 [7:0] $end
$var wire 8 W# in15 [7:0] $end
$var wire 8 X# in2 [7:0] $end
$var wire 8 Y# in3 [7:0] $end
$var wire 8 Z# in4 [7:0] $end
$var wire 8 [# in5 [7:0] $end
$var wire 8 \# in6 [7:0] $end
$var wire 4 ]# selector [3:0] $end
$var wire 8 ^# out [7:0] $end
$var wire 8 _# in9 [7:0] $end
$var wire 8 `# in8 [7:0] $end
$var wire 8 a# in7 [7:0] $end
$var wire 1 . clk $end
$var parameter 32 b# SELECTOR_WIDTH $end
$var parameter 32 c# SIGNAL_WIDTH $end
$upscope $end
$scope module sp_mux $end
$var wire 8 d# in0 [7:0] $end
$var wire 8 e# in1 [7:0] $end
$var wire 8 f# in10 [7:0] $end
$var wire 8 g# in11 [7:0] $end
$var wire 8 h# in12 [7:0] $end
$var wire 8 i# in13 [7:0] $end
$var wire 8 j# in14 [7:0] $end
$var wire 8 k# in15 [7:0] $end
$var wire 8 l# in2 [7:0] $end
$var wire 8 m# in3 [7:0] $end
$var wire 8 n# in4 [7:0] $end
$var wire 8 o# in5 [7:0] $end
$var wire 8 p# in6 [7:0] $end
$var wire 4 q# selector [3:0] $end
$var wire 8 r# out [7:0] $end
$var wire 8 s# in9 [7:0] $end
$var wire 8 t# in8 [7:0] $end
$var wire 8 u# in7 [7:0] $end
$var wire 1 . clk $end
$var parameter 32 v# SELECTOR_WIDTH $end
$var parameter 32 w# SIGNAL_WIDTH $end
$upscope $end
$scope module stat_mux $end
$var wire 8 x# in0 [7:0] $end
$var wire 8 y# in1 [7:0] $end
$var wire 8 z# in10 [7:0] $end
$var wire 8 {# in11 [7:0] $end
$var wire 8 |# in12 [7:0] $end
$var wire 8 }# in13 [7:0] $end
$var wire 8 ~# in14 [7:0] $end
$var wire 8 !$ in15 [7:0] $end
$var wire 8 "$ in2 [7:0] $end
$var wire 8 #$ in3 [7:0] $end
$var wire 8 $$ in4 [7:0] $end
$var wire 8 %$ in5 [7:0] $end
$var wire 8 &$ in6 [7:0] $end
$var wire 4 '$ selector [3:0] $end
$var wire 8 ($ out [7:0] $end
$var wire 8 )$ in9 [7:0] $end
$var wire 8 *$ in8 [7:0] $end
$var wire 8 +$ in7 [7:0] $end
$var wire 1 . clk $end
$var parameter 32 ,$ SELECTOR_WIDTH $end
$var parameter 32 -$ SIGNAL_WIDTH $end
$upscope $end
$scope module x_mux $end
$var wire 8 .$ in0 [7:0] $end
$var wire 8 /$ in1 [7:0] $end
$var wire 8 0$ in10 [7:0] $end
$var wire 8 1$ in11 [7:0] $end
$var wire 8 2$ in12 [7:0] $end
$var wire 8 3$ in13 [7:0] $end
$var wire 8 4$ in14 [7:0] $end
$var wire 8 5$ in15 [7:0] $end
$var wire 8 6$ in2 [7:0] $end
$var wire 8 7$ in3 [7:0] $end
$var wire 8 8$ in4 [7:0] $end
$var wire 8 9$ in5 [7:0] $end
$var wire 8 :$ in6 [7:0] $end
$var wire 4 ;$ selector [3:0] $end
$var wire 8 <$ out [7:0] $end
$var wire 8 =$ in9 [7:0] $end
$var wire 8 >$ in8 [7:0] $end
$var wire 8 ?$ in7 [7:0] $end
$var wire 1 . clk $end
$var parameter 32 @$ SELECTOR_WIDTH $end
$var parameter 32 A$ SIGNAL_WIDTH $end
$upscope $end
$scope module y_mux $end
$var wire 8 B$ in0 [7:0] $end
$var wire 8 C$ in1 [7:0] $end
$var wire 8 D$ in10 [7:0] $end
$var wire 8 E$ in11 [7:0] $end
$var wire 8 F$ in12 [7:0] $end
$var wire 8 G$ in13 [7:0] $end
$var wire 8 H$ in14 [7:0] $end
$var wire 8 I$ in15 [7:0] $end
$var wire 8 J$ in2 [7:0] $end
$var wire 8 K$ in3 [7:0] $end
$var wire 8 L$ in4 [7:0] $end
$var wire 8 M$ in5 [7:0] $end
$var wire 8 N$ in6 [7:0] $end
$var wire 4 O$ selector [3:0] $end
$var wire 8 P$ out [7:0] $end
$var wire 8 Q$ in9 [7:0] $end
$var wire 8 R$ in8 [7:0] $end
$var wire 8 S$ in7 [7:0] $end
$var wire 1 . clk $end
$var parameter 32 T$ SELECTOR_WIDTH $end
$var parameter 32 U$ SIGNAL_WIDTH $end
$upscope $end
$upscope $end
$scope module clk_mod $end
$var wire 1 U phi0 $end
$var wire 1 / phi1 $end
$var wire 1 . phi2 $end
$var wire 1 V$ reset_n $end
$upscope $end
$scope module decode $end
$var wire 1 / clk $end
$var wire 1 V reset_n $end
$var wire 1 9 instruction_ready $end
$var wire 8 W$ instruction_in [7:0] $end
$var wire 16 X$ addr_in [15:0] $end
$var parameter 32 Y$ ADDR_WIDTH $end
$var parameter 32 Z$ OPP_WIDTH $end
$var parameter 32 [$ REG_WIDTH $end
$var reg 3 \$ add_mode [2:0] $end
$var reg 4 ]$ add_selector [3:0] $end
$var reg 16 ^$ addr [15:0] $end
$var reg 4 _$ alu0_selector [3:0] $end
$var reg 4 `$ alu1_selector [3:0] $end
$var reg 8 a$ decode_counter [7:0] $end
$var reg 4 b$ decode_selector [3:0] $end
$var reg 8 c$ instruction [7:0] $end
$var reg 1 : instruction_done $end
$var reg 4 d$ mem_selector [3:0] $end
$var reg 8 e$ opp [7:0] $end
$var reg 5 f$ opp_code [4:0] $end
$var reg 4 g$ pc_selector [3:0] $end
$var reg 4 h$ sp_selector [3:0] $end
$var reg 4 i$ stat_selector [3:0] $end
$var reg 7 j$ we [6:0] $end
$var reg 4 k$ x_selector [3:0] $end
$var reg 4 l$ y_selector [3:0] $end
$upscope $end
$scope module fetch $end
$var wire 8 m$ data_in [7:0] $end
$var wire 1 ! get_next $end
$var wire 1 : instruction_done $end
$var wire 16 n$ pc [15:0] $end
$var wire 1 / phi1 $end
$var wire 1 . phi2 $end
$var wire 1 V reset_n $end
$var parameter 32 o$ ADDR_WIDTH $end
$var parameter 32 p$ OPP_WIDTH $end
$var parameter 32 q$ REG_WIDTH $end
$var reg 3 r$ add_mode [2:0] $end
$var reg 16 s$ addr [15:0] $end
$var reg 16 t$ addr_reg [15:0] $end
$var reg 3 u$ fetch_counter [2:0] $end
$var reg 4 v$ fetch_selector [3:0] $end
$var reg 8 w$ imm [7:0] $end
$var reg 8 x$ instruction_out [7:0] $end
$var reg 1 9 instruction_ready $end
$var reg 16 y$ pc_next [15:0] $end
$var reg 1 z$ pc_wait $end
$var reg 8 {$ reg_out [7:0] $end
$upscope $end
$scope module mem_test $end
$var wire 16 |$ addr [15:0] $end
$var wire 1 . clk $end
$var wire 8 }$ din [7:0] $end
$var wire 1 V reset_n $end
$var wire 1 ~$ we $end
$var wire 16 !% local_addr [15:0] $end
$var wire 8 "% dout [7:0] $end
$var parameter 32 #% ADDR_WIDTH $end
$var parameter 32 $% BASE $end
$var parameter 32 %% DEPTH $end
$var parameter 32 &% WIDTH $end
$upscope $end
$scope begin main_loop $end
$var reg 8 '% mem_unit [7:0] $end
$upscope $end
$upscope $end
$enddefinitions $end
$comment Show the parameter values. $end
$dumpall
b1000 &%
b100000 %%
b0 $%
b10000 #%
b1000 q$
b1000 p$
b10000 o$
b1000 [$
b1000 Z$
b10000 Y$
b1000 U$
b100 T$
b1000 A$
b100 @$
b1000 -$
b100 ,$
b1000 w#
b100 v#
b1000 c#
b100 b#
b1000 O#
b100 N#
b1000 ;#
b100 :#
b1000 '#
b100 &#
b1000 q"
b100 p"
b1000 ]"
b100 \"
b1000 I"
b100 H"
b1000 5"
b100 4"
b1000 o
b1000 k
b1000 g
b1000 c
b1000 _
b1000 [
$end
#0
$dumpvars
bx '%
bx "%
bx !%
x~$
bx }$
bx |$
bx {$
xz$
bx y$
bx x$
bx w$
bx v$
bx u$
bx t$
bx s$
bx r$
bx n$
bx m$
bx l$
bx k$
b0 j$
bx i$
bx h$
bx g$
bx f$
bx e$
bx d$
bx c$
bx b$
bx a$
bx `$
bx _$
bx ^$
bx ]$
bx \$
bx X$
bx W$
zV$
bx S$
bx R$
bx Q$
bx P$
bx O$
bx N$
bx M$
bx L$
bx K$
bx J$
bz I$
bz H$
bz G$
bz F$
bz E$
bz D$
bx C$
b0 B$
bx ?$
bx >$
bx =$
bx <$
bx ;$
bx :$
bx 9$
bx 8$
bx 7$
bx 6$
bz 5$
bz 4$
bz 3$
bz 2$
bz 1$
bz 0$
bx /$
b0 .$
bx +$
bx *$
bx )$
bx ($
bx '$
bx &$
bx %$
bx $$
bx #$
bx "$
bz !$
bz ~#
bz }#
bz |#
bz {#
bz z#
bx y#
b0 x#
bx u#
bx t#
bx s#
bx r#
bx q#
bx p#
bx o#
bx n#
bx m#
bx l#
bz k#
bz j#
bz i#
bz h#
bz g#
bz f#
bx e#
b0 d#
bx a#
bx `#
bx _#
bx ^#
bx ]#
bx \#
bx [#
bx Z#
bx Y#
bx X#
bz W#
bz V#
bz U#
bz T#
bz S#
bz R#
bx Q#
b0 P#
bx M#
bx L#
bx K#
bx J#
bx I#
bx H#
bx G#
bx F#
bx E#
bx D#
bz C#
bz B#
bz A#
bz @#
bz ?#
bz >#
bx =#
b0 <#
bx 9#
bx 8#
bx 7#
bx 6#
bx 5#
bx 4#
bx 3#
bx 2#
bx 1#
bx 0#
bz /#
bz .#
bz -#
bz ,#
bz +#
bz *#
bx )#
b0 (#
bx %#
bx $#
bx ##
bx "#
bx !#
bx ~"
bx }"
bx |"
bx {"
bx z"
bz y"
bz x"
bz w"
bz v"
bz u"
bz t"
bx s"
b0 r"
bx o"
bx n"
bx m"
bx l"
bx k"
bx j"
bx i"
bx h"
bx g"
bx f"
bz e"
bz d"
bz c"
bz b"
bz a"
bz `"
bx _"
b0 ^"
bx ["
bx Z"
bx Y"
bx X"
bx W"
bx V"
bx U"
bx T"
bx S"
bx R"
bz Q"
bz P"
bz O"
bz N"
bz M"
bz L"
bx K"
b0 J"
bx G"
bx F"
bx E"
bx D"
bx C"
bx B"
bx A"
bx @"
bx ?"
bx >"
bz ="
bz <"
bz ;"
bz :"
bz 9"
bz 8"
bx 7"
b0 6"
bx 3"
bx 2"
bx 1"
bx 0"
bx /"
bx ."
bx -"
bx ,"
bx +"
bx *"
bx )"
bx ("
bx '"
bx &"
bx %"
bx $"
bx #"
bx ""
bx !"
bx ~
bx }
bx |
bx {
bx z
bx y
bx x
bx w
bx v
bx u
bx t
bz s
bz r
bx q
bx p
bx n
zm
bx l
bx j
zi
bx h
bx f
ze
bx d
bx b
za
bx `
bx ^
z]
bx \
bx Z
zY
xX
b1000001100001111 W
1V
0U
bx T
xS
1R
bx Q
bx P
bx O
bx N
bx M
bx L
bx K
bx J
bx I
bx H
bx G
bx F
bx E
bx D
bx C
bx B
bx A
bx @
bx ?
bx >
bx =
bx <
bx ;
x:
x9
bx 8
bx 7
bx 6
bx 5
bx 4
bx 3
bx 2
bx 1
bx 0
1/
0.
bx -
bx ,
bx000000 +
0*
0)
0(
0'
0&
0%
0$
bx #
bx "
x!
$end
#5
0/
1.
1U
#10
b10000 T
b10000 n$
0:
b0 a$
b0 e$
b10000 1
b10000 y$
19
b0 u$
1/
0V
0.
0U
#15
b0 4
b0 h
b0 v
b0 B"
b0 V"
b0 j"
b0 ~"
b0 4#
b0 H#
b0 \#
b0 p#
b0 &$
b0 :$
b0 N$
b0 2
b0 p
b0 x
b0 A"
b0 U"
b0 i"
b0 }"
b0 3#
b0 G#
b0 [#
b0 o#
b0 %$
b0 9$
b0 M$
b0 3
b0 l
b0 w
b0 @"
b0 T"
b0 h"
b0 |"
b0 2#
b0 F#
b0 Z#
b0 n#
b0 $$
b0 8$
b0 L$
b0 7
b0 \
b0 q
b0 ?"
b0 S"
b0 g"
b0 {"
b0 1#
b0 E#
b0 Y#
b0 m#
b0 #$
b0 7$
b0 K$
b0 5
b0 d
b0 u
b0 >"
b0 R"
b0 f"
b0 z"
b0 0#
b0 D#
b0 X#
b0 l#
b0 "$
b0 6$
b0 J$
b0 6
b0 `
b0 t
b0 7"
b0 K"
b0 _"
b0 s"
b0 )#
b0 =#
b0 Q#
b0 e#
b0 y#
b0 /$
b0 C$
0/
1.
1U
#20
bz I
bz '"
bz G"
bz ["
bz o"
bz %#
bz 9#
bz M#
bz a#
bz u#
bz +$
bz ?$
bz S$
bz "%
b0 !%
1~$
b10100 F
b10100 }$
b0 M
b0 |$
b1000000 +
1/
b10100 P
b0 O
1S
b10100 '%
b10001010000111111011011000000100 W
b0 Q
0.
0U
#25
0/
1.
1U
#30
b1 !%
b11011011 F
b11011011 }$
b1 M
b1 |$
1/
b11011011 P
b1 O
b11011011 '%
b11101101101001101111010100110101 W
b1 Q
0.
0U
#35
0/
1.
1U
#40
b10 !%
b1111100 F
b1111100 }$
b10 M
b10 |$
1/
b1111100 P
b10 O
b1111100 '%
b10111110010110110000110001110010 W
b10 Q
0.
0U
#45
0/
1.
1U
#50
b11 !%
b110101 F
b110101 }$
b11 M
b11 |$
1/
b110101 P
b11 O
b110101 '%
b11010111111001100000101001011 W
b11 Q
0.
0U
#55
0/
1.
1U
#60
b100 !%
b1100111 F
b1100111 }$
b100 M
b100 |$
1/
b1100111 P
b100 O
b1100111 '%
b110011100000101001100000010000 W
b100 Q
0.
0U
#65
0/
1.
1U
#70
b101 !%
b11110010 F
b11110010 }$
b101 M
b101 |$
1/
b11110010 P
b101 O
b11110010 '%
b1111001010111001001010011010001 W
b101 Q
0.
0U
#75
0/
1.
1U
#80
b110 !%
b11101111 F
b11101111 }$
b110 M
b110 |$
1/
b11101111 P
b110 O
b11101111 '%
b1110111100000101100100001011110 W
b110 Q
0.
0U
#85
0/
1.
1U
#90
b111 !%
b1000000 F
b1000000 }$
b111 M
b111 |$
1/
b1000000 P
b111 O
b1000000 '%
b100000010001010011100101000111 W
b111 Q
0.
0U
#95
0/
1.
1U
#100
b1000 !%
b101001 F
b101001 }$
b1000 M
b1000 |$
1/
b101001 P
b1000 O
b101001 '%
b10010100100111100111100011011100 W
b1000 Q
0.
0U
#105
0/
1.
1U
#110
b1001 !%
b1111 F
b1111 }$
b1001 M
b1001 |$
1/
b1111 P
b1001 O
b1111 '%
b10000111111001011111010000101101 W
b1001 Q
0.
0U
#115
0/
1.
1U
#120
b1010 !%
b11101001 F
b11101001 }$
b1010 M
b1010 |$
1/
b11101001 P
b1010 O
b11101001 '%
b1110100101101111101000100001010 W
b1010 Q
0.
0U
#125
0/
1.
1U
#130
b1011 !%
b111011 F
b111011 }$
b1011 M
b1011 |$
1/
b111011 P
b1011 O
b111011 '%
b10011101110110011110011100000011 W
b1011 Q
0.
0U
#135
0/
1.
1U
#140
b1100 !%
b10111110 F
b10111110 }$
b1100 M
b1100 |$
1/
b10111110 P
b1100 O
b10111110 '%
b1011111001111000010010001101000 W
b1100 Q
0.
0U
#145
0/
1.
1U
#150
b1101 !%
b11101010 F
b11101010 }$
b1101 M
b1101 |$
1/
b11101010 P
b1101 O
b11101010 '%
b1110101011010100110111101001001 W
b1101 Q
0.
0U
#155
0/
1.
1U
#160
b1110 !%
b10111010 F
b10111010 }$
b1110 M
b1110 |$
1/
b10111010 P
b1110 O
b10111010 '%
b11011101001010101101001001110110 W
b1110 Q
0.
0U
#165
0/
1.
1U
#170
b1111 !%
b110100 F
b110100 }$
b1111 M
b1111 |$
1/
b110100 P
b1111 O
b110100 '%
b11010011100001000011001111111 W
b1111 Q
0.
0U
#175
0/
1.
1U
#180
b10100 I
b10100 '"
b10100 G"
b10100 ["
b10100 o"
b10100 %#
b10100 9#
b10100 M#
b10100 a#
b10100 u#
b10100 +$
b10100 ?$
b10100 S$
b10100 "%
b0 !%
0~$
b0 M
b0 |$
b0 +
1/
b0 O
0S
b0 Q
0.
0U
#185
0/
1.
1U
#190
1/
0.
0U
#195
b11011011 I
b11011011 '"
b11011011 G"
b11011011 ["
b11011011 o"
b11011011 %#
b11011011 9#
b11011011 M#
b11011011 a#
b11011011 u#
b11011011 +$
b11011011 ?$
b11011011 S$
b11011011 "%
b1 !%
b1 M
b1 |$
b1 O
b1 Q
b10100 '%
#200
0/
1.
1U
#205
1/
0.
0U
#210
b1111100 I
b1111100 '"
b1111100 G"
b1111100 ["
b1111100 o"
b1111100 %#
b1111100 9#
b1111100 M#
b1111100 a#
b1111100 u#
b1111100 +$
b1111100 ?$
b1111100 S$
b1111100 "%
b10 !%
b10 M
b10 |$
b10 O
b10 Q
b11011011 '%
#215
0/
1.
1U
#220
1/
0.
0U
#225
b110101 I
b110101 '"
b110101 G"
b110101 ["
b110101 o"
b110101 %#
b110101 9#
b110101 M#
b110101 a#
b110101 u#
b110101 +$
b110101 ?$
b110101 S$
b110101 "%
b11 !%
b11 M
b11 |$
b11 O
b11 Q
b1111100 '%
#230
0/
1.
1U
#235
1/
0.
0U
#240
b1100111 I
b1100111 '"
b1100111 G"
b1100111 ["
b1100111 o"
b1100111 %#
b1100111 9#
b1100111 M#
b1100111 a#
b1100111 u#
b1100111 +$
b1100111 ?$
b1100111 S$
b1100111 "%
b100 !%
b100 M
b100 |$
b100 O
b100 Q
b110101 '%
#245
0/
1.
1U
#250
1/
0.
0U
#255
b11110010 I
b11110010 '"
b11110010 G"
b11110010 ["
b11110010 o"
b11110010 %#
b11110010 9#
b11110010 M#
b11110010 a#
b11110010 u#
b11110010 +$
b11110010 ?$
b11110010 S$
b11110010 "%
b101 !%
b101 M
b101 |$
b101 O
b101 Q
b1100111 '%
#260
0/
1.
1U
#265
1/
0.
0U
#270
b11101111 I
b11101111 '"
b11101111 G"
b11101111 ["
b11101111 o"
b11101111 %#
b11101111 9#
b11101111 M#
b11101111 a#
b11101111 u#
b11101111 +$
b11101111 ?$
b11101111 S$
b11101111 "%
b110 !%
b110 M
b110 |$
b110 O
b110 Q
b11110010 '%
#275
0/
1.
1U
#280
1/
0.
0U
#285
b1000000 I
b1000000 '"
b1000000 G"
b1000000 ["
b1000000 o"
b1000000 %#
b1000000 9#
b1000000 M#
b1000000 a#
b1000000 u#
b1000000 +$
b1000000 ?$
b1000000 S$
b1000000 "%
b111 !%
b111 M
b111 |$
b111 O
b111 Q
b11101111 '%
#290
0/
1.
1U
#295
1/
0.
0U
#300
b101001 I
b101001 '"
b101001 G"
b101001 ["
b101001 o"
b101001 %#
b101001 9#
b101001 M#
b101001 a#
b101001 u#
b101001 +$
b101001 ?$
b101001 S$
b101001 "%
b1000 !%
b1000 M
b1000 |$
b1000 O
b1000 Q
b1000000 '%
#305
0/
1.
1U
#310
1/
0.
0U
#315
b1111 I
b1111 '"
b1111 G"
b1111 ["
b1111 o"
b1111 %#
b1111 9#
b1111 M#
b1111 a#
b1111 u#
b1111 +$
b1111 ?$
b1111 S$
b1111 "%
b1001 !%
b1001 M
b1001 |$
b1001 O
b1001 Q
b101001 '%
#320
0/
1.
1U
#325
1/
0.
0U
