Out/iflow.vcd
$date
	Tue Jul 18 23:48:27 2023
$end
$version
	Icarus Verilog
$end
$timescale
	1ns
$end
$scope module tb_iflow $end
$var wire 8 ! d_to_fetch [7:0] $end
$var wire 8 " iADD [7:0] $end
$var wire 8 # iSP [7:0] $end
$var wire 8 $ iSTATUS [7:0] $end
$var wire 8 % iX [7:0] $end
$var wire 8 & iY [7:0] $end
$var wire 8 ' pc [7:0] $end
$var wire 8 ( pc_next [7:0] $end
$var wire 7 ) we [6:0] $end
$var wire 1 * we_y $end
$var wire 1 + we_x $end
$var wire 1 , we_stat $end
$var wire 1 - we_sp $end
$var wire 1 . we_pc $end
$var wire 1 / we_dout $end
$var wire 1 0 we_add $end
$var wire 3 1 target_selector_1 [2:0] $end
$var wire 3 2 target_selector_0 [2:0] $end
$var wire 3 3 source_selector_1 [2:0] $end
$var wire 3 4 source_selector_0 [2:0] $end
$var wire 8 5 reg_connect_1 [7:0] $end
$var wire 8 6 reg_connect_0 [7:0] $end
$var wire 1 7 phi2_int $end
$var wire 1 8 phi1_int $end
$var wire 8 9 oY [7:0] $end
$var wire 8 : oX [7:0] $end
$var wire 8 ; oSTATUS [7:0] $end
$var wire 8 < oSP [7:0] $end
$var wire 8 = oPC [7:0] $end
$var wire 8 > oADD [7:0] $end
$var wire 1 ? instruction_ready $end
$var wire 8 @ instruction [7:0] $end
$var wire 8 A imm [7:0] $end
$var wire 8 B ialu_b [7:0] $end
$var wire 8 C ialu_a [7:0] $end
$var wire 8 D iPC [7:0] $end
$var wire 1 E get_next $end
$var wire 16 F fetcher_addr [15:0] $end
$var wire 3 G fetch_selector [2:0] $end
$var wire 8 H d_to_mem1 [7:0] $end
$var wire 8 I d_to_mem [7:0] $end
$var wire 8 J d_from_mem [7:0] $end
$var wire 8 K d_from_fetch [7:0] $end
$var wire 16 L addr [15:0] $end
$var reg 16 M addr_in [15:0] $end
$var reg 8 N d_in [7:0] $end
$var reg 32 O i [31:0] $end
$var reg 1 P manual_mem $end
$var reg 1 Q mem_write $end
$var reg 1 R phi0 $end
$var reg 1 S reset_n $end
$var reg 32 T seed [31:0] $end
$var reg 3 U source_selector_01 [2:0] $end
$var reg 3 V target_selector_01 [2:0] $end
$scope module ADD $end
$var wire 8 W din [7:0] $end
$var wire 1 S reset_n $end
$var wire 1 X valid $end
$var wire 1 0 we $end
$var wire 1 7 clk $end
$var parameter 32 Y REG_WIDTH $end
$var reg 8 Z dout [7:0] $end
$upscope $end
$scope module PC $end
$var wire 8 [ din [7:0] $end
$var wire 1 S reset_n $end
$var wire 1 \ valid $end
$var wire 1 . we $end
$var wire 1 7 clk $end
$var parameter 32 ] REG_WIDTH $end
$var reg 8 ^ dout [7:0] $end
$upscope $end
$scope module SP $end
$var wire 8 _ din [7:0] $end
$var wire 1 S reset_n $end
$var wire 1 ` valid $end
$var wire 1 - we $end
$var wire 1 7 clk $end
$var parameter 32 a REG_WIDTH $end
$var reg 8 b dout [7:0] $end
$upscope $end
$scope module STAT $end
$var wire 8 c din [7:0] $end
$var wire 1 S reset_n $end
$var wire 1 d valid $end
$var wire 1 , we $end
$var wire 1 7 clk $end
$var parameter 32 e REG_WIDTH $end
$var reg 8 f dout [7:0] $end
$upscope $end
$scope module X $end
$var wire 8 g din [7:0] $end
$var wire 1 S reset_n $end
$var wire 1 h valid $end
$var wire 1 + we $end
$var wire 1 7 clk $end
$var parameter 32 i REG_WIDTH $end
$var reg 8 j dout [7:0] $end
$upscope $end
$scope module Y $end
$var wire 8 k din [7:0] $end
$var wire 1 S reset_n $end
$var wire 1 l valid $end
$var wire 1 * we $end
$var wire 1 7 clk $end
$var parameter 32 m REG_WIDTH $end
$var reg 8 n dout [7:0] $end
$upscope $end
$scope module clk_mod $end
$var wire 1 R phi0 $end
$var wire 1 8 phi1 $end
$var wire 1 7 phi2 $end
$var wire 1 o reset_n $end
$upscope $end
$scope module decode $end
$var wire 1 8 clk $end
$var wire 1 S reset_n $end
$var wire 1 ? instruction_ready $end
$var wire 8 p instruction_in [7:0] $end
$var parameter 32 q ADDR_WIDTH $end
$var parameter 32 r OPP_WIDTH $end
$var parameter 32 s REG_WIDTH $end
$var reg 3 t add_mode [2:0] $end
$var reg 16 u addr [15:0] $end
$var reg 4 v fetch_counter [3:0] $end
$var reg 4 w fetch_target [3:0] $end
$var reg 1 E get_next $end
$var reg 8 x imm_addr [7:0] $end
$var reg 8 y instruction [7:0] $end
$var reg 8 z opp [7:0] $end
$var reg 5 { opp_code [4:0] $end
$var reg 1 / read_write $end
$var reg 3 | source_selector_0 [2:0] $end
$var reg 3 } source_selector_1 [2:0] $end
$var reg 3 ~ target_selector_0 [2:0] $end
$var reg 3 !" target_selector_1 [2:0] $end
$var reg 7 "" we [6:0] $end
$upscope $end
$scope module fetch $end
$var wire 1 8 clk $end
$var wire 8 #" data_in [7:0] $end
$var wire 1 E get_next $end
$var wire 8 $" pc [7:0] $end
$var wire 1 S reset_n $end
$var parameter 32 %" ADDR_WIDTH $end
$var parameter 32 &" OPP_WIDTH $end
$var parameter 32 '" REG_WIDTH $end
$var reg 3 (" add_mode [2:0] $end
$var reg 16 )" addr [15:0] $end
$var reg 3 *" fetch_counter [2:0] $end
$var reg 3 +" fetch_source_selector [2:0] $end
$var reg 8 ," instruction [7:0] $end
$var reg 8 -" instruction_out [7:0] $end
$var reg 1 ? instruction_ready $end
$var reg 8 ." pc_next [7:0] $end
$var reg 8 /" reg_out [7:0] $end
$upscope $end
$scope module mem_test $end
$var wire 16 0" addr [15:0] $end
$var wire 1 R clk $end
$var wire 8 1" din [7:0] $end
$var wire 1 S reset_n $end
$var wire 1 2" we $end
$var wire 16 3" local_addr [15:0] $end
$var wire 8 4" dout [7:0] $end
$var parameter 32 5" ADDR_WIDTH $end
$var parameter 32 6" BASE $end
$var parameter 32 7" DEPTH $end
$var parameter 32 8" WIDTH $end
$upscope $end
$scope module reg_fan0 $end
$var wire 1 7 clk $end
$var wire 3 9" selector [2:0] $end
$var wire 8 :" in [7:0] $end
$var parameter 32 ;" SIGNAL_WIDTH $end
$var reg 8 <" out0 [7:0] $end
$var reg 8 =" out1 [7:0] $end
$var reg 8 >" out2 [7:0] $end
$var reg 8 ?" out3 [7:0] $end
$var reg 8 @" out4 [7:0] $end
$var reg 8 A" out5 [7:0] $end
$var reg 8 B" out6 [7:0] $end
$var reg 8 C" out7 [7:0] $end
$upscope $end
$scope module reg_fan1 $end
$var wire 1 7 clk $end
$var wire 3 D" selector [2:0] $end
$var wire 8 E" in [7:0] $end
$var parameter 32 F" SIGNAL_WIDTH $end
$var reg 8 G" out0 [7:0] $end
$var reg 8 H" out1 [7:0] $end
$var reg 8 I" out2 [7:0] $end
$var reg 8 J" out3 [7:0] $end
$var reg 8 K" out4 [7:0] $end
$var reg 8 L" out5 [7:0] $end
$var reg 8 M" out6 [7:0] $end
$var reg 8 N" out7 [7:0] $end
$upscope $end
$scope module reg_mux0 $end
$var wire 1 7 clk $end
$var wire 8 O" in0 [7:0] $end
$var wire 8 P" in1 [7:0] $end
$var wire 8 Q" in2 [7:0] $end
$var wire 8 R" in3 [7:0] $end
$var wire 8 S" in4 [7:0] $end
$var wire 8 T" in5 [7:0] $end
$var wire 8 U" in6 [7:0] $end
$var wire 8 V" in7 [7:0] $end
$var wire 3 W" selector [2:0] $end
$var parameter 32 X" SIGNAL_WIDTH $end
$var reg 8 Y" out [7:0] $end
$upscope $end
$scope module reg_mux1 $end
$var wire 1 7 clk $end
$var wire 8 Z" in0 [7:0] $end
$var wire 8 [" in1 [7:0] $end
$var wire 8 \" in2 [7:0] $end
$var wire 8 ]" in3 [7:0] $end
$var wire 8 ^" in4 [7:0] $end
$var wire 8 _" in5 [7:0] $end
$var wire 8 `" in6 [7:0] $end
$var wire 8 a" in7 [7:0] $end
$var wire 3 b" selector [2:0] $end
$var parameter 32 c" SIGNAL_WIDTH $end
$var reg 8 d" out [7:0] $end
$upscope $end
$scope begin main_loop $end
$var reg 8 e" mem_unit [7:0] $end
$upscope $end
$upscope $end
$enddefinitions $end
$comment Show the parameter values. $end
$dumpall
b1000 c"
b1000 X"
b1000 F"
b1000 ;"
b1000 8"
b100000 7"
b0 6"
b10000 5"
b1000 '"
b1000 &"
b10000 %"
b1000 s
b1000 r
b10000 q
b1000 m
b1000 i
b1000 e
b1000 a
b1000 ]
b1000 Y
$end
#0
$dumpvars
b10100 e"
bx d"
bx b"
bx a"
b0 `"
bx _"
bx ^"
bx ]"
bx \"
bx ["
bx Z"
bx Y"
bx W"
bx V"
b0 U"
bx T"
bx S"
bx R"
bx Q"
bx P"
bx O"
bx N"
bx M"
bx L"
bx K"
bx J"
bx I"
bx H"
bx G"
bx E"
b0 D"
bx C"
bx B"
bx A"
bx @"
bx ?"
bx >"
bx ="
bx <"
bx :"
bx 9"
bx 4"
b0 3"
x2"
b10100 1"
b0 0"
bx /"
bx ."
bx -"
bx ,"
b101 +"
bx *"
bx )"
bx ("
bx $"
bx #"
b0 ""
b0 !"
b0 ~
bx }
bx |
bx {
bx z
bx y
bx x
bx w
bx v
bx u
bx t
bx p
zo
bx n
zl
bx k
bx j
zh
bx g
bx f
zd
bz c
bx b
z`
bz _
bx ^
z\
bx [
bx Z
zX
bx W
bx V
bx U
b10001010000111111011011000000100 T
xS
0R
1Q
1P
b0 O
b10100 N
b0 M
b0 L
bx K
bx J
bx I
b10100 H
b101 G
bx F
xE
bx D
bx C
bx B
bx A
bx @
x?
bx >
bx =
bx <
bx ;
bx :
bx 9
18
07
bx 6
bx 5
bx 4
bx 3
b0 2
b0 1
00
1/
x.
0-
0,
0+
0*
bx00000x )
bx (
bx '
bx &
bx %
bz $
bz #
bx "
bx !
$end
#10
b1 3"
b11011011 H
b11011011 1"
b1 L
b1 0"
b111 V
b111 9"
b101 U
b101 W"
08
b11011011 N
b1 M
b11011011 e"
b11101101101001101111010100110101 T
b1 O
17
1R
#15
18
07
0R
#20
b10 3"
b1111100 H
b1111100 1"
b10 L
b10 0"
08
b1111100 N
b10 M
b1111100 e"
b10111110010110110000110001110010 T
b10 O
17
1R
#25
18
07
0R
#30
b11 3"
b110101 H
b110101 1"
b11 L
b11 0"
08
b110101 N
b11 M
b110101 e"
b11010111111001100000101001011 T
b11 O
17
1R
#35
18
07
0R
#40
b100 3"
b1100111 H
b1100111 1"
b100 L
b100 0"
08
b1100111 N
b100 M
b1100111 e"
b110011100000101001100000010000 T
b100 O
17
1R
#45
18
07
0R
#50
b101 3"
b11110010 H
b11110010 1"
b101 L
b101 0"
08
b11110010 N
b101 M
b11110010 e"
b1111001010111001001010011010001 T
b101 O
17
1R
#55
18
07
0R
#60
b110 3"
b11101111 H
b11101111 1"
b110 L
b110 0"
08
b11101111 N
b110 M
b11101111 e"
b1110111100000101100100001011110 T
b110 O
17
1R
#65
18
07
0R
#70
b111 3"
b1000000 H
b1000000 1"
b111 L
b111 0"
08
b1000000 N
b111 M
b1000000 e"
b100000010001010011100101000111 T
b111 O
17
1R
#75
18
07
0R
#80
b1000 3"
b101001 H
b101001 1"
b1000 L
b1000 0"
08
b101001 N
b1000 M
b101001 e"
b10010100100111100111100011011100 T
b1000 O
17
1R
#85
18
07
0R
#90
b1001 3"
b1111 H
b1111 1"
b1001 L
b1001 0"
08
b1111 N
b1001 M
b1111 e"
b10000111111001011111010000101101 T
b1001 O
17
1R
#95
18
07
0R
#100
b1010 3"
b11101001 H
b11101001 1"
b1010 L
b1010 0"
08
b11101001 N
b1010 M
b11101001 e"
b1110100101101111101000100001010 T
b1010 O
17
1R
#105
18
07
0R
#110
b1011 3"
b111011 H
b111011 1"
b1011 L
b1011 0"
08
b111011 N
b1011 M
b111011 e"
b10011101110110011110011100000011 T
b1011 O
17
1R
#115
18
07
0R
#120
b1100 3"
b10111110 H
b10111110 1"
b1100 L
b1100 0"
08
b10111110 N
b1100 M
b10111110 e"
b1011111001111000010010001101000 T
b1100 O
17
1R
#125
18
07
0R
#130
b1101 3"
b11101010 H
b11101010 1"
b1101 L
b1101 0"
08
b11101010 N
b1101 M
b11101010 e"
b1110101011010100110111101001001 T
b1101 O
17
1R
#135
18
07
0R
#140
b1110 3"
b10111010 H
b10111010 1"
b1110 L
b1110 0"
08
b10111010 N
b1110 M
b10111010 e"
b11011101001010101101001001110110 T
b1110 O
17
1R
#145
18
07
0R
#150
b1111 3"
b110100 H
b110100 1"
b1111 L
b1111 0"
08
b110100 N
b1111 M
b110100 e"
b11010011100001000011001111111 T
b1111 O
17
1R
#155
18
07
0R
#160
b0 3"
02"
b0 L
b0 0"
b0x )
08
bx e"
b0 M
0Q
b0 O
17
1R
#165
18
07
0R
#170
b1 3"
b1 L
b1 0"
08
b1 M
b1 O
17
1R
#175
18
07
0R
#180
b10 3"
b10 L
b10 0"
08
b10 M
b10 O
17
1R
#185
18
07
0R
#190
b11 3"
b11 L
b11 0"
08
b11 M
b11 O
17
1R
#195
18
07
0R
#200
b100 3"
b100 L
b100 0"
08
b100 M
b100 O
17
1R
#205
18
07
0R
#210
b101 3"
b101 L
b101 0"
08
b101 M
b101 O
17
1R
#215
18
07
0R
#220
b110 3"
b110 L
b110 0"
08
b110 M
b110 O
17
1R
#225
18
07
0R
#230
b111 3"
b111 L
b111 0"
08
b111 M
b111 O
17
1R
#235
18
07
0R
#240
b1000 3"
b1000 L
b1000 0"
08
b1000 M
b1000 O
17
1R
#245
18
07
0R
#250
b1001 3"
b1001 L
b1001 0"
08
b1001 M
b1001 O
17
1R
#255
18
07
0R
#260
b1010 3"
b1010 L
b1010 0"
08
b1010 M
b1010 O
17
1R
#265
18
07
0R
#270
b1011 3"
b1011 L
b1011 0"
08
b1011 M
b1011 O
17
1R
#275
18
07
0R
#280
b1100 3"
b1100 L
b1100 0"
08
b1100 M
b1100 O
17
1R
#285
18
07
0R
#290
b1101 3"
b1101 L
b1101 0"
08
b1101 M
b1101 O
17
1R
#295
18
07
0R
#300
b1110 3"
b1110 L
b1110 0"
08
b1110 M
b1110 O
17
1R
#305
18
07
0R
#310
b1111 3"
b1111 L
b1111 0"
08
b1111 M
b1111 O
17
1R
#315
18
07
0R
#320
b0 3"
x2"
b10101001 H
b10101001 1"
b0 L
b0 0"
bx00000x )
08
b10101001 N
b0 M
1Q
b1100111 e"
b0 O
17
1R
#325
18
07
0R
#330
b1 3"
b100 H
b100 1"
b1 L
b1 0"
08
b100 N
b1 M
b1 O
17
1R
#335
18
07
0R
#340
b10 3"
b10000101 H
b10000101 1"
b10 L
b10 0"
08
b10000101 N
b10 M
b10 O
17
1R
#345
18
07
0R
#350
b11 3"
b10 H
b10 1"
b11 L
b11 0"
08
b10 N
b11 M
b11 O
17
1R
#355
18
07
0R
#360
b100 3"
b0 H
b0 1"
b100 L
b100 0"
08
b0 N
b100 M
b100 O
17
1R
#365
18
07
0R
#370
b101 3"
b101 L
b101 0"
08
b101 M
b101 O
17
1R
#375
18
07
0R
#380
b110 3"
b110 L
b110 0"
08
b110 M
b110 O
17
1R
#385
18
07
0R
#390
b111 3"
b111 L
b111 0"
08
b111 M
b111 O
17
1R
#395
18
07
0R
#400
b1000 3"
b1000 L
b1000 0"
08
b1000 M
b1000 O
17
1R
#405
18
07
0R
#410
b1001 3"
b1001 L
b1001 0"
08
b1001 M
b1001 O
17
1R
#415
18
07
0R
#420
b1010 3"
b1010 L
b1010 0"
08
b1010 M
b1010 O
17
1R
#425
18
07
0R
#430
b1011 3"
b1011 L
b1011 0"
08
b1011 M
b1011 O
17
1R
#435
18
07
0R
#440
b1100 3"
b1100 L
b1100 0"
08
b1100 M
b1100 O
17
1R
#445
18
07
0R
#450
b1101 3"
b1101 L
b1101 0"
08
b1101 M
b1101 O
17
1R
#455
18
07
0R
#460
b1110 3"
b1110 L
b1110 0"
08
b1110 M
b1110 O
17
1R
#465
18
07
0R
#470
b1111 3"
b1111 L
b1111 0"
08
b1111 M
b1111 O
17
1R
#475
18
07
0R
#480
b10000 3"
02"
b10000 L
b10000 0"
b0x )
08
bx e"
b10000 M
0Q
b0 O
17
1R
#485
18
07
0R
#490
b10001 3"
b10001 L
b10001 0"
08
b10001 M
b1 O
17
1R
#495
18
07
0R
#500
b10010 3"
b10010 L
b10010 0"
08
b10010 M
b10 O
17
1R
#505
18
07
0R
#510
b10011 3"
b10011 L
b10011 0"
08
b10011 M
b11 O
17
1R
#515
18
07
0R
#520
b10100 3"
b10100 L
b10100 0"
08
b10100 M
b100 O
17
1R
#525
18
07
0R
#530
b10101 3"
b10101 L
b10101 0"
08
b10101 M
b101 O
17
1R
#535
18
07
0R
#540
b10110 3"
b10110 L
b10110 0"
08
b10110 M
b110 O
17
1R
#545
18
07
0R
#550
b10111 3"
b10111 L
b10111 0"
08
b10111 M
b111 O
17
1R
#555
18
07
0R
#560
b11000 3"
b11000 L
b11000 0"
08
b11000 M
b1000 O
17
1R
#565
18
07
0R
#570
b11001 3"
b11001 L
b11001 0"
08
b11001 M
b1001 O
17
1R
#575
18
07
0R
#580
b11010 3"
b11010 L
b11010 0"
08
b11010 M
b1010 O
17
1R
#585
18
07
0R
#590
b11011 3"
b11011 L
b11011 0"
08
b11011 M
b1011 O
17
1R
#595
18
07
0R
#600
b11100 3"
b11100 L
b11100 0"
08
b11100 M
b1100 O
17
1R
#605
18
07
0R
#610
b11101 3"
b11101 L
b11101 0"
08
b11101 M
b1101 O
17
1R
#615
18
07
0R
#620
b11110 3"
b11110 L
b11110 0"
08
b11110 M
b1110 O
17
1R
#625
18
07
0R
#630
b11111 3"
b11111 L
b11111 0"
08
b11111 M
b1111 O
17
1R
#635
18
07
0R
#640
x2"
bx 3"
bx00000x )
bx L
bx 0"
bx H
bx 1"
08
0P
b0 O
17
1R
#645
18
07
0R
#650
08
b1 O
17
1R
#655
18
07
0R
#660
08
b10 O
17
1R
#665
18
07
0R
#670
08
b11 O
17
1R
#675
18
07
0R
#680
08
b100 O
17
1R
#685
18
07
0R
#690
08
b101 O
17
1R
#695
18
07
0R
#700
08
b110 O
17
1R
#705
18
07
0R
#710
08
b111 O
17
1R
#715
18
07
0R
#720
08
b1000 O
17
1R
#725
18
07
0R
#730
08
b1001 O
17
1R
#735
18
07
0R
#740
08
b1010 O
17
1R
#745
18
07
0R
#750
08
b1011 O
17
1R
#755
18
07
0R
#760
08
b1100 O
17
1R
#765
18
07
0R
#770
08
b1101 O
17
1R
#775
18
07
0R
#780
08
b1110 O
17
1R
#785
18
07
0R
#790
08
b1111 O
17
1R
#795
18
07
0R
#800
08
b10000 O
17
1R
#805
18
07
0R
#810
08
b10001 O
17
1R
#815
18
07
0R
#820
08
b10010 O
17
1R
#825
18
07
0R
#830
08
b10011 O
17
1R
#835
18
07
0R
#840
08
b10100 O
17
1R
#845
18
07
0R
#850
08
b10101 O
17
1R
#855
18
07
0R
#860
08
b10110 O
17
1R
#865
18
07
0R
#870
08
b10111 O
17
1R
#875
18
07
0R
#880
08
b11000 O
17
1R
#885
18
07
0R
#890
08
b11001 O
17
1R
#895
18
07
0R
#900
08
b11010 O
17
1R
#905
18
07
0R
#910
08
b11011 O
17
1R
#915
18
07
0R
#920
08
b11100 O
17
1R
#925
18
07
0R
#930
08
b11101 O
17
1R
#935
18
07
0R
#940
08
b0 M
b0 O
17
1R
#945
18
07
0R
#950
08
b1 M
b1 O
17
1R
#955
18
07
0R
#960
08
b10 M
b10 O
17
1R
#965
18
07
0R
#970
08
b11 M
b11 O
17
1R
#975
18
07
0R
#980
08
b100 M
b100 O
17
1R
#985
18
07
0R
#990
08
b101 M
b101 O
17
1R
#995
18
07
0R
#1000
08
b110 M
b110 O
17
1R
#1005
18
07
0R
#1010
08
b111 M
b111 O
17
1R
#1015
18
07
0R
#1020
08
b1000 M
b1000 O
17
1R
#1025
18
07
0R
#1030
08
b1001 M
b1001 O
17
1R
#1035
18
07
0R
#1040
08
b1010 M
b1010 O
17
1R
#1045
18
07
0R
#1050
08
b1011 M
b1011 O
17
1R
#1055
18
07
0R
#1060
08
b1100 M
b1100 O
17
1R
#1065
18
07
0R
#1070
08
b1101 M
b1101 O
17
1R
#1075
18
07
0R
#1080
08
b1110 M
b1110 O
17
1R
#1085
18
07
0R
#1090
08
b1111 M
b1111 O
17
1R
#1095
18
07
0R
#1100
08
b0 M
b0 O
17
1R
#1105
18
07
0R
#1110
08
b1 M
b1 O
17
1R
#1115
18
07
0R
#1120
08
b10 M
b10 O
17
1R
#1125
18
07
0R
#1130
08
b11 M
b11 O
17
1R
#1135
18
07
0R
#1140
08
b100 M
b100 O
17
1R
#1145
18
07
0R
#1150
08
b101 M
b101 O
17
1R
#1155
18
07
0R
#1160
08
b110 M
b110 O
17
1R
#1165
18
07
0R
#1170
08
b111 M
b111 O
17
1R
#1175
18
07
0R
#1180
08
b1000 M
b1000 O
17
1R
#1185
18
07
0R
#1190
08
b1001 M
b1001 O
17
1R
#1195
18
07
0R
#1200
08
b1010 M
b1010 O
17
1R
#1205
18
07
0R
#1210
08
b1011 M
b1011 O
17
1R
#1215
18
07
0R
#1220
08
b1100 M
b1100 O
17
1R
#1225
18
07
0R
#1230
08
b1101 M
b1101 O
17
1R
#1235
18
07
0R
#1240
08
b1110 M
b1110 O
17
1R
#1245
18
07
0R
#1250
08
b1111 M
b1111 O
17
1R
#1255
18
07
0R
#1260
08
b10000 O
17
1R
