Out/iflow.vcd
$date
	Wed Aug 02 16:14:55 2023
$end
$version
	Icarus Verilog
$end
$timescale
	1ns
$end
$scope module tb_iflow $end
$var wire 1 ! get_next $end
$var wire 8 " status_from_alu [7:0] $end
$var wire 4 # y_selector [3:0] $end
$var wire 4 $ x_selector [3:0] $end
$var wire 1 % we_y $end
$var wire 1 & we_x $end
$var wire 1 ' we_stat $end
$var wire 1 ( we_sp $end
$var wire 1 ) we_pc $end
$var wire 1 * we_dout $end
$var wire 1 + we_add $end
$var wire 7 , we [6:0] $end
$var wire 1 - update_status $end
$var wire 8 . status_from_bus [7:0] $end
$var wire 4 / stat_selector [3:0] $end
$var wire 4 0 sp_selector [3:0] $end
$var wire 1 1 phi2_int $end
$var wire 1 2 phi1_int $end
$var wire 4 3 pc_selector [3:0] $end
$var wire 16 4 pc_next [15:0] $end
$var wire 8 5 oY [7:0] $end
$var wire 8 6 oX [7:0] $end
$var wire 8 7 oSTATUS [7:0] $end
$var wire 8 8 oSP [7:0] $end
$var wire 8 9 oPC [7:0] $end
$var wire 8 : oADD [7:0] $end
$var wire 4 ; mem_selector [3:0] $end
$var wire 1 < instruction_ready $end
$var wire 1 = instruction_done $end
$var wire 8 > instruction [7:0] $end
$var wire 8 ? imm [7:0] $end
$var wire 8 @ iY [7:0] $end
$var wire 8 A iX [7:0] $end
$var wire 8 B iSTATUS [7:0] $end
$var wire 8 C iSP [7:0] $end
$var wire 8 D iPC [7:0] $end
$var wire 8 E iADD [7:0] $end
$var wire 16 F fetcher_addr [15:0] $end
$var wire 4 G fetch_selector [3:0] $end
$var wire 4 H decode_selector [3:0] $end
$var wire 8 I d_to_mem1 [7:0] $end
$var wire 8 J d_to_mem [7:0] $end
$var wire 8 K d_to_fetch [7:0] $end
$var wire 8 L d_to_alu_1 [7:0] $end
$var wire 8 M d_to_alu_0 [7:0] $end
$var wire 8 N d_from_mem [7:0] $end
$var wire 8 O d_from_fetch [7:0] $end
$var wire 8 P d_from_alu [7:0] $end
$var wire 8 Q alu_opp [7:0] $end
$var wire 1 R alu_done $end
$var wire 4 S alu1_selector [3:0] $end
$var wire 4 T alu0_selector [3:0] $end
$var wire 16 U addr [15:0] $end
$var wire 4 V add_selector [3:0] $end
$var reg 16 W addr_in [15:0] $end
$var reg 8 X d_in [7:0] $end
$var reg 32 Y i [31:0] $end
$var reg 1 Z manual_mem $end
$var reg 1 [ mem_write $end
$var reg 16 \ pc [15:0] $end
$var reg 1 ] phi0 $end
$var reg 1 ^ reset_n $end
$var reg 32 _ seed [31:0] $end
$var reg 1 ` trigger_program $end
$scope module ADD $end
$var wire 1 ^ reset_n $end
$var wire 1 a valid $end
$var wire 1 + we $end
$var wire 8 b din [7:0] $end
$var wire 1 1 clk $end
$var parameter 32 c REG_WIDTH $end
$var reg 8 d dout [7:0] $end
$upscope $end
$scope module PC $end
$var wire 1 ^ reset_n $end
$var wire 1 e valid $end
$var wire 1 ) we $end
$var wire 8 f din [7:0] $end
$var wire 1 1 clk $end
$var parameter 32 g REG_WIDTH $end
$var reg 8 h dout [7:0] $end
$upscope $end
$scope module SP $end
$var wire 1 ^ reset_n $end
$var wire 1 i valid $end
$var wire 1 ( we $end
$var wire 8 j din [7:0] $end
$var wire 1 1 clk $end
$var parameter 32 k REG_WIDTH $end
$var reg 8 l dout [7:0] $end
$upscope $end
$scope module STAT $end
$var wire 8 m din [7:0] $end
$var wire 1 ^ reset_n $end
$var wire 1 n valid $end
$var wire 1 ' we $end
$var wire 1 1 clk $end
$var parameter 32 o REG_WIDTH $end
$var reg 8 p dout [7:0] $end
$upscope $end
$scope module X $end
$var wire 1 ^ reset_n $end
$var wire 1 q valid $end
$var wire 1 & we $end
$var wire 8 r din [7:0] $end
$var wire 1 1 clk $end
$var parameter 32 s REG_WIDTH $end
$var reg 8 t dout [7:0] $end
$upscope $end
$scope module Y $end
$var wire 1 ^ reset_n $end
$var wire 1 u valid $end
$var wire 1 % we $end
$var wire 8 v din [7:0] $end
$var wire 1 1 clk $end
$var parameter 32 w REG_WIDTH $end
$var reg 8 x dout [7:0] $end
$upscope $end
$scope module alu $end
$var wire 1 y carry_in $end
$var wire 1 z dec_mode $end
$var wire 1 { half_carry $end
$var wire 1 | overflow $end
$var wire 1 ^ reset_n $end
$var wire 8 } status_in [7:0] $end
$var wire 1 1 phi2 $end
$var wire 1 2 phi1 $end
$var wire 8 ~ func [7:0] $end
$var wire 8 !" b [7:0] $end
$var wire 8 "" a [7:0] $end
$var reg 1 #" carry_out $end
$var reg 8 $" dout [7:0] $end
$var reg 8 %" status_out [7:0] $end
$var reg 1 R wout $end
$var reg 1 &" wout_status $end
$upscope $end
$scope module bus $end
$var wire 8 '" add_in [7:0] $end
$var wire 8 (" alu_in [7:0] $end
$var wire 8 )" decode_in [7:0] $end
$var wire 8 *" pc_in [7:0] $end
$var wire 1 ^ reset_n $end
$var wire 8 +" sp_in [7:0] $end
$var wire 8 ," stat_in [7:0] $end
$var wire 8 -" x_in [7:0] $end
$var wire 8 ." y_in [7:0] $end
$var wire 4 /" y_selector [3:0] $end
$var wire 8 0" y_out [7:0] $end
$var wire 4 1" x_selector [3:0] $end
$var wire 8 2" x_out [7:0] $end
$var wire 4 3" stat_selector [3:0] $end
$var wire 8 4" stat_out [7:0] $end
$var wire 4 5" sp_selector [3:0] $end
$var wire 8 6" sp_out [7:0] $end
$var wire 4 7" pc_selector [3:0] $end
$var wire 8 8" pc_out [7:0] $end
$var wire 4 9" mem_selector [3:0] $end
$var wire 8 :" mem_out [7:0] $end
$var wire 8 ;" mem_in [7:0] $end
$var wire 8 <" imm_in [7:0] $end
$var wire 4 =" fetch_selector [3:0] $end
$var wire 8 >" fetch_out [7:0] $end
$var wire 8 ?" fetch_in [7:0] $end
$var wire 4 @" decode_selector [3:0] $end
$var wire 8 A" decode_out [7:0] $end
$var wire 1 1 clk $end
$var wire 4 B" alu1_selector [3:0] $end
$var wire 8 C" alu1_out [7:0] $end
$var wire 4 D" alu0_selector [3:0] $end
$var wire 8 E" alu0_out [7:0] $end
$var wire 4 F" add_selector [3:0] $end
$var wire 8 G" add_out [7:0] $end
$var parameter 32 H" SELECTOR_WIDTH $end
$var parameter 32 I" SIGNAL_WIDTH $end
$scope module add_mux $end
$var wire 8 J" in0 [7:0] $end
$var wire 8 K" in1 [7:0] $end
$var wire 8 L" in10 [7:0] $end
$var wire 8 M" in11 [7:0] $end
$var wire 8 N" in12 [7:0] $end
$var wire 8 O" in13 [7:0] $end
$var wire 8 P" in14 [7:0] $end
$var wire 8 Q" in15 [7:0] $end
$var wire 8 R" in2 [7:0] $end
$var wire 8 S" in3 [7:0] $end
$var wire 8 T" in4 [7:0] $end
$var wire 8 U" in5 [7:0] $end
$var wire 8 V" in6 [7:0] $end
$var wire 4 W" selector [3:0] $end
$var wire 8 X" out [7:0] $end
$var wire 8 Y" in9 [7:0] $end
$var wire 8 Z" in8 [7:0] $end
$var wire 8 [" in7 [7:0] $end
$var wire 1 1 clk $end
$var parameter 32 \" SELECTOR_WIDTH $end
$var parameter 32 ]" SIGNAL_WIDTH $end
$upscope $end
$scope module alu0_mux $end
$var wire 8 ^" in0 [7:0] $end
$var wire 8 _" in1 [7:0] $end
$var wire 8 `" in10 [7:0] $end
$var wire 8 a" in11 [7:0] $end
$var wire 8 b" in12 [7:0] $end
$var wire 8 c" in13 [7:0] $end
$var wire 8 d" in14 [7:0] $end
$var wire 8 e" in15 [7:0] $end
$var wire 8 f" in2 [7:0] $end
$var wire 8 g" in3 [7:0] $end
$var wire 8 h" in4 [7:0] $end
$var wire 8 i" in5 [7:0] $end
$var wire 8 j" in6 [7:0] $end
$var wire 4 k" selector [3:0] $end
$var wire 8 l" out [7:0] $end
$var wire 8 m" in9 [7:0] $end
$var wire 8 n" in8 [7:0] $end
$var wire 8 o" in7 [7:0] $end
$var wire 1 1 clk $end
$var parameter 32 p" SELECTOR_WIDTH $end
$var parameter 32 q" SIGNAL_WIDTH $end
$upscope $end
$scope module alu1_mux $end
$var wire 8 r" in0 [7:0] $end
$var wire 8 s" in1 [7:0] $end
$var wire 8 t" in10 [7:0] $end
$var wire 8 u" in11 [7:0] $end
$var wire 8 v" in12 [7:0] $end
$var wire 8 w" in13 [7:0] $end
$var wire 8 x" in14 [7:0] $end
$var wire 8 y" in15 [7:0] $end
$var wire 8 z" in2 [7:0] $end
$var wire 8 {" in3 [7:0] $end
$var wire 8 |" in4 [7:0] $end
$var wire 8 }" in5 [7:0] $end
$var wire 8 ~" in6 [7:0] $end
$var wire 4 !# selector [3:0] $end
$var wire 8 "# out [7:0] $end
$var wire 8 ## in9 [7:0] $end
$var wire 8 $# in8 [7:0] $end
$var wire 8 %# in7 [7:0] $end
$var wire 1 1 clk $end
$var parameter 32 &# SELECTOR_WIDTH $end
$var parameter 32 '# SIGNAL_WIDTH $end
$upscope $end
$scope module decode_mux $end
$var wire 8 (# in0 [7:0] $end
$var wire 8 )# in1 [7:0] $end
$var wire 8 *# in10 [7:0] $end
$var wire 8 +# in11 [7:0] $end
$var wire 8 ,# in12 [7:0] $end
$var wire 8 -# in13 [7:0] $end
$var wire 8 .# in14 [7:0] $end
$var wire 8 /# in15 [7:0] $end
$var wire 8 0# in2 [7:0] $end
$var wire 8 1# in3 [7:0] $end
$var wire 8 2# in4 [7:0] $end
$var wire 8 3# in5 [7:0] $end
$var wire 8 4# in6 [7:0] $end
$var wire 4 5# selector [3:0] $end
$var wire 8 6# out [7:0] $end
$var wire 8 7# in9 [7:0] $end
$var wire 8 8# in8 [7:0] $end
$var wire 8 9# in7 [7:0] $end
$var wire 1 1 clk $end
$var parameter 32 :# SELECTOR_WIDTH $end
$var parameter 32 ;# SIGNAL_WIDTH $end
$upscope $end
$scope module fetch_mux $end
$var wire 8 <# in0 [7:0] $end
$var wire 8 =# in1 [7:0] $end
$var wire 8 ># in10 [7:0] $end
$var wire 8 ?# in11 [7:0] $end
$var wire 8 @# in12 [7:0] $end
$var wire 8 A# in13 [7:0] $end
$var wire 8 B# in14 [7:0] $end
$var wire 8 C# in15 [7:0] $end
$var wire 8 D# in2 [7:0] $end
$var wire 8 E# in3 [7:0] $end
$var wire 8 F# in4 [7:0] $end
$var wire 8 G# in5 [7:0] $end
$var wire 8 H# in6 [7:0] $end
$var wire 4 I# selector [3:0] $end
$var wire 8 J# out [7:0] $end
$var wire 8 K# in9 [7:0] $end
$var wire 8 L# in8 [7:0] $end
$var wire 8 M# in7 [7:0] $end
$var wire 1 1 clk $end
$var parameter 32 N# SELECTOR_WIDTH $end
$var parameter 32 O# SIGNAL_WIDTH $end
$upscope $end
$scope module mem_mux $end
$var wire 8 P# in0 [7:0] $end
$var wire 8 Q# in1 [7:0] $end
$var wire 8 R# in10 [7:0] $end
$var wire 8 S# in11 [7:0] $end
$var wire 8 T# in12 [7:0] $end
$var wire 8 U# in13 [7:0] $end
$var wire 8 V# in14 [7:0] $end
$var wire 8 W# in15 [7:0] $end
$var wire 8 X# in2 [7:0] $end
$var wire 8 Y# in3 [7:0] $end
$var wire 8 Z# in4 [7:0] $end
$var wire 8 [# in5 [7:0] $end
$var wire 8 \# in6 [7:0] $end
$var wire 4 ]# selector [3:0] $end
$var wire 8 ^# out [7:0] $end
$var wire 8 _# in9 [7:0] $end
$var wire 8 `# in8 [7:0] $end
$var wire 8 a# in7 [7:0] $end
$var wire 1 1 clk $end
$var parameter 32 b# SELECTOR_WIDTH $end
$var parameter 32 c# SIGNAL_WIDTH $end
$upscope $end
$scope module pc_mux $end
$var wire 8 d# in0 [7:0] $end
$var wire 8 e# in1 [7:0] $end
$var wire 8 f# in10 [7:0] $end
$var wire 8 g# in11 [7:0] $end
$var wire 8 h# in12 [7:0] $end
$var wire 8 i# in13 [7:0] $end
$var wire 8 j# in14 [7:0] $end
$var wire 8 k# in15 [7:0] $end
$var wire 8 l# in2 [7:0] $end
$var wire 8 m# in3 [7:0] $end
$var wire 8 n# in4 [7:0] $end
$var wire 8 o# in5 [7:0] $end
$var wire 8 p# in6 [7:0] $end
$var wire 4 q# selector [3:0] $end
$var wire 8 r# out [7:0] $end
$var wire 8 s# in9 [7:0] $end
$var wire 8 t# in8 [7:0] $end
$var wire 8 u# in7 [7:0] $end
$var wire 1 1 clk $end
$var parameter 32 v# SELECTOR_WIDTH $end
$var parameter 32 w# SIGNAL_WIDTH $end
$upscope $end
$scope module sp_mux $end
$var wire 8 x# in0 [7:0] $end
$var wire 8 y# in1 [7:0] $end
$var wire 8 z# in10 [7:0] $end
$var wire 8 {# in11 [7:0] $end
$var wire 8 |# in12 [7:0] $end
$var wire 8 }# in13 [7:0] $end
$var wire 8 ~# in14 [7:0] $end
$var wire 8 !$ in15 [7:0] $end
$var wire 8 "$ in2 [7:0] $end
$var wire 8 #$ in3 [7:0] $end
$var wire 8 $$ in4 [7:0] $end
$var wire 8 %$ in5 [7:0] $end
$var wire 8 &$ in6 [7:0] $end
$var wire 4 '$ selector [3:0] $end
$var wire 8 ($ out [7:0] $end
$var wire 8 )$ in9 [7:0] $end
$var wire 8 *$ in8 [7:0] $end
$var wire 8 +$ in7 [7:0] $end
$var wire 1 1 clk $end
$var parameter 32 ,$ SELECTOR_WIDTH $end
$var parameter 32 -$ SIGNAL_WIDTH $end
$upscope $end
$scope module stat_mux $end
$var wire 8 .$ in0 [7:0] $end
$var wire 8 /$ in1 [7:0] $end
$var wire 8 0$ in10 [7:0] $end
$var wire 8 1$ in11 [7:0] $end
$var wire 8 2$ in12 [7:0] $end
$var wire 8 3$ in13 [7:0] $end
$var wire 8 4$ in14 [7:0] $end
$var wire 8 5$ in15 [7:0] $end
$var wire 8 6$ in2 [7:0] $end
$var wire 8 7$ in3 [7:0] $end
$var wire 8 8$ in4 [7:0] $end
$var wire 8 9$ in5 [7:0] $end
$var wire 8 :$ in6 [7:0] $end
$var wire 4 ;$ selector [3:0] $end
$var wire 8 <$ out [7:0] $end
$var wire 8 =$ in9 [7:0] $end
$var wire 8 >$ in8 [7:0] $end
$var wire 8 ?$ in7 [7:0] $end
$var wire 1 1 clk $end
$var parameter 32 @$ SELECTOR_WIDTH $end
$var parameter 32 A$ SIGNAL_WIDTH $end
$upscope $end
$scope module x_mux $end
$var wire 8 B$ in0 [7:0] $end
$var wire 8 C$ in1 [7:0] $end
$var wire 8 D$ in10 [7:0] $end
$var wire 8 E$ in11 [7:0] $end
$var wire 8 F$ in12 [7:0] $end
$var wire 8 G$ in13 [7:0] $end
$var wire 8 H$ in14 [7:0] $end
$var wire 8 I$ in15 [7:0] $end
$var wire 8 J$ in2 [7:0] $end
$var wire 8 K$ in3 [7:0] $end
$var wire 8 L$ in4 [7:0] $end
$var wire 8 M$ in5 [7:0] $end
$var wire 8 N$ in6 [7:0] $end
$var wire 4 O$ selector [3:0] $end
$var wire 8 P$ out [7:0] $end
$var wire 8 Q$ in9 [7:0] $end
$var wire 8 R$ in8 [7:0] $end
$var wire 8 S$ in7 [7:0] $end
$var wire 1 1 clk $end
$var parameter 32 T$ SELECTOR_WIDTH $end
$var parameter 32 U$ SIGNAL_WIDTH $end
$upscope $end
$scope module y_mux $end
$var wire 8 V$ in0 [7:0] $end
$var wire 8 W$ in1 [7:0] $end
$var wire 8 X$ in10 [7:0] $end
$var wire 8 Y$ in11 [7:0] $end
$var wire 8 Z$ in12 [7:0] $end
$var wire 8 [$ in13 [7:0] $end
$var wire 8 \$ in14 [7:0] $end
$var wire 8 ]$ in15 [7:0] $end
$var wire 8 ^$ in2 [7:0] $end
$var wire 8 _$ in3 [7:0] $end
$var wire 8 `$ in4 [7:0] $end
$var wire 8 a$ in5 [7:0] $end
$var wire 8 b$ in6 [7:0] $end
$var wire 4 c$ selector [3:0] $end
$var wire 8 d$ out [7:0] $end
$var wire 8 e$ in9 [7:0] $end
$var wire 8 f$ in8 [7:0] $end
$var wire 8 g$ in7 [7:0] $end
$var wire 1 1 clk $end
$var parameter 32 h$ SELECTOR_WIDTH $end
$var parameter 32 i$ SIGNAL_WIDTH $end
$upscope $end
$upscope $end
$scope module clk_mod $end
$var wire 1 ] phi0 $end
$var wire 1 2 phi1 $end
$var wire 1 1 phi2 $end
$var wire 1 j$ reset_n $end
$upscope $end
$scope module decode $end
$var wire 1 R alu_done $end
$var wire 1 2 clk $end
$var wire 1 ^ reset_n $end
$var wire 1 < instruction_ready $end
$var wire 8 k$ instruction_in [7:0] $end
$var wire 16 l$ addr_in [15:0] $end
$var parameter 32 m$ ADDR_WIDTH $end
$var parameter 32 n$ OPP_WIDTH $end
$var parameter 32 o$ REG_WIDTH $end
$var reg 3 p$ add_mode [2:0] $end
$var reg 4 q$ add_selector [3:0] $end
$var reg 16 r$ addr [15:0] $end
$var reg 4 s$ alu0_selector [3:0] $end
$var reg 4 t$ alu1_selector [3:0] $end
$var reg 1 - alu_update_status $end
$var reg 8 u$ decode_counter [7:0] $end
$var reg 4 v$ decode_selector [3:0] $end
$var reg 8 w$ instruction [7:0] $end
$var reg 1 = instruction_done $end
$var reg 4 x$ mem_selector [3:0] $end
$var reg 8 y$ opp [7:0] $end
$var reg 5 z$ opp_code [4:0] $end
$var reg 4 {$ pc_selector [3:0] $end
$var reg 4 |$ sp_selector [3:0] $end
$var reg 4 }$ stat_selector [3:0] $end
$var reg 7 ~$ we [6:0] $end
$var reg 4 !% x_selector [3:0] $end
$var reg 4 "% y_selector [3:0] $end
$upscope $end
$scope module fetch $end
$var wire 8 #% data_in [7:0] $end
$var wire 1 ! get_next $end
$var wire 1 = instruction_done $end
$var wire 16 $% pc [15:0] $end
$var wire 1 2 phi1 $end
$var wire 1 1 phi2 $end
$var wire 1 ^ reset_n $end
$var parameter 32 %% ADDR_WIDTH $end
$var parameter 32 &% OPP_WIDTH $end
$var parameter 32 '% REG_WIDTH $end
$var reg 3 (% add_mode [2:0] $end
$var reg 16 )% addr [15:0] $end
$var reg 16 *% addr_reg [15:0] $end
$var reg 3 +% fetch_counter [2:0] $end
$var reg 4 ,% fetch_selector [3:0] $end
$var reg 8 -% imm [7:0] $end
$var reg 8 .% instruction_out [7:0] $end
$var reg 1 < instruction_ready $end
$var reg 16 /% pc_next [15:0] $end
$var reg 1 0% pc_wait $end
$var reg 8 1% reg_out [7:0] $end
$upscope $end
$scope module mem_test $end
$var wire 16 2% addr [15:0] $end
$var wire 1 1 clk $end
$var wire 8 3% din [7:0] $end
$var wire 1 ^ reset_n $end
$var wire 1 4% we $end
$var wire 16 5% local_addr [15:0] $end
$var wire 8 6% dout [7:0] $end
$var parameter 32 7% ADDR_WIDTH $end
$var parameter 32 8% BASE $end
$var parameter 32 9% DEPTH $end
$var parameter 32 :% WIDTH $end
$upscope $end
$scope begin main_loop $end
$var reg 8 ;% mem_unit [7:0] $end
$upscope $end
$upscope $end
$enddefinitions $end
$comment Show the parameter values. $end
$dumpall
b1000 :%
b111111111 9%
b0 8%
b10000 7%
b1000 '%
b1000 &%
b10000 %%
b1000 o$
b1000 n$
b10000 m$
b1000 i$
b100 h$
b1000 U$
b100 T$
b1000 A$
b100 @$
b1000 -$
b100 ,$
b1000 w#
b100 v#
b1000 c#
b100 b#
b1000 O#
b100 N#
b1000 ;#
b100 :#
b1000 '#
b100 &#
b1000 q"
b100 p"
b1000 ]"
b100 \"
b1000 I"
b100 H"
b1000 w
b1000 s
b1000 o
b1000 k
b1000 g
b1000 c
$end
#0
$dumpvars
bx ;%
bx 6%
bx 5%
x4%
bx 3%
bx 2%
bx 1%
x0%
bx /%
bx .%
bx -%
bx ,%
bx +%
bx *%
bx )%
bx (%
bx $%
bx #%
bx "%
bx !%
b0 ~$
bx }$
bx |$
bx {$
bx z$
bx y$
bx x$
bx w$
bx v$
bx u$
bx t$
bx s$
bx r$
bx q$
bx p$
bx l$
bx k$
zj$
bx g$
bx f$
bx e$
bx d$
bx c$
bx b$
bx a$
bx `$
bx _$
bx ^$
bz ]$
bz \$
bz [$
bz Z$
bz Y$
bz X$
bx W$
b0 V$
bx S$
bx R$
bx Q$
bx P$
bx O$
bx N$
bx M$
bx L$
bx K$
bx J$
bz I$
bz H$
bz G$
bz F$
bz E$
bz D$
bx C$
b0 B$
bx ?$
bx >$
bx =$
bx <$
bx ;$
bx :$
bx 9$
bx 8$
bx 7$
bx 6$
bz 5$
bz 4$
bz 3$
bz 2$
bz 1$
bz 0$
bx /$
b0 .$
bx +$
bx *$
bx )$
bx ($
bx '$
bx &$
bx %$
bx $$
bx #$
bx "$
bz !$
bz ~#
bz }#
bz |#
bz {#
bz z#
bx y#
b0 x#
bx u#
bx t#
bx s#
bx r#
bx q#
bx p#
bx o#
bx n#
bx m#
bx l#
bz k#
bz j#
bz i#
bz h#
bz g#
bz f#
bx e#
b0 d#
bx a#
bx `#
bx _#
bx ^#
bx ]#
bx \#
bx [#
bx Z#
bx Y#
bx X#
bz W#
bz V#
bz U#
bz T#
bz S#
bz R#
bx Q#
b0 P#
bx M#
bx L#
bx K#
bx J#
bx I#
bx H#
bx G#
bx F#
bx E#
bx D#
bz C#
bz B#
bz A#
bz @#
bz ?#
bz >#
bx =#
b0 <#
bx 9#
bx 8#
bx 7#
bx 6#
bx 5#
bx 4#
bx 3#
bx 2#
bx 1#
bx 0#
bz /#
bz .#
bz -#
bz ,#
bz +#
bz *#
bx )#
b0 (#
bx %#
bx $#
bx ##
bx "#
bx !#
bx ~"
bx }"
bx |"
bx {"
bx z"
bz y"
bz x"
bz w"
bz v"
bz u"
bz t"
bx s"
b0 r"
bx o"
bx n"
bx m"
bx l"
bx k"
bx j"
bx i"
bx h"
bx g"
bx f"
bz e"
bz d"
bz c"
bz b"
bz a"
bz `"
bx _"
b0 ^"
bx ["
bx Z"
bx Y"
bx X"
bx W"
bx V"
bx U"
bx T"
bx S"
bx R"
bz Q"
bz P"
bz O"
bz N"
bz M"
bz L"
bx K"
b0 J"
bx G"
bx F"
bx E"
bx D"
bx C"
bx B"
bx A"
bx @"
bx ?"
bx >"
bx ="
bx <"
bx ;"
bx :"
bx 9"
bx 8"
bx 7"
bx 6"
bx 5"
bx 4"
bx 3"
bx 2"
bx 1"
bx 0"
bx /"
bx ."
bx -"
bx ,"
bx +"
bx *"
bz )"
bz ("
bx '"
x&"
bx %"
bz $"
x#"
bx ""
bx !"
bx ~
bx }
z|
z{
zz
zy
bx x
bx v
zu
bx t
bx r
zq
bx p
zn
bx m
bx l
bx j
zi
bx h
bx f
ze
bx d
bx b
za
x`
b1000001100001111 _
1^
0]
bx \
x[
1Z
bx Y
bx X
bx W
bx V
bx U
bx T
bx S
0R
bx Q
bz P
bx O
bx N
bx M
bx L
bx K
bx J
bx I
bx H
bx G
bx F
bx E
bx D
bx C
bx B
bx A
bx @
bx ?
bx >
x=
x<
bx ;
bx :
bx 9
bx 8
bx 7
bx 6
bx 5
bx 4
bx 3
12
01
bx 0
bx /
bx .
x-
bx000000 ,
0+
0*
0)
0(
0'
0&
0%
bx $
bx #
bz "
x!
$end
#5
02
11
1]
#10
b101010000 \
b101010000 $%
0=
b0 P
b0 $"
b0 ("
b0 M"
b0 a"
b0 u"
b0 +#
b0 ?#
b0 S#
b0 g#
b0 {#
b0 1$
b0 E$
b0 Y$
b0 u$
b0 Q
b0 ~
b0 y$
10%
b101010000 4
b101010000 /%
1<
b0 +%
12
0^
01
0]
#15
b0 7
b0 p
b0 }
b0 ,"
b0 V"
b0 j"
b0 ~"
b0 4#
b0 H#
b0 \#
b0 p#
b0 &$
b0 :$
b0 N$
b0 b$
b0 5
b0 x
b0 ."
b0 U"
b0 i"
b0 }"
b0 3#
b0 G#
b0 [#
b0 o#
b0 %$
b0 9$
b0 M$
b0 a$
b0 6
b0 t
b0 -"
b0 T"
b0 h"
b0 |"
b0 2#
b0 F#
b0 Z#
b0 n#
b0 $$
b0 8$
b0 L$
b0 `$
b0 :
b0 d
b0 '"
b0 S"
b0 g"
b0 {"
b0 1#
b0 E#
b0 Y#
b0 m#
b0 #$
b0 7$
b0 K$
b0 _$
b0 8
b0 l
b0 +"
b0 R"
b0 f"
b0 z"
b0 0#
b0 D#
b0 X#
b0 l#
b0 "$
b0 6$
b0 J$
b0 ^$
b0 9
b0 h
b0 *"
b0 K"
b0 _"
b0 s"
b0 )#
b0 =#
b0 Q#
b0 e#
b0 y#
b0 /$
b0 C$
b0 W$
02
11
1]
#20
bz N
bz ;"
bz ["
bz o"
bz %#
bz 9#
bz M#
bz a#
bz u#
bz +$
bz ?$
bz S$
bz g$
bz 6%
b0 5%
14%
b10100 I
b10100 3%
b0 U
b0 2%
b1000000 ,
12
b10100 X
b0 W
1[
b10100 ;%
b10001010000111111011011000000100 _
b0 Y
01
0]
#25
02
11
1]
#30
b1 5%
b11011011 I
b11011011 3%
b1 U
b1 2%
12
b11011011 X
b1 W
b11011011 ;%
b11101101101001101111010100110101 _
b1 Y
01
0]
#35
02
11
1]
#40
b10 5%
b1111100 I
b1111100 3%
b10 U
b10 2%
12
b1111100 X
b10 W
b1111100 ;%
b10111110010110110000110001110010 _
b10 Y
01
0]
#45
02
11
1]
#50
b11 5%
b110101 I
b110101 3%
b11 U
b11 2%
12
b110101 X
b11 W
b110101 ;%
b11010111111001100000101001011 _
b11 Y
01
0]
#55
02
11
1]
#60
b100 5%
b1100111 I
b1100111 3%
b100 U
b100 2%
12
b1100111 X
b100 W
b1100111 ;%
b110011100000101001100000010000 _
b100 Y
01
0]
#65
02
11
1]
#70
b101 5%
b11110010 I
b11110010 3%
b101 U
b101 2%
12
b11110010 X
b101 W
b11110010 ;%
b1111001010111001001010011010001 _
b101 Y
01
0]
#75
02
11
1]
#80
b110 5%
b11101111 I
b11101111 3%
b110 U
b110 2%
12
b11101111 X
b110 W
b11101111 ;%
b1110111100000101100100001011110 _
b110 Y
01
0]
#85
02
11
1]
#90
b111 5%
b1000000 I
b1000000 3%
b111 U
b111 2%
12
b1000000 X
b111 W
b1000000 ;%
b100000010001010011100101000111 _
b111 Y
01
0]
#95
02
11
1]
#100
b1000 5%
b101001 I
b101001 3%
b1000 U
b1000 2%
12
b101001 X
b1000 W
b101001 ;%
b10010100100111100111100011011100 _
b1000 Y
01
0]
#105
02
11
1]
#110
b1001 5%
b1111 I
b1111 3%
b1001 U
b1001 2%
12
b1111 X
b1001 W
b1111 ;%
b10000111111001011111010000101101 _
b1001 Y
01
0]
#115
02
11
1]
#120
b1010 5%
b11101001 I
b11101001 3%
b1010 U
b1010 2%
12
b11101001 X
b1010 W
b11101001 ;%
b1110100101101111101000100001010 _
b1010 Y
01
0]
#125
02
11
1]
#130
b1011 5%
b111011 I
b111011 3%
b1011 U
b1011 2%
12
b111011 X
b1011 W
b111011 ;%
b10011101110110011110011100000011 _
b1011 Y
01
0]
#135
02
11
1]
#140
b1100 5%
b10111110 I
b10111110 3%
b1100 U
b1100 2%
12
b10111110 X
b1100 W
b10111110 ;%
b1011111001111000010010001101000 _
b1100 Y
01
0]
#145
02
11
1]
#150
b1101 5%
b11101010 I
b11101010 3%
b1101 U
b1101 2%
12
b11101010 X
b1101 W
b11101010 ;%
b1110101011010100110111101001001 _
b1101 Y
01
0]
#155
02
11
1]
#160
b1110 5%
b10111010 I
b10111010 3%
b1110 U
b1110 2%
12
b10111010 X
b1110 W
b10111010 ;%
b11011101001010101101001001110110 _
b1110 Y
01
0]
#165
02
11
1]
#170
b1111 5%
b110100 I
b110100 3%
b1111 U
b1111 2%
12
b110100 X
b1111 W
b110100 ;%
b11010011100001000011001111111 _
b1111 Y
01
0]
#175
02
11
1]
#180
b10000 5%
b11010010 I
b11010010 3%
b10000 U
b10000 2%
12
b11010010 X
b10000 W
b11010010 ;%
b1101001011011110010011010110100 _
b10000 Y
01
0]
#185
02
11
1]
#190
b10001 5%
b1110011 I
b1110011 3%
b10001 U
b10001 2%
12
b1110011 X
b10001 W
b1110011 ;%
b111001101011010010001000100101 _
b10001 Y
01
0]
#195
02
11
1]
#200
b10010 5%
b111001 I
b111001 3%
b10010 U
b10010 2%
12
b111001 X
b10010 W
b111001 ;%
b11100100001010011100010100010 _
b10010 Y
01
0]
#205
02
11
1]
#210
b10011 5%
b10100110 I
b10100110 3%
b10011 U
b10011 2%
12
b10100110 X
b10011 W
b10100110 ;%
b11010011001100001001001110111011 _
b10011 Y
01
0]
#215
02
11
1]
#220
b10100 5%
b1010010 I
b1010010 3%
b10100 U
b10100 2%
12
b1010010 X
b10100 W
b1010010 ;%
b101001001000011100101111000000 _
b10100 Y
01
0]
#225
02
11
1]
#230
b10101 5%
b11100110 I
b11100110 3%
b10101 U
b10101 2%
12
b11100110 X
b10101 W
b11100110 ;%
b1110011001010001110100011000001 _
b10101 Y
01
0]
#235
02
11
1]
#240
b10110 5%
b1101000 I
b1101000 3%
b10110 U
b10110 2%
12
b1101000 X
b10110 W
b1101000 ;%
b110100010101010010111110001110 _
b10110 Y
01
0]
#245
02
11
1]
#250
b10111 5%
b11010110 I
b11010110 3%
b10111 U
b10111 2%
12
b11010110 X
b10111 W
b11010110 ;%
b1101011001011110100101010110111 _
b10111 Y
01
0]
#255
02
11
1]
#260
b11000 5%
b1100 I
b1100 3%
b11000 U
b11000 2%
12
b1100 X
b11000 W
b1100 ;%
b10000110011000010001111110001100 _
b11000 Y
01
0]
#265
02
11
1]
#270
b11001 5%
b1010011 I
b1010011 3%
b11001 U
b11001 2%
12
b1010011 X
b11001 W
b1010011 ;%
b10101001111011000101111100011101 _
b11001 Y
01
0]
#275
02
11
1]
#280
b11010 5%
b11100100 I
b11100100 3%
b11010 U
b11010 2%
12
b11100100 X
b11010 W
b11100100 ;%
b1110010001110011010001100111010 _
b11010 Y
01
0]
#285
02
11
1]
