Out/iflow.vcd
$date
	Wed Jul 26 23:41:36 2023
$end
$version
	Icarus Verilog
$end
$timescale
	1ns
$end
$scope module tb_iflow $end
$var wire 1 ! get_next $end
$var wire 8 " iADD [7:0] $end
$var wire 8 # iSP [7:0] $end
$var wire 8 $ iSTATUS [7:0] $end
$var wire 8 % iX [7:0] $end
$var wire 8 & iY [7:0] $end
$var wire 1 ' we_y $end
$var wire 1 ( we_x $end
$var wire 1 ) we_stat $end
$var wire 1 * we_sp $end
$var wire 1 + we_pc $end
$var wire 1 , we_dout $end
$var wire 1 - we_add $end
$var wire 7 . we [6:0] $end
$var wire 3 / target_selector_1 [2:0] $end
$var wire 3 0 target_selector_01 [2:0] $end
$var wire 3 1 target_selector_0 [2:0] $end
$var wire 3 2 source_selector_1 [2:0] $end
$var wire 3 3 source_selector_01 [2:0] $end
$var wire 3 4 source_selector_0 [2:0] $end
$var wire 8 5 reg_connect_1 [7:0] $end
$var wire 8 6 reg_connect_0 [7:0] $end
$var wire 1 7 phi2_int $end
$var wire 1 8 phi1_int $end
$var wire 16 9 pc_next [15:0] $end
$var wire 8 : oY [7:0] $end
$var wire 8 ; oX [7:0] $end
$var wire 8 < oSTATUS [7:0] $end
$var wire 8 = oSP [7:0] $end
$var wire 8 > oADD [7:0] $end
$var wire 1 ? instruction_ready $end
$var wire 1 @ instruction_done $end
$var wire 8 A instruction [7:0] $end
$var wire 8 B imm [7:0] $end
$var wire 8 C ialu_b [7:0] $end
$var wire 8 D ialu_a [7:0] $end
$var wire 16 E fetcher_addr [15:0] $end
$var wire 3 F fetch_selector [2:0] $end
$var wire 8 G d_to_mem1 [7:0] $end
$var wire 8 H d_to_mem [7:0] $end
$var wire 8 I d_to_fetch [7:0] $end
$var wire 8 J d_from_mem [7:0] $end
$var wire 8 K d_from_fetch [7:0] $end
$var wire 16 L addr [15:0] $end
$var reg 16 M addr_in [15:0] $end
$var reg 8 N d_in [7:0] $end
$var reg 32 O i [31:0] $end
$var reg 1 P manual_mem $end
$var reg 1 Q mem_write $end
$var reg 16 R pc [15:0] $end
$var reg 1 S phi0 $end
$var reg 1 T reset_n $end
$var reg 32 U seed [31:0] $end
$var reg 1 V trigger_program $end
$scope module ADD $end
$var wire 8 W din [7:0] $end
$var wire 1 T reset_n $end
$var wire 1 X valid $end
$var wire 1 - we $end
$var wire 1 7 clk $end
$var parameter 32 Y REG_WIDTH $end
$var reg 8 Z dout [7:0] $end
$upscope $end
$scope module SP $end
$var wire 8 [ din [7:0] $end
$var wire 1 T reset_n $end
$var wire 1 \ valid $end
$var wire 1 * we $end
$var wire 1 7 clk $end
$var parameter 32 ] REG_WIDTH $end
$var reg 8 ^ dout [7:0] $end
$upscope $end
$scope module STAT $end
$var wire 8 _ din [7:0] $end
$var wire 1 T reset_n $end
$var wire 1 ` valid $end
$var wire 1 ) we $end
$var wire 1 7 clk $end
$var parameter 32 a REG_WIDTH $end
$var reg 8 b dout [7:0] $end
$upscope $end
$scope module X $end
$var wire 8 c din [7:0] $end
$var wire 1 T reset_n $end
$var wire 1 d valid $end
$var wire 1 ( we $end
$var wire 1 7 clk $end
$var parameter 32 e REG_WIDTH $end
$var reg 8 f dout [7:0] $end
$upscope $end
$scope module Y $end
$var wire 8 g din [7:0] $end
$var wire 1 T reset_n $end
$var wire 1 h valid $end
$var wire 1 ' we $end
$var wire 1 7 clk $end
$var parameter 32 i REG_WIDTH $end
$var reg 8 j dout [7:0] $end
$upscope $end
$scope module clk_mod $end
$var wire 1 S phi0 $end
$var wire 1 8 phi1 $end
$var wire 1 7 phi2 $end
$var wire 1 k reset_n $end
$upscope $end
$scope module decode $end
$var wire 1 8 clk $end
$var wire 1 T reset_n $end
$var wire 1 ? instruction_ready $end
$var wire 8 l instruction_in [7:0] $end
$var wire 16 m address_in [15:0] $end
$var parameter 32 n ADDR_WIDTH $end
$var parameter 32 o OPP_WIDTH $end
$var parameter 32 p REG_WIDTH $end
$var reg 3 q add_mode [2:0] $end
$var reg 16 r addr [15:0] $end
$var reg 8 s decode_counter [7:0] $end
$var reg 1 t get_next $end
$var reg 8 u instruction [7:0] $end
$var reg 1 @ instruction_done $end
$var reg 8 v opp [7:0] $end
$var reg 5 w opp_code [4:0] $end
$var reg 3 x source_selector_0 [2:0] $end
$var reg 3 y source_selector_1 [2:0] $end
$var reg 3 z target_selector_0 [2:0] $end
$var reg 3 { target_selector_1 [2:0] $end
$var reg 7 | we [6:0] $end
$upscope $end
$scope module fetch $end
$var wire 1 ! get_next $end
$var wire 1 @ instruction_done $end
$var wire 16 } pc [15:0] $end
$var wire 1 8 phi1 $end
$var wire 1 7 phi2 $end
$var wire 1 T reset_n $end
$var wire 8 ~ data_in [7:0] $end
$var parameter 32 !" ADDR_WIDTH $end
$var parameter 32 "" OPP_WIDTH $end
$var parameter 32 #" REG_WIDTH $end
$var reg 3 $" add_mode [2:0] $end
$var reg 16 %" addr [15:0] $end
$var reg 3 &" fetch_counter [2:0] $end
$var reg 3 '" fetch_source_selector [2:0] $end
$var reg 8 (" imm [7:0] $end
$var reg 8 )" instruction [7:0] $end
$var reg 8 *" instruction_out [7:0] $end
$var reg 1 ? instruction_ready $end
$var reg 16 +" pc_next [15:0] $end
$var reg 8 ," reg_out [7:0] $end
$upscope $end
$scope module mem_test $end
$var wire 16 -" addr [15:0] $end
$var wire 1 7 clk $end
$var wire 8 ." din [7:0] $end
$var wire 1 T reset_n $end
$var wire 1 /" we $end
$var wire 16 0" local_addr [15:0] $end
$var wire 8 1" dout [7:0] $end
$var parameter 32 2" ADDR_WIDTH $end
$var parameter 32 3" BASE $end
$var parameter 32 4" DEPTH $end
$var parameter 32 5" WIDTH $end
$upscope $end
$scope module reg_fan0 $end
$var wire 1 7 clk $end
$var wire 8 6" out1 [7:0] $end
$var wire 8 7" out2 [7:0] $end
$var wire 8 8" out3 [7:0] $end
$var wire 3 9" selector [2:0] $end
$var wire 8 :" out7 [7:0] $end
$var wire 8 ;" out6 [7:0] $end
$var wire 8 <" out5 [7:0] $end
$var wire 8 =" out4 [7:0] $end
$var wire 8 >" out0 [7:0] $end
$var wire 8 ?" in [7:0] $end
$var parameter 32 @" SIGNAL_WIDTH $end
$upscope $end
$scope module reg_fan1 $end
$var wire 1 7 clk $end
$var wire 8 A" out1 [7:0] $end
$var wire 8 B" out2 [7:0] $end
$var wire 8 C" out3 [7:0] $end
$var wire 3 D" selector [2:0] $end
$var wire 8 E" out7 [7:0] $end
$var wire 8 F" out6 [7:0] $end
$var wire 8 G" out5 [7:0] $end
$var wire 8 H" out4 [7:0] $end
$var wire 8 I" out0 [7:0] $end
$var wire 8 J" in [7:0] $end
$var parameter 32 K" SIGNAL_WIDTH $end
$upscope $end
$scope module reg_mux0 $end
$var wire 1 7 clk $end
$var wire 8 L" in0 [7:0] $end
$var wire 8 M" in1 [7:0] $end
$var wire 8 N" in2 [7:0] $end
$var wire 8 O" in3 [7:0] $end
$var wire 8 P" in4 [7:0] $end
$var wire 8 Q" in5 [7:0] $end
$var wire 8 R" in6 [7:0] $end
$var wire 8 S" in7 [7:0] $end
$var wire 3 T" selector [2:0] $end
$var wire 8 U" out [7:0] $end
$var parameter 32 V" SIGNAL_WIDTH $end
$upscope $end
$scope module reg_mux1 $end
$var wire 1 7 clk $end
$var wire 8 W" in0 [7:0] $end
$var wire 8 X" in1 [7:0] $end
$var wire 8 Y" in2 [7:0] $end
$var wire 8 Z" in3 [7:0] $end
$var wire 8 [" in4 [7:0] $end
$var wire 8 \" in5 [7:0] $end
$var wire 8 ]" in6 [7:0] $end
$var wire 8 ^" in7 [7:0] $end
$var wire 3 _" selector [2:0] $end
$var wire 8 `" out [7:0] $end
$var parameter 32 a" SIGNAL_WIDTH $end
$upscope $end
$scope module selector_switch0 $end
$var wire 3 b" in0 [2:0] $end
$var wire 3 c" in1 [2:0] $end
$var wire 1 d" in_select $end
$var wire 3 e" out0 [2:0] $end
$var wire 3 f" out1 [2:0] $end
$var wire 1 g" out_select $end
$var wire 3 h" connect [2:0] $end
$var parameter 32 i" SIGNAL_WIDTH $end
$upscope $end
$scope module selector_switch1 $end
$var wire 3 j" in0 [2:0] $end
$var wire 3 k" in1 [2:0] $end
$var wire 1 l" in_select $end
$var wire 3 m" out0 [2:0] $end
$var wire 3 n" out1 [2:0] $end
$var wire 1 o" out_select $end
$var wire 3 p" connect [2:0] $end
$var parameter 32 q" SIGNAL_WIDTH $end
$upscope $end
$scope begin main_loop $end
$var reg 8 r" mem_unit [7:0] $end
$upscope $end
$upscope $end
$enddefinitions $end
$comment Show the parameter values. $end
$dumpall
b11 q"
b11 i"
b1000 a"
b1000 V"
b1000 K"
b1000 @"
b1000 5"
b100000 4"
b0 3"
b10000 2"
b1000 #"
b1000 ""
b10000 !"
b1000 p
b1000 o
b10000 n
b1000 i
b1000 e
b1000 a
b1000 ]
b1000 Y
$end
#0
$dumpvars
bx r"
bx p"
0o"
bz n"
bx m"
xl"
b111 k"
b0 j"
bx h"
0g"
bz f"
bx e"
xd"
bx c"
bx b"
bx `"
bx _"
bx ^"
b0 ]"
bx \"
bx ["
bx Z"
bx Y"
bx X"
bz W"
bx U"
bx T"
bx S"
b0 R"
bx Q"
bx P"
bx O"
bx N"
bx M"
bz L"
bx J"
bx I"
bz H"
bz G"
bz F"
bz E"
b0 D"
bx C"
bx B"
bx A"
bx ?"
bx >"
bx ="
bx <"
bx ;"
bx :"
bx 9"
bx 8"
bx 7"
bx 6"
bx 1"
bx 0"
x/"
bx ."
bx -"
bx ,"
bx +"
bx *"
bx )"
bx ("
bx '"
bx &"
bx %"
bx $"
bx ~
bx }
b0 |
b0 {
b0 z
bx y
bx x
bx w
bx v
bx u
xt
bx s
bx r
bx q
bx m
bx l
zk
bx j
zh
bx g
bx f
zd
bx c
bx b
z`
bz _
bx ^
z\
bz [
bx Z
zX
bx W
xV
b1000001100001111 U
1T
0S
bx R
xQ
1P
bx O
bx N
bx M
bx L
bx K
bx J
bx I
bz H
bx G
bx F
bx E
bx D
bz C
bx B
bx A
x@
x?
bx >
bx =
bx <
bx ;
bx :
bx 9
18
07
bx 6
bx 5
bx 4
bx 3
bx 2
b0 1
bx 0
b0 /
bx000000 .
0-
0,
0+
0*
0)
0(
0'
bx &
bx %
bz $
bz #
bx "
x!
$end
#5
08
17
1S
#10
b10000 R
b10000 }
0@
b0 s
b0 v
b10000 9
b10000 +"
1?
b0 &"
18
0T
07
0S
#15
b0 <
b0 b
b0 :
b0 j
b0 O"
b0 Z"
b0 ;
b0 f
b0 N"
b0 Y"
b0 >
b0 Z
b0 M"
b0 X"
b0 =
b0 ^
08
17
1S
#20
bz J
bz 1"
bz Q"
bz \"
b0 0"
1/"
b10100 G
b10100 ."
b0 L
b0 -"
b1000000 .
18
b10100 N
b0 M
1Q
b10100 r"
b10001010000111111011011000000100 U
b0 O
07
0S
#25
08
17
1S
#30
b1 0"
b11011011 G
b11011011 ."
b1 L
b1 -"
18
b11011011 N
b1 M
b11011011 r"
b11101101101001101111010100110101 U
b1 O
07
0S
#35
08
17
1S
#40
b10 0"
b1111100 G
b1111100 ."
b10 L
b10 -"
18
b1111100 N
b10 M
b1111100 r"
b10111110010110110000110001110010 U
b10 O
07
0S
#45
08
17
1S
#50
b11 0"
b110101 G
b110101 ."
b11 L
b11 -"
18
b110101 N
b11 M
b110101 r"
b11010111111001100000101001011 U
b11 O
07
0S
#55
08
17
1S
#60
b100 0"
b1100111 G
b1100111 ."
b100 L
b100 -"
18
b1100111 N
b100 M
b1100111 r"
b110011100000101001100000010000 U
b100 O
07
0S
#65
08
17
1S
#70
b101 0"
b11110010 G
b11110010 ."
b101 L
b101 -"
18
b11110010 N
b101 M
b11110010 r"
b1111001010111001001010011010001 U
b101 O
07
0S
#75
08
17
1S
#80
b110 0"
b11101111 G
b11101111 ."
b110 L
b110 -"
18
b11101111 N
b110 M
b11101111 r"
b1110111100000101100100001011110 U
b110 O
07
0S
#85
08
17
1S
#90
b111 0"
b1000000 G
b1000000 ."
b111 L
b111 -"
18
b1000000 N
b111 M
b1000000 r"
b100000010001010011100101000111 U
b111 O
07
0S
#95
08
17
1S
#100
b1000 0"
b101001 G
b101001 ."
b1000 L
b1000 -"
18
b101001 N
b1000 M
b101001 r"
b10010100100111100111100011011100 U
b1000 O
07
0S
#105
08
17
1S
#110
b1001 0"
b1111 G
b1111 ."
b1001 L
b1001 -"
18
b1111 N
b1001 M
b1111 r"
b10000111111001011111010000101101 U
b1001 O
07
0S
#115
08
17
1S
#120
b1010 0"
b11101001 G
b11101001 ."
b1010 L
b1010 -"
18
b11101001 N
b1010 M
b11101001 r"
b1110100101101111101000100001010 U
b1010 O
07
0S
#125
08
17
1S
#130
b1011 0"
b111011 G
b111011 ."
b1011 L
b1011 -"
18
b111011 N
b1011 M
b111011 r"
b10011101110110011110011100000011 U
b1011 O
07
0S
#135
08
17
1S
#140
b1100 0"
b10111110 G
b10111110 ."
b1100 L
b1100 -"
18
b10111110 N
b1100 M
b10111110 r"
b1011111001111000010010001101000 U
b1100 O
07
0S
#145
08
17
1S
#150
b1101 0"
b11101010 G
b11101010 ."
b1101 L
b1101 -"
18
b11101010 N
b1101 M
b11101010 r"
b1110101011010100110111101001001 U
b1101 O
07
0S
#155
08
17
1S
#160
b1110 0"
b10111010 G
b10111010 ."
b1110 L
b1110 -"
18
b10111010 N
b1110 M
b10111010 r"
b11011101001010101101001001110110 U
b1110 O
07
0S
#165
08
17
1S
#170
b1111 0"
b110100 G
b110100 ."
b1111 L
b1111 -"
18
b110100 N
b1111 M
b110100 r"
b11010011100001000011001111111 U
b1111 O
07
0S
#175
08
17
1S
#180
b10100 J
b10100 1"
b10100 Q"
b10100 \"
b0 0"
0/"
b0 L
b0 -"
b0 .
18
b0 M
0Q
b0 O
07
0S
#185
08
17
1S
#190
18
07
0S
#195
b11011011 J
b11011011 1"
b11011011 Q"
b11011011 \"
b1 0"
b1 L
b1 -"
b1 M
b1 O
b10100 r"
#200
08
17
1S
#205
18
07
0S
#210
b1111100 J
b1111100 1"
b1111100 Q"
b1111100 \"
b10 0"
b10 L
b10 -"
b10 M
b10 O
b11011011 r"
#215
08
17
1S
#220
18
07
0S
#225
b110101 J
b110101 1"
b110101 Q"
b110101 \"
b11 0"
b11 L
b11 -"
b11 M
b11 O
b1111100 r"
#230
08
17
1S
#235
18
07
0S
#240
b1100111 J
b1100111 1"
b1100111 Q"
b1100111 \"
b100 0"
b100 L
b100 -"
b100 M
b100 O
b110101 r"
#245
08
17
1S
#250
18
07
0S
#255
b11110010 J
b11110010 1"
b11110010 Q"
b11110010 \"
b101 0"
b101 L
b101 -"
b101 M
b101 O
b1100111 r"
#260
08
17
1S
#265
18
07
0S
#270
b11101111 J
b11101111 1"
b11101111 Q"
b11101111 \"
b110 0"
b110 L
b110 -"
b110 M
b110 O
b11110010 r"
#275
08
17
1S
#280
18
07
0S
#285
b1000000 J
b1000000 1"
b1000000 Q"
b1000000 \"
b111 0"
b111 L
b111 -"
b111 M
b111 O
b11101111 r"
#290
08
17
1S
#295
18
07
0S
#300
b101001 J
b101001 1"
b101001 Q"
b101001 \"
b1000 0"
b1000 L
b1000 -"
b1000 M
b1000 O
b1000000 r"
#305
08
17
1S
#310
18
07
0S
#315
b1111 J
b1111 1"
b1111 Q"
b1111 \"
b1001 0"
b1001 L
b1001 -"
b1001 M
b1001 O
b101001 r"
#320
08
17
1S
#325
18
07
0S
#330
b11101001 J
b11101001 1"
b11101001 Q"
b11101001 \"
b1010 0"
b1010 L
b1010 -"
b1010 M
b1010 O
b1111 r"
#335
08
17
1S
#340
18
07
0S
#345
b111011 J
b111011 1"
b111011 Q"
b111011 \"
b1011 0"
b1011 L
b1011 -"
b1011 M
b1011 O
b11101001 r"
#350
08
17
1S
#355
18
07
0S
#360
b10111110 J
b10111110 1"
b10111110 Q"
b10111110 \"
b1100 0"
b1100 L
b1100 -"
b1100 M
b1100 O
b111011 r"
#365
08
17
1S
#370
18
07
0S
#375
b11101010 J
b11101010 1"
b11101010 Q"
b11101010 \"
b1101 0"
b1101 L
b1101 -"
b1101 M
b1101 O
b10111110 r"
#380
08
17
1S
#385
18
07
0S
#390
b10111010 J
b10111010 1"
b10111010 Q"
b10111010 \"
b1110 0"
b1110 L
b1110 -"
b1110 M
b1110 O
b11101010 r"
#395
08
17
1S
#400
18
07
0S
#405
b110100 J
b110100 1"
b110100 Q"
b110100 \"
b1111 0"
b1111 L
b1111 -"
b1111 M
b1111 O
b10111010 r"
#410
08
17
1S
#415
18
07
0S
#420
bz J
bz 1"
bz Q"
bz \"
b10000 0"
1/"
b10101001 G
b10101001 ."
b10000 L
b10000 -"
b1000000 .
b10101001 N
b10000 M
1Q
b0 O
b110100 r"
#425
08
17
1S
#430
b10001 0"
b100 G
b100 ."
b10001 L
b10001 -"
18
b100 N
b10001 M
b1 O
07
0S
#435
08
17
1S
#440
b10010 0"
b10000101 G
b10000101 ."
b10010 L
b10010 -"
18
b10000101 N
b10010 M
b10 O
07
0S
#445
08
17
1S
#450
b10011 0"
b10 G
b10 ."
b10011 L
b10011 -"
18
b10 N
b10011 M
b11 O
07
0S
#455
08
17
1S
#460
b10100 0"
b10101001 G
b10101001 ."
b10100 L
b10100 -"
18
b10101001 N
b10100 M
b100 O
07
0S
#465
08
17
1S
#470
b10101 0"
b10000 G
b10000 ."
b10101 L
b10101 -"
18
b10000 N
b10101 M
b101 O
07
0S
#475
08
17
1S
#480
b10110 0"
b10101001 G
b10101001 ."
b10110 L
b10110 -"
18
b10101001 N
b10110 M
b110 O
07
0S
#485
08
17
1S
#490
b10111 0"
b11111111 G
b11111111 ."
b10111 L
b10111 -"
18
b11111111 N
b10111 M
b111 O
07
0S
#495
08
17
1S
#500
b11000 0"
b10000101 G
b10000101 ."
b11000 L
b11000 -"
18
b10000101 N
b11000 M
b1000 O
07
0S
#505
08
17
1S
#510
b11001 0"
b1100 G
b1100 ."
b11001 L
b11001 -"
18
b1100 N
b11001 M
b1001 O
07
0S
#515
08
17
1S
#520
b11010 0"
b10101001 G
b10101001 ."
b11010 L
b11010 -"
18
b10101001 N
b11010 M
b1010 O
07
0S
#525
08
17
1S
#530
b11011 0"
b11 G
b11 ."
b11011 L
b11011 -"
18
b11 N
b11011 M
b1011 O
07
0S
#535
08
17
1S
#540
b11100 0"
b10000101 G
b10000101 ."
b11100 L
b11100 -"
18
b10000101 N
b11100 M
b1100 O
07
0S
#545
08
17
1S
#550
b11101 0"
b100 G
b100 ."
b11101 L
b11101 -"
18
b100 N
b11101 M
b1101 O
07
0S
#555
08
17
1S
#560
b11110 0"
b10000101 G
b10000101 ."
b11110 L
b11110 -"
18
b10000101 N
b11110 M
b1110 O
07
0S
#565
08
17
1S
#570
b11111 0"
b110 G
b110 ."
b11111 L
b11111 -"
18
b110 N
b11111 M
b1111 O
07
0S
#575
08
17
1S
#580
b10101001 J
b10101001 1"
b10101001 Q"
b10101001 \"
b10000 0"
0/"
b10000 L
b10000 -"
b0 .
18
b10000 M
0Q
b0 O
07
0S
#585
08
17
1S
#590
b100 J
b100 1"
b100 Q"
b100 \"
b10001 0"
b10001 L
b10001 -"
18
b10001 M
b1 O
b10101001 r"
07
0S
#595
08
17
1S
#600
b10000101 J
b10000101 1"
b10000101 Q"
b10000101 \"
b10010 0"
b10010 L
b10010 -"
18
b10010 M
b10 O
b100 r"
07
0S
#605
08
17
1S
#610
b10 J
b10 1"
b10 Q"
b10 \"
b10011 0"
b10011 L
b10011 -"
18
b10011 M
b11 O
b10000101 r"
07
0S
#615
08
17
1S
#620
b10101001 J
b10101001 1"
b10101001 Q"
b10101001 \"
b10100 0"
b10100 L
b10100 -"
18
b10100 M
b100 O
b10 r"
07
0S
#625
08
17
1S
#630
b10000 J
b10000 1"
b10000 Q"
b10000 \"
b10101 0"
b10101 L
b10101 -"
18
b10101 M
b101 O
b10101001 r"
07
0S
#635
08
17
1S
#640
b10101001 J
b10101001 1"
b10101001 Q"
b10101001 \"
b10110 0"
b10110 L
b10110 -"
18
b10110 M
b110 O
b10000 r"
07
0S
#645
08
17
1S
#650
b11111111 J
b11111111 1"
b11111111 Q"
b11111111 \"
b10111 0"
b10111 L
b10111 -"
18
b10111 M
b111 O
b10101001 r"
07
0S
#655
08
17
1S
#660
b10000101 J
b10000101 1"
b10000101 Q"
b10000101 \"
b11000 0"
b11000 L
b11000 -"
18
b11000 M
b1000 O
b11111111 r"
07
0S
#665
08
17
1S
#670
b1100 J
b1100 1"
b1100 Q"
b1100 \"
b11001 0"
b11001 L
b11001 -"
18
b11001 M
b1001 O
b10000101 r"
07
0S
#675
08
17
1S
#680
b10101001 J
b10101001 1"
b10101001 Q"
b10101001 \"
b11010 0"
b11010 L
b11010 -"
18
b11010 M
b1010 O
b1100 r"
07
0S
#685
08
17
1S
#690
b11 J
b11 1"
b11 Q"
b11 \"
b11011 0"
b11011 L
b11011 -"
18
b11011 M
b1011 O
b10101001 r"
07
0S
#695
08
17
1S
#700
b10000101 J
b10000101 1"
b10000101 Q"
b10000101 \"
b11100 0"
b11100 L
b11100 -"
18
b11100 M
b1100 O
b11 r"
07
0S
#705
08
17
1S
#710
b100 J
b100 1"
b100 Q"
b100 \"
b11101 0"
b11101 L
b11101 -"
18
b11101 M
b1101 O
b10000101 r"
07
0S
#715
08
17
1S
#720
b10000101 J
b10000101 1"
b10000101 Q"
b10000101 \"
b11110 0"
b11110 L
b11110 -"
18
b11110 M
b1110 O
b100 r"
07
0S
#725
08
17
1S
#730
b110 J
b110 1"
b110 Q"
b110 \"
b11111 0"
b11111 L
b11111 -"
18
b11111 M
b1111 O
b10000101 r"
07
0S
#735
08
17
1S
#740
b10101001 I
b10101001 ~
b10101001 :"
b10101001 6
b10101001 ?"
b10101001 U"
bz D
bz ;"
bz <"
bz ="
bz &
bz g
bz 8"
bz C"
bz %
bz c
bz 7"
bz B"
bz "
bz W
bz 6"
bz A"
bz >"
b10101001 J
b10101001 1"
b10101001 Q"
b10101001 \"
b111 0
b111 9"
b111 m"
b111 p"
b101 3
b101 T"
b101 e"
b101 h"
b10000 0"
b1 &"
b10000 E
b10000 m
b10000 %"
1l"
1d"
b101 F
b101 '"
b101 c"
0?
b1 s
b10000 L
b10000 -"
bz G
bz ."
18
1!
1V
1T
0P
b10000 O
b110 r"
07
0S
#745
b10001 R
b10001 }
b10001 9
b10001 +"
08
17
1S
#750
b100 I
b100 ~
b100 :"
b100 6
b100 ?"
b100 U"
b100 J
b100 1"
b100 Q"
b100 \"
b10001 0"
b10001 L
b10001 -"
b10101001 A
b10101001 l
b10101001 *"
b10 $"
1l"
1d"
b101 F
b101 '"
b101 c"
b10001 E
b10001 m
b10001 %"
b1 &"
18
07
0S
#755
b0 O
0!
0V
#760
b10010 R
b10010 }
b10010 9
b10010 +"
08
17
1S
#765
b10000101 I
b10000101 ~
b10000101 :"
b10000101 6
b10000101 ?"
b10000101 U"
b10000101 J
b10000101 1"
b10000101 Q"
b10000101 \"
b10010 0"
b0 s
b10101001 u
b10101 w
b10 q
b10010 L
b10010 -"
b10 &"
1?
b100 B
b100 ("
b100 P"
b100 ["
b10010 E
b10010 m
b10010 %"
1l"
1d"
b101 F
b101 '"
b101 c"
18
b1 O
07
0S
#770
08
17
1S
#775
1-
b100 5
b100 J"
b100 `"
bz I"
b100 "
b100 W
b100 6"
b100 A"
b100 .
b1 s
b100 2
b100 y
b100 _"
b1 /
b1 {
b1 D"
b100 |
18
b10 O
07
0S
#780
b100 >
b100 Z
b100 M"
b100 X"
08
17
1S
#785
0-
0?
b0 &"
b100 I"
bz "
bz W
bz 6"
bz A"
b0 .
b10 s
1@
b0 w
b0 /
b0 {
b0 D"
b0 |
18
b11 O
07
0S
#790
b10011 R
b10011 }
b10011 9
b10011 +"
08
17
1S
#795
b10 I
b10 ~
b10 :"
b10 6
b10 ?"
b10 U"
b10 J
b10 1"
b10 Q"
b10 \"
b10011 0"
b10011 L
b10011 -"
b1 &"
b10000101 A
b10000101 l
b10000101 *"
b1 $"
b10011 E
b10011 m
b10011 %"
1l"
1d"
b101 F
b101 '"
b101 c"
18
b100 O
07
0S
#800
b10100 R
b10100 }
b10100 9
b10100 +"
08
17
1S
#805
b1111100 I
b1111100 ~
b1111100 :"
b1111100 6
b1111100 ?"
b1111100 U"
b1111100 J
b1111100 1"
b1111100 Q"
b1111100 \"
b10 0"
b0 s
0@
b10000101 u
b10001 w
b1 q
b10 L
b10 -"
b10 &"
1?
b10 E
b10 m
b10 %"
1l"
1d"
b101 F
b101 '"
b101 c"
18
b101 O
07
0S
#810
08
17
1S
#815
bz I
bz ~
bz :"
bz 6
bz ?"
bz U"
bz J
bz 1"
bz Q"
bz \"
1/"
b100 G
b100 ."
b1000000 .
bz I"
b100 H
b100 G"
1,
b1 s
b101 /
b101 {
b101 D"
b1 2
b1 y
b1 _"
b1000000 |
18
b110 O
07
0S
#820
08
17
1S
#825
b10101001 I
b10101001 ~
b10101001 :"
b10101001 6
b10101001 ?"
b10101001 U"
b10101001 J
b10101001 1"
b10101001 Q"
b10101001 \"
b10100 0"
0/"
b10100 L
b10100 -"
bz G
bz ."
b0 .
b10100 E
b10100 m
b10100 %"
0?
b0 &"
b100 I"
bz H
bz G"
0,
b10 s
1@
b0 w
b0 /
b0 {
b0 D"
b0 |
18
b111 O
07
0S
#830
b10101 R
b10101 }
b10101 9
b10101 +"
08
17
1S
#835
b10000 I
b10000 ~
b10000 :"
b10000 6
b10000 ?"
b10000 U"
b10000 J
b10000 1"
b10000 Q"
b10000 \"
b10101 0"
b10101 L
b10101 -"
b1 &"
b10101001 A
b10101001 l
b10101001 *"
b10 $"
b10101 E
b10101 m
b10101 %"
1l"
1d"
b101 F
b101 '"
b101 c"
18
b1000 O
07
0S
#840
b10110 R
b10110 }
b10110 9
b10110 +"
08
17
1S
#845
b10101001 I
b10101001 ~
b10101001 :"
b10101001 6
b10101001 ?"
b10101001 U"
b10101001 J
b10101001 1"
b10101001 Q"
b10101001 \"
b10110 0"
b0 s
0@
b10101001 u
b10101 w
b10 q
b10110 L
b10110 -"
b10 &"
1?
b10000 B
b10000 ("
b10000 P"
b10000 ["
b10110 E
b10110 m
b10110 %"
1l"
1d"
b101 F
b101 '"
b101 c"
18
b1001 O
07
0S
#850
08
17
1S
#855
b10000 5
b10000 J"
b10000 `"
1-
bz I"
b10000 "
b10000 W
b10000 6"
b10000 A"
b100 .
b1 s
b100 2
b100 y
b100 _"
b1 /
b1 {
b1 D"
b100 |
18
b1010 O
07
0S
#860
b10000 >
b10000 Z
b10000 M"
b10000 X"
08
17
1S
#865
0-
0?
b0 &"
b10000 I"
bz "
bz W
bz 6"
bz A"
b0 .
b10 s
1@
b0 w
b0 /
b0 {
b0 D"
b0 |
18
b1011 O
07
0S
#870
b10111 R
b10111 }
b10111 9
b10111 +"
08
17
1S
#875
b11111111 I
b11111111 ~
b11111111 :"
b11111111 6
b11111111 ?"
b11111111 U"
b11111111 J
b11111111 1"
b11111111 Q"
b11111111 \"
b10111 0"
b10111 L
b10111 -"
b1 &"
b10111 E
b10111 m
b10111 %"
1l"
1d"
b101 F
b101 '"
b101 c"
18
b1100 O
07
0S
#880
b11000 R
b11000 }
b11000 9
b11000 +"
08
17
1S
#885
b10000101 I
b10000101 ~
b10000101 :"
b10000101 6
b10000101 ?"
b10000101 U"
b11111111 I"
b11111111 5
b11111111 J"
b11111111 `"
b10000101 J
b10000101 1"
b10000101 Q"
b10000101 \"
b11000 0"
b0 s
0@
b10101 w
b11000 L
b11000 -"
b10 &"
1?
b11111111 B
b11111111 ("
b11111111 P"
b11111111 ["
b11000 E
b11000 m
b11000 %"
1l"
1d"
b101 F
b101 '"
b101 c"
18
b1101 O
07
0S
#890
08
17
1S
#895
1-
bz I"
b11111111 "
b11111111 W
b11111111 6"
b11111111 A"
b100 .
b1 s
b1 /
b1 {
b1 D"
b100 |
18
b1110 O
07
0S
#900
b11111111 >
b11111111 Z
b11111111 M"
b11111111 X"
08
17
1S
#905
0-
0?
b0 &"
b11111111 I"
bz "
bz W
bz 6"
bz A"
b0 .
b10 s
1@
b0 w
b0 /
b0 {
b0 D"
b0 |
18
b1111 O
07
0S
#910
b11001 R
b11001 }
b11001 9
b11001 +"
08
17
1S
#915
b1100 I
b1100 ~
b1100 :"
b1100 6
b1100 ?"
b1100 U"
b1100 J
b1100 1"
b1100 Q"
b1100 \"
b11001 0"
b11001 L
b11001 -"
b1 &"
b10000101 A
b10000101 l
b10000101 *"
b1 $"
b11001 E
b11001 m
b11001 %"
1l"
1d"
b101 F
b101 '"
b101 c"
18
b10000 O
07
0S
#920
b11010 R
b11010 }
b11010 9
b11010 +"
08
17
1S
#925
b10111110 I
b10111110 ~
b10111110 :"
b10111110 6
b10111110 ?"
b10111110 U"
b10111110 J
b10111110 1"
b10111110 Q"
b10111110 \"
b1100 0"
b0 s
0@
b10000101 u
b10001 w
b1 q
b1100 L
b1100 -"
b10 &"
1?
b1100 E
b1100 m
b1100 %"
1l"
1d"
b101 F
b101 '"
b101 c"
18
b10001 O
07
0S
#930
08
17
1S
#935
bz I
bz ~
bz :"
bz 6
bz ?"
bz U"
bz J
bz 1"
bz Q"
bz \"
1/"
b11111111 G
b11111111 ."
b1000000 .
bz I"
b11111111 H
b11111111 G"
1,
b1 s
b101 /
b101 {
b101 D"
b1 2
b1 y
b1 _"
b1000000 |
18
b10010 O
07
0S
#940
08
17
1S
