Out/iflow.vcd
$date
	Wed Jul 26 11:31:37 2023
$end
$version
	Icarus Verilog
$end
$timescale
	1ns
$end
$scope module tb_iflow $end
$var wire 1 ! ask_next $end
$var wire 8 " iADD [7:0] $end
$var wire 8 # iSP [7:0] $end
$var wire 8 $ iSTATUS [7:0] $end
$var wire 8 % iX [7:0] $end
$var wire 8 & iY [7:0] $end
$var wire 1 ' we_y $end
$var wire 1 ( we_x $end
$var wire 1 ) we_stat $end
$var wire 1 * we_sp $end
$var wire 1 + we_pc $end
$var wire 1 , we_dout $end
$var wire 1 - we_add $end
$var wire 7 . we [6:0] $end
$var wire 3 / target_selector_1 [2:0] $end
$var wire 3 0 target_selector_01 [2:0] $end
$var wire 3 1 target_selector_0 [2:0] $end
$var wire 3 2 source_selector_1 [2:0] $end
$var wire 3 3 source_selector_01 [2:0] $end
$var wire 3 4 source_selector_0 [2:0] $end
$var wire 8 5 reg_connect_1 [7:0] $end
$var wire 8 6 reg_connect_0 [7:0] $end
$var wire 1 7 phi2_int $end
$var wire 1 8 phi1_int $end
$var wire 16 9 pc_next [15:0] $end
$var wire 8 : oY [7:0] $end
$var wire 8 ; oX [7:0] $end
$var wire 8 < oSTATUS [7:0] $end
$var wire 8 = oSP [7:0] $end
$var wire 8 > oADD [7:0] $end
$var wire 1 ? instruction_ready $end
$var wire 1 @ instruction_done $end
$var wire 8 A instruction [7:0] $end
$var wire 8 B imm [7:0] $end
$var wire 8 C ialu_b [7:0] $end
$var wire 8 D ialu_a [7:0] $end
$var wire 1 E get_next $end
$var wire 16 F fetcher_addr [15:0] $end
$var wire 3 G fetch_selector [2:0] $end
$var wire 8 H d_to_mem1 [7:0] $end
$var wire 8 I d_to_mem [7:0] $end
$var wire 8 J d_to_fetch [7:0] $end
$var wire 8 K d_from_mem [7:0] $end
$var wire 8 L d_from_fetch [7:0] $end
$var wire 16 M addr [15:0] $end
$var reg 16 N addr_in [15:0] $end
$var reg 8 O d_in [7:0] $end
$var reg 32 P i [31:0] $end
$var reg 1 Q manual_mem $end
$var reg 1 R mem_write $end
$var reg 16 S pc [15:0] $end
$var reg 1 T phi0 $end
$var reg 1 U reset_n $end
$var reg 32 V seed [31:0] $end
$var reg 1 W trigger_program $end
$scope module ADD $end
$var wire 8 X din [7:0] $end
$var wire 1 U reset_n $end
$var wire 1 Y valid $end
$var wire 1 - we $end
$var wire 1 7 clk $end
$var parameter 32 Z REG_WIDTH $end
$var reg 8 [ dout [7:0] $end
$upscope $end
$scope module SP $end
$var wire 8 \ din [7:0] $end
$var wire 1 U reset_n $end
$var wire 1 ] valid $end
$var wire 1 * we $end
$var wire 1 7 clk $end
$var parameter 32 ^ REG_WIDTH $end
$var reg 8 _ dout [7:0] $end
$upscope $end
$scope module STAT $end
$var wire 8 ` din [7:0] $end
$var wire 1 U reset_n $end
$var wire 1 a valid $end
$var wire 1 ) we $end
$var wire 1 7 clk $end
$var parameter 32 b REG_WIDTH $end
$var reg 8 c dout [7:0] $end
$upscope $end
$scope module X $end
$var wire 8 d din [7:0] $end
$var wire 1 U reset_n $end
$var wire 1 e valid $end
$var wire 1 ( we $end
$var wire 1 7 clk $end
$var parameter 32 f REG_WIDTH $end
$var reg 8 g dout [7:0] $end
$upscope $end
$scope module Y $end
$var wire 8 h din [7:0] $end
$var wire 1 U reset_n $end
$var wire 1 i valid $end
$var wire 1 ' we $end
$var wire 1 7 clk $end
$var parameter 32 j REG_WIDTH $end
$var reg 8 k dout [7:0] $end
$upscope $end
$scope module clk_mod $end
$var wire 1 T phi0 $end
$var wire 1 8 phi1 $end
$var wire 1 7 phi2 $end
$var wire 1 l reset_n $end
$upscope $end
$scope module decode $end
$var wire 1 8 clk $end
$var wire 1 U reset_n $end
$var wire 1 ? instruction_ready $end
$var wire 8 m instruction_in [7:0] $end
$var wire 16 n address_in [15:0] $end
$var parameter 32 o ADDR_WIDTH $end
$var parameter 32 p OPP_WIDTH $end
$var parameter 32 q REG_WIDTH $end
$var reg 3 r add_mode [2:0] $end
$var reg 16 s addr [15:0] $end
$var reg 8 t decode_counter [7:0] $end
$var reg 1 u get_next $end
$var reg 8 v instruction [7:0] $end
$var reg 1 @ instruction_done $end
$var reg 8 w opp [7:0] $end
$var reg 5 x opp_code [4:0] $end
$var reg 3 y source_selector_0 [2:0] $end
$var reg 3 z source_selector_1 [2:0] $end
$var reg 3 { target_selector_0 [2:0] $end
$var reg 3 | target_selector_1 [2:0] $end
$var reg 7 } we [6:0] $end
$upscope $end
$scope module fetch $end
$var wire 1 8 clk $end
$var wire 1 E get_next $end
$var wire 1 @ instruction_done $end
$var wire 16 ~ pc [15:0] $end
$var wire 1 7 phi2 $end
$var wire 1 U reset_n $end
$var wire 8 !" data_in [7:0] $end
$var parameter 32 "" ADDR_WIDTH $end
$var parameter 32 #" OPP_WIDTH $end
$var parameter 32 $" REG_WIDTH $end
$var reg 3 %" add_mode [2:0] $end
$var reg 16 &" addr [15:0] $end
$var reg 3 '" fetch_counter [2:0] $end
$var reg 3 (" fetch_source_selector [2:0] $end
$var reg 8 )" imm [7:0] $end
$var reg 8 *" instruction [7:0] $end
$var reg 8 +" instruction_out [7:0] $end
$var reg 1 ? instruction_ready $end
$var reg 16 ," pc_next [15:0] $end
$var reg 8 -" reg_out [7:0] $end
$upscope $end
$scope module mem_test $end
$var wire 16 ." addr [15:0] $end
$var wire 1 7 clk $end
$var wire 8 /" din [7:0] $end
$var wire 1 U reset_n $end
$var wire 1 0" we $end
$var wire 16 1" local_addr [15:0] $end
$var wire 8 2" dout [7:0] $end
$var parameter 32 3" ADDR_WIDTH $end
$var parameter 32 4" BASE $end
$var parameter 32 5" DEPTH $end
$var parameter 32 6" WIDTH $end
$upscope $end
$scope module reg_fan0 $end
$var wire 1 7 clk $end
$var wire 8 7" out1 [7:0] $end
$var wire 8 8" out2 [7:0] $end
$var wire 8 9" out3 [7:0] $end
$var wire 3 :" selector [2:0] $end
$var wire 8 ;" out7 [7:0] $end
$var wire 8 <" out6 [7:0] $end
$var wire 8 =" out5 [7:0] $end
$var wire 8 >" out4 [7:0] $end
$var wire 8 ?" out0 [7:0] $end
$var wire 8 @" in [7:0] $end
$var parameter 32 A" SIGNAL_WIDTH $end
$upscope $end
$scope module reg_fan1 $end
$var wire 1 7 clk $end
$var wire 8 B" out1 [7:0] $end
$var wire 8 C" out2 [7:0] $end
$var wire 8 D" out3 [7:0] $end
$var wire 3 E" selector [2:0] $end
$var wire 8 F" out7 [7:0] $end
$var wire 8 G" out6 [7:0] $end
$var wire 8 H" out5 [7:0] $end
$var wire 8 I" out4 [7:0] $end
$var wire 8 J" out0 [7:0] $end
$var wire 8 K" in [7:0] $end
$var parameter 32 L" SIGNAL_WIDTH $end
$upscope $end
$scope module reg_mux0 $end
$var wire 1 7 clk $end
$var wire 8 M" in0 [7:0] $end
$var wire 8 N" in1 [7:0] $end
$var wire 8 O" in2 [7:0] $end
$var wire 8 P" in3 [7:0] $end
$var wire 8 Q" in4 [7:0] $end
$var wire 8 R" in5 [7:0] $end
$var wire 8 S" in6 [7:0] $end
$var wire 8 T" in7 [7:0] $end
$var wire 3 U" selector [2:0] $end
$var wire 8 V" out [7:0] $end
$var parameter 32 W" SIGNAL_WIDTH $end
$upscope $end
$scope module reg_mux1 $end
$var wire 1 7 clk $end
$var wire 8 X" in0 [7:0] $end
$var wire 8 Y" in1 [7:0] $end
$var wire 8 Z" in2 [7:0] $end
$var wire 8 [" in3 [7:0] $end
$var wire 8 \" in4 [7:0] $end
$var wire 8 ]" in5 [7:0] $end
$var wire 8 ^" in6 [7:0] $end
$var wire 8 _" in7 [7:0] $end
$var wire 3 `" selector [2:0] $end
$var wire 8 a" out [7:0] $end
$var parameter 32 b" SIGNAL_WIDTH $end
$upscope $end
$scope module selector_switch0 $end
$var wire 3 c" in0 [2:0] $end
$var wire 3 d" in1 [2:0] $end
$var wire 1 e" in_select $end
$var wire 3 f" out0 [2:0] $end
$var wire 3 g" out1 [2:0] $end
$var wire 1 h" out_select $end
$var wire 3 i" connect [2:0] $end
$var parameter 32 j" SIGNAL_WIDTH $end
$upscope $end
$scope module selector_switch1 $end
$var wire 3 k" in0 [2:0] $end
$var wire 3 l" in1 [2:0] $end
$var wire 1 m" in_select $end
$var wire 3 n" out0 [2:0] $end
$var wire 3 o" out1 [2:0] $end
$var wire 1 p" out_select $end
$var wire 3 q" connect [2:0] $end
$var parameter 32 r" SIGNAL_WIDTH $end
$upscope $end
$scope begin main_loop $end
$var reg 8 s" mem_unit [7:0] $end
$upscope $end
$upscope $end
$enddefinitions $end
$comment Show the parameter values. $end
$dumpall
b11 r"
b11 j"
b1000 b"
b1000 W"
b1000 L"
b1000 A"
b1000 6"
b100000 5"
b0 4"
b10000 3"
b1000 $"
b1000 #"
b10000 ""
b1000 q
b1000 p
b10000 o
b1000 j
b1000 f
b1000 b
b1000 ^
b1000 Z
$end
#0
$dumpvars
bx s"
bx q"
0p"
bz o"
bx n"
xm"
b111 l"
b0 k"
bx i"
0h"
bz g"
bx f"
xe"
bx d"
bx c"
bx a"
bx `"
bx _"
b0 ^"
bx ]"
bx \"
bx ["
bx Z"
bx Y"
bz X"
bx V"
bx U"
bx T"
b0 S"
bx R"
bx Q"
bx P"
bx O"
bx N"
bz M"
bx K"
bx J"
bz I"
bz H"
bz G"
bz F"
b0 E"
bx D"
bx C"
bx B"
bx @"
bx ?"
bx >"
bx ="
bx <"
bx ;"
bx :"
bx 9"
bx 8"
bx 7"
bx 2"
bx 1"
x0"
bx /"
bx ."
bx -"
bx ,"
bx +"
bx *"
bx )"
bx ("
bx '"
bx &"
bx %"
bx !"
bx ~
b0 }
b0 |
b0 {
bx z
bx y
bx x
bx w
bx v
xu
bx t
bx s
bx r
bx n
bx m
zl
bx k
zi
bx h
bx g
ze
bx d
bx c
za
bz `
bx _
z]
bz \
bx [
zY
bx X
xW
b1000001100001111 V
1U
0T
bx S
xR
1Q
bx P
bx O
bx N
bx M
bx L
bx K
bx J
bx I
bx H
bx G
bx F
xE
bx D
bz C
bx B
bx A
x@
x?
bx >
bx =
bx <
bx ;
bx :
bx 9
18
07
bx 6
bx 5
bx 4
bx 3
bx 2
b0 1
bx 0
b0 /
bx000000 .
0-
0,
0+
0*
0)
0(
0'
bx &
bx %
bz $
bz #
bx "
z!
$end
#5
08
17
1T
#10
b10000 S
b10000 ~
0@
b0 t
b0 w
b10000 9
b10000 ,"
1?
b0 '"
18
0U
07
0T
#15
b0 <
b0 c
b0 :
b0 k
b0 P"
b0 ["
b0 ;
b0 g
b0 O"
b0 Z"
b0 >
b0 [
b0 N"
b0 Y"
b0 =
b0 _
08
17
1T
#20
bz K
bz 2"
bz R"
bz ]"
b0 1"
10"
b10100 H
b10100 /"
b0 M
b0 ."
b1000000 .
18
b10100 O
b0 N
1R
b10100 s"
b10001010000111111011011000000100 V
b0 P
07
0T
#25
08
17
1T
#30
b1 1"
b11011011 H
b11011011 /"
b1 M
b1 ."
18
b11011011 O
b1 N
b11011011 s"
b11101101101001101111010100110101 V
b1 P
07
0T
#35
08
17
1T
#40
b10 1"
b1111100 H
b1111100 /"
b10 M
b10 ."
18
b1111100 O
b10 N
b1111100 s"
b10111110010110110000110001110010 V
b10 P
07
0T
#45
08
17
1T
#50
b11 1"
b110101 H
b110101 /"
b11 M
b11 ."
18
b110101 O
b11 N
b110101 s"
b11010111111001100000101001011 V
b11 P
07
0T
#55
08
17
1T
#60
b100 1"
b1100111 H
b1100111 /"
b100 M
b100 ."
18
b1100111 O
b100 N
b1100111 s"
b110011100000101001100000010000 V
b100 P
07
0T
#65
08
17
1T
#70
b101 1"
b11110010 H
b11110010 /"
b101 M
b101 ."
18
b11110010 O
b101 N
b11110010 s"
b1111001010111001001010011010001 V
b101 P
07
0T
#75
08
17
1T
#80
b110 1"
b11101111 H
b11101111 /"
b110 M
b110 ."
18
b11101111 O
b110 N
b11101111 s"
b1110111100000101100100001011110 V
b110 P
07
0T
#85
08
17
1T
#90
b111 1"
b1000000 H
b1000000 /"
b111 M
b111 ."
18
b1000000 O
b111 N
b1000000 s"
b100000010001010011100101000111 V
b111 P
07
0T
#95
08
17
1T
#100
b1000 1"
b101001 H
b101001 /"
b1000 M
b1000 ."
18
b101001 O
b1000 N
b101001 s"
b10010100100111100111100011011100 V
b1000 P
07
0T
#105
08
17
1T
#110
b1001 1"
b1111 H
b1111 /"
b1001 M
b1001 ."
18
b1111 O
b1001 N
b1111 s"
b10000111111001011111010000101101 V
b1001 P
07
0T
#115
08
17
1T
#120
b1010 1"
b11101001 H
b11101001 /"
b1010 M
b1010 ."
18
b11101001 O
b1010 N
b11101001 s"
b1110100101101111101000100001010 V
b1010 P
07
0T
#125
08
17
1T
#130
b1011 1"
b111011 H
b111011 /"
b1011 M
b1011 ."
18
b111011 O
b1011 N
b111011 s"
b10011101110110011110011100000011 V
b1011 P
07
0T
#135
08
17
1T
#140
b1100 1"
b10111110 H
b10111110 /"
b1100 M
b1100 ."
18
b10111110 O
b1100 N
b10111110 s"
b1011111001111000010010001101000 V
b1100 P
07
0T
#145
08
17
1T
#150
b1101 1"
b11101010 H
b11101010 /"
b1101 M
b1101 ."
18
b11101010 O
b1101 N
b11101010 s"
b1110101011010100110111101001001 V
b1101 P
07
0T
#155
08
17
1T
#160
b1110 1"
b10111010 H
b10111010 /"
b1110 M
b1110 ."
18
b10111010 O
b1110 N
b10111010 s"
b11011101001010101101001001110110 V
b1110 P
07
0T
#165
08
17
1T
#170
b1111 1"
b110100 H
b110100 /"
b1111 M
b1111 ."
18
b110100 O
b1111 N
b110100 s"
b11010011100001000011001111111 V
b1111 P
07
0T
#175
08
17
1T
#180
b10100 K
b10100 2"
b10100 R"
b10100 ]"
b0 1"
00"
b0 M
b0 ."
b0 .
18
b0 N
0R
b0 P
07
0T
#185
08
17
1T
#190
18
07
0T
#195
b11011011 K
b11011011 2"
b11011011 R"
b11011011 ]"
b1 1"
b1 M
b1 ."
b1 N
b1 P
b10100 s"
#200
08
17
1T
#205
18
07
0T
#210
b1111100 K
b1111100 2"
b1111100 R"
b1111100 ]"
b10 1"
b10 M
b10 ."
b10 N
b10 P
b11011011 s"
#215
08
17
1T
#220
18
07
0T
#225
b110101 K
b110101 2"
b110101 R"
b110101 ]"
b11 1"
b11 M
b11 ."
b11 N
b11 P
b1111100 s"
#230
08
17
1T
#235
18
07
0T
#240
b1100111 K
b1100111 2"
b1100111 R"
b1100111 ]"
b100 1"
b100 M
b100 ."
b100 N
b100 P
b110101 s"
#245
08
17
1T
#250
18
07
0T
#255
b11110010 K
b11110010 2"
b11110010 R"
b11110010 ]"
b101 1"
b101 M
b101 ."
b101 N
b101 P
b1100111 s"
#260
08
17
1T
#265
18
07
0T
#270
b11101111 K
b11101111 2"
b11101111 R"
b11101111 ]"
b110 1"
b110 M
b110 ."
b110 N
b110 P
b11110010 s"
#275
08
17
1T
#280
18
07
0T
#285
b1000000 K
b1000000 2"
b1000000 R"
b1000000 ]"
b111 1"
b111 M
b111 ."
b111 N
b111 P
b11101111 s"
#290
08
17
1T
#295
18
07
0T
#300
b101001 K
b101001 2"
b101001 R"
b101001 ]"
b1000 1"
b1000 M
b1000 ."
b1000 N
b1000 P
b1000000 s"
#305
08
17
1T
#310
18
07
0T
#315
b1111 K
b1111 2"
b1111 R"
b1111 ]"
b1001 1"
b1001 M
b1001 ."
b1001 N
b1001 P
b101001 s"
#320
08
17
1T
#325
18
07
0T
#330
b11101001 K
b11101001 2"
b11101001 R"
b11101001 ]"
b1010 1"
b1010 M
b1010 ."
b1010 N
b1010 P
b1111 s"
#335
08
17
1T
#340
18
07
0T
#345
b111011 K
b111011 2"
b111011 R"
b111011 ]"
b1011 1"
b1011 M
b1011 ."
b1011 N
b1011 P
b11101001 s"
#350
08
17
1T
#355
18
07
0T
#360
b10111110 K
b10111110 2"
b10111110 R"
b10111110 ]"
b1100 1"
b1100 M
b1100 ."
b1100 N
b1100 P
b111011 s"
#365
08
17
1T
#370
18
07
0T
#375
b11101010 K
b11101010 2"
b11101010 R"
b11101010 ]"
b1101 1"
b1101 M
b1101 ."
b1101 N
b1101 P
b10111110 s"
#380
08
17
1T
#385
18
07
0T
#390
b10111010 K
b10111010 2"
b10111010 R"
b10111010 ]"
b1110 1"
b1110 M
b1110 ."
b1110 N
b1110 P
b11101010 s"
#395
08
17
1T
#400
18
07
0T
#405
b110100 K
b110100 2"
b110100 R"
b110100 ]"
b1111 1"
b1111 M
b1111 ."
b1111 N
b1111 P
b10111010 s"
#410
08
17
1T
#415
18
07
0T
#420
bz K
bz 2"
bz R"
bz ]"
b10000 1"
10"
b10101001 H
b10101001 /"
b10000 M
b10000 ."
b1000000 .
b10101001 O
b10000 N
1R
b0 P
b110100 s"
#425
08
17
1T
#430
b10001 1"
b100 H
b100 /"
b10001 M
b10001 ."
18
b100 O
b10001 N
b1 P
07
0T
#435
08
17
1T
#440
b10010 1"
b10000101 H
b10000101 /"
b10010 M
b10010 ."
18
b10000101 O
b10010 N
b10 P
07
0T
#445
08
17
1T
#450
b10011 1"
b10 H
b10 /"
b10011 M
b10011 ."
18
b10 O
b10011 N
b11 P
07
0T
#455
08
17
1T
#460
b10100 1"
b0 H
b0 /"
b10100 M
b10100 ."
18
b0 O
b10100 N
b100 P
07
0T
#465
08
17
1T
#470
b10101 1"
b10101 M
b10101 ."
18
b10101 N
b101 P
07
0T
#475
08
17
1T
#480
b10110 1"
b10110 M
b10110 ."
18
b10110 N
b110 P
07
0T
#485
08
17
1T
#490
b10111 1"
b10111 M
b10111 ."
18
b10111 N
b111 P
07
0T
#495
08
17
1T
#500
b11000 1"
b11000 M
b11000 ."
18
b11000 N
b1000 P
07
0T
#505
08
17
1T
#510
b11001 1"
b11001 M
b11001 ."
18
b11001 N
b1001 P
07
0T
#515
08
17
1T
#520
b11010 1"
b11010 M
b11010 ."
18
b11010 N
b1010 P
07
0T
#525
08
17
1T
#530
b11011 1"
b11011 M
b11011 ."
18
b11011 N
b1011 P
07
0T
#535
08
17
1T
#540
b11100 1"
b11100 M
b11100 ."
18
b11100 N
b1100 P
07
0T
#545
08
17
1T
#550
b11101 1"
b11101 M
b11101 ."
18
b11101 N
b1101 P
07
0T
#555
08
17
1T
#560
b11110 1"
b11110 M
b11110 ."
18
b11110 N
b1110 P
07
0T
#565
08
17
1T
#570
b11111 1"
b11111 M
b11111 ."
18
b11111 N
b1111 P
07
0T
#575
08
17
1T
#580
b10101001 K
b10101001 2"
b10101001 R"
b10101001 ]"
b10000 1"
00"
b10000 M
b10000 ."
b0 .
18
b10000 N
0R
b0 P
07
0T
#585
08
17
1T
#590
b100 K
b100 2"
b100 R"
b100 ]"
b10001 1"
b10001 M
b10001 ."
18
b10001 N
b1 P
b10101001 s"
07
0T
#595
08
17
1T
#600
b10000101 K
b10000101 2"
b10000101 R"
b10000101 ]"
b10010 1"
b10010 M
b10010 ."
18
b10010 N
b10 P
b100 s"
07
0T
#605
08
17
1T
#610
b10 K
b10 2"
b10 R"
b10 ]"
b10011 1"
b10011 M
b10011 ."
18
b10011 N
b11 P
b10000101 s"
07
0T
#615
08
17
1T
#620
b0 K
b0 2"
b0 R"
b0 ]"
b10100 1"
b10100 M
b10100 ."
18
b10100 N
b100 P
b10 s"
07
0T
#625
08
17
1T
#630
b10101 1"
b10101 M
b10101 ."
18
b10101 N
b101 P
b0 s"
07
0T
#635
08
17
1T
#640
b10110 1"
b10110 M
b10110 ."
18
b10110 N
b110 P
07
0T
#645
08
17
1T
#650
b10111 1"
b10111 M
b10111 ."
18
b10111 N
b111 P
07
0T
#655
08
17
1T
#660
b11000 1"
b11000 M
b11000 ."
18
b11000 N
b1000 P
07
0T
#665
08
17
1T
#670
b11001 1"
b11001 M
b11001 ."
18
b11001 N
b1001 P
07
0T
#675
08
17
1T
#680
b11010 1"
b11010 M
b11010 ."
18
b11010 N
b1010 P
07
0T
#685
08
17
1T
#690
b11011 1"
b11011 M
b11011 ."
18
b11011 N
b1011 P
07
0T
#695
08
17
1T
#700
b11100 1"
b11100 M
b11100 ."
18
b11100 N
b1100 P
07
0T
#705
08
17
1T
#710
b11101 1"
b11101 M
b11101 ."
18
b11101 N
b1101 P
07
0T
#715
08
17
1T
#720
b11110 1"
b11110 M
b11110 ."
18
b11110 N
b1110 P
07
0T
#725
08
17
1T
#730
b11111 1"
b11111 M
b11111 ."
18
b11111 N
b1111 P
07
0T
#735
08
17
1T
#740
b10101001 J
b10101001 !"
b10101001 ;"
b10101001 6
b10101001 @"
b10101001 V"
bz D
bz <"
bz I
bz ="
bz >"
bz &
bz h
bz 9"
bz D"
bz %
bz d
bz 8"
bz C"
bz "
bz X
bz 7"
bz B"
bz ?"
b10101001 K
b10101001 2"
b10101001 R"
b10101001 ]"
b111 0
b111 :"
b111 n"
b111 q"
b101 3
b101 U"
b101 f"
b101 i"
b10000 1"
b1 '"
b10000 F
b10000 n
b10000 &"
1m"
1e"
b101 G
b101 ("
b101 d"
0?
b1 t
1E
b10000 M
b10000 ."
bz H
bz /"
18
1W
1U
0Q
b10000 P
07
0T
#745
b10001 S
b10001 ~
b10001 9
b10001 ,"
08
17
1T
#750
b100 J
b100 !"
b100 ;"
b100 6
b100 @"
b100 V"
b100 K
b100 2"
b100 R"
b100 ]"
b10001 1"
b10001 M
b10001 ."
b10101001 A
b10101001 m
b10101001 +"
b10 %"
1m"
1e"
b101 G
b101 ("
b101 d"
b10001 F
b10001 n
b10001 &"
b1 '"
18
07
0T
#755
zE
b0 P
0W
#760
b10010 S
b10010 ~
b10010 9
b10010 ,"
08
17
1T
#765
b10000101 J
b10000101 !"
b10000101 ;"
b10000101 6
b10000101 @"
b10000101 V"
b10000101 K
b10000101 2"
b10000101 R"
b10000101 ]"
b10010 1"
b0 t
b10101001 v
b10101 x
b10 r
b10010 M
b10010 ."
b10 '"
1?
b100 B
b100 )"
b100 Q"
b100 \"
b10010 F
b10010 n
b10010 &"
1m"
1e"
b101 G
b101 ("
b101 d"
18
b1 P
07
0T
#770
08
17
1T
#775
1-
b100 5
b100 K"
b100 a"
bz J"
b100 "
b100 X
b100 7"
b100 B"
b100 .
b1 t
b100 2
b100 z
b100 `"
b1 /
b1 |
b1 E"
b100 }
18
b10 P
07
0T
#780
b100 >
b100 [
b100 N"
b100 Y"
08
17
1T
#785
0-
0?
b0 '"
b100 J"
bz "
bz X
bz 7"
bz B"
b0 .
b10 t
1@
b0 x
b0 /
b0 |
b0 E"
b0 }
18
b11 P
07
0T
#790
b10011 S
b10011 ~
b10011 9
b10011 ,"
08
17
1T
#795
b10 J
b10 !"
b10 ;"
b10 6
b10 @"
b10 V"
b10 K
b10 2"
b10 R"
b10 ]"
b10011 1"
b10011 M
b10011 ."
b1 '"
b10000101 *"
b10000101 A
b10000101 m
b10000101 +"
b1 %"
b10011 F
b10011 n
b10011 &"
1m"
1e"
b101 G
b101 ("
b101 d"
18
b100 P
07
0T
#800
b10100 S
b10100 ~
b10100 9
b10100 ,"
08
17
1T
#805
b1111100 J
b1111100 !"
b1111100 ;"
b1111100 6
b1111100 @"
b1111100 V"
b1111100 K
b1111100 2"
b1111100 R"
b1111100 ]"
b10 1"
b0 t
0@
b10000101 v
b10001 x
b1 r
b10 M
b10 ."
b10 '"
1?
b10 F
b10 n
b10 &"
1m"
1e"
b101 G
b101 ("
b101 d"
18
b101 P
07
0T
#810
08
17
1T
#815
bz J
bz !"
bz ;"
bz 6
bz @"
bz V"
bz K
bz 2"
bz R"
bz ]"
10"
b1000000 .
bz J"
b100 H"
1,
b1 t
b101 /
b101 |
b101 E"
b1 2
b1 z
b1 `"
b1000000 }
18
b110 P
07
0T
#820
08
17
1T
#825
b10 t
b101 /
b101 |
b101 E"
b1000000 }
18
b111 P
07
0T
#830
08
17
1T
#835
b11 t
b101 /
b101 |
b101 E"
b1000000 }
18
b1000 P
07
0T
#840
08
17
1T
#845
b100 t
b101 /
b101 |
b101 E"
b1000000 }
18
b1001 P
07
0T
#850
08
17
1T
#855
b101 t
b101 /
b101 |
b101 E"
b1000000 }
18
b1010 P
07
0T
#860
08
17
1T
#865
b110 t
b101 /
b101 |
b101 E"
b1000000 }
18
b1011 P
07
0T
#870
08
17
1T
#875
b111 t
b101 /
b101 |
b101 E"
b1000000 }
18
b1100 P
07
0T
#880
08
17
1T
#885
b1000 t
b101 /
b101 |
b101 E"
b1000000 }
18
b1101 P
07
0T
#890
08
17
1T
#895
b1001 t
b101 /
b101 |
b101 E"
b1000000 }
18
b1110 P
07
0T
#900
08
17
1T
#905
b1010 t
b101 /
b101 |
b101 E"
b1000000 }
18
b1111 P
07
0T
#910
08
17
1T
#915
b1011 t
b101 /
b101 |
b101 E"
b1000000 }
18
b10000 P
07
0T
#920
08
17
1T
#925
b1100 t
b101 /
b101 |
b101 E"
b1000000 }
18
b10001 P
07
0T
#930
08
17
1T
#935
b1101 t
b101 /
b101 |
b101 E"
b1000000 }
18
b10010 P
07
0T
#940
08
17
1T
#945
b1110 t
b101 /
b101 |
b101 E"
b1000000 }
18
b10011 P
07
0T
#950
08
17
1T
#955
b1111 t
b101 /
b101 |
b101 E"
b1000000 }
18
b10100 P
07
0T
#960
08
17
1T
#965
b10000 t
b101 /
b101 |
b101 E"
b1000000 }
18
b10101 P
07
0T
#970
08
17
1T
#975
b10001 t
b101 /
b101 |
b101 E"
b1000000 }
18
b10110 P
07
0T
#980
08
17
1T
#985
b10010 t
b101 /
b101 |
b101 E"
b1000000 }
18
b10111 P
07
0T
#990
08
17
1T
#995
b10011 t
b101 /
b101 |
b101 E"
b1000000 }
18
b11000 P
07
0T
#1000
08
17
1T
#1005
b10100 t
b101 /
b101 |
b101 E"
b1000000 }
18
b11001 P
07
0T
#1010
08
17
1T
#1015
b10101 t
b101 /
b101 |
b101 E"
b1000000 }
18
b11010 P
07
0T
#1020
08
17
1T
#1025
b10110 t
b101 /
b101 |
b101 E"
b1000000 }
18
b11011 P
07
0T
#1030
08
17
1T
#1035
b10111 t
b101 /
b101 |
b101 E"
b1000000 }
18
b11100 P
07
0T
#1040
08
17
1T
#1045
b11000 t
b101 /
b101 |
b101 E"
b1000000 }
18
b11101 P
07
0T
#1050
08
17
1T
#1055
b10100 J
b10100 !"
b10100 ;"
b10100 6
b10100 @"
b10100 V"
b10100 K
b10100 2"
b10100 R"
b10100 ]"
00"
b0 1"
b11001 t
b101 /
b101 |
b101 E"
b1000000 }
b0 .
b0 M
b0 ."
b0 H
b0 /"
18
b0 N
1Q
b0 P
07
0T
#1060
08
17
1T
#1065
b11011011 J
b11011011 !"
b11011011 ;"
b11011011 6
b11011011 @"
b11011011 V"
b11011011 K
b11011011 2"
b11011011 R"
b11011011 ]"
b1 1"
b11010 t
b101 /
b101 |
b101 E"
b1000000 }
b1 M
b1 ."
18
b1 N
b1 P
b10100 s"
07
0T
#1070
08
17
1T
#1075
bz J
bz !"
bz ;"
bz 6
bz @"
bz V"
bz K
bz 2"
bz R"
bz ]"
b10 1"
b11011 t
b101 /
b101 |
b101 E"
b1000000 }
b10 M
b10 ."
18
b10 N
b10 P
b11011011 s"
07
0T
#1080
08
17
1T
#1085
b110101 J
b110101 !"
b110101 ;"
b110101 6
b110101 @"
b110101 V"
b110101 K
b110101 2"
b110101 R"
b110101 ]"
b11 1"
b11100 t
b101 /
b101 |
b101 E"
b1000000 }
b11 M
b11 ."
18
b11 N
b11 P
bz s"
07
0T
#1090
08
17
1T
#1095
b1100111 J
b1100111 !"
b1100111 ;"
b1100111 6
b1100111 @"
b1100111 V"
b1100111 K
b1100111 2"
b1100111 R"
b1100111 ]"
b100 1"
b11101 t
b101 /
b101 |
b101 E"
b1000000 }
b100 M
b100 ."
18
b100 N
b100 P
b110101 s"
07
0T
#1100
08
17
1T
#1105
b11110010 J
b11110010 !"
b11110010 ;"
b11110010 6
b11110010 @"
b11110010 V"
b11110010 K
b11110010 2"
b11110010 R"
b11110010 ]"
b101 1"
b11110 t
b101 /
b101 |
b101 E"
b1000000 }
b101 M
b101 ."
18
b101 N
b101 P
b1100111 s"
07
0T
#1110
08
17
1T
#1115
b11101111 J
b11101111 !"
b11101111 ;"
b11101111 6
b11101111 @"
b11101111 V"
b11101111 K
b11101111 2"
b11101111 R"
b11101111 ]"
b110 1"
b11111 t
b101 /
b101 |
b101 E"
b1000000 }
b110 M
b110 ."
18
b110 N
b110 P
b11110010 s"
07
0T
#1120
08
17
1T
#1125
b1000000 J
b1000000 !"
b1000000 ;"
b1000000 6
b1000000 @"
b1000000 V"
b1000000 K
b1000000 2"
b1000000 R"
b1000000 ]"
b111 1"
b100000 t
b101 /
b101 |
b101 E"
b1000000 }
b111 M
b111 ."
18
b111 N
b111 P
b11101111 s"
07
0T
#1130
08
17
1T
#1135
b101001 J
b101001 !"
b101001 ;"
b101001 6
b101001 @"
b101001 V"
b101001 K
b101001 2"
b101001 R"
b101001 ]"
b1000 1"
b100001 t
b101 /
b101 |
b101 E"
b1000000 }
b1000 M
b1000 ."
18
b1000 N
b1000 P
b1000000 s"
07
0T
#1140
08
17
1T
#1145
b1111 J
b1111 !"
b1111 ;"
b1111 6
b1111 @"
b1111 V"
b1111 K
b1111 2"
b1111 R"
b1111 ]"
b1001 1"
b100010 t
b101 /
b101 |
b101 E"
b1000000 }
b1001 M
b1001 ."
18
b1001 N
b1001 P
b101001 s"
07
0T
#1150
08
17
1T
#1155
b11101001 J
b11101001 !"
b11101001 ;"
b11101001 6
b11101001 @"
b11101001 V"
b11101001 K
b11101001 2"
b11101001 R"
b11101001 ]"
b1010 1"
b100011 t
b101 /
b101 |
b101 E"
b1000000 }
b1010 M
b1010 ."
18
b1010 N
b1010 P
b1111 s"
07
0T
#1160
08
17
1T
