Out/iflow.vcd
$date
	Wed Aug 02 16:51:42 2023
$end
$version
	Icarus Verilog
$end
$timescale
	1ns
$end
$scope module tb_iflow $end
$var wire 1 ! get_next $end
$var wire 8 " status_from_alu [7:0] $end
$var wire 4 # y_selector [3:0] $end
$var wire 4 $ x_selector [3:0] $end
$var wire 1 % we_y $end
$var wire 1 & we_x $end
$var wire 1 ' we_stat $end
$var wire 1 ( we_sp $end
$var wire 1 ) we_pc $end
$var wire 1 * we_dout $end
$var wire 1 + we_add $end
$var wire 7 , we [6:0] $end
$var wire 1 - update_status $end
$var wire 8 . status_from_bus [7:0] $end
$var wire 4 / stat_selector [3:0] $end
$var wire 4 0 sp_selector [3:0] $end
$var wire 1 1 phi2_int $end
$var wire 1 2 phi1_int $end
$var wire 4 3 pc_selector [3:0] $end
$var wire 16 4 pc_next [15:0] $end
$var wire 8 5 oY [7:0] $end
$var wire 8 6 oX [7:0] $end
$var wire 8 7 oSTATUS [7:0] $end
$var wire 8 8 oSP [7:0] $end
$var wire 8 9 oPC [7:0] $end
$var wire 8 : oADD [7:0] $end
$var wire 4 ; mem_selector [3:0] $end
$var wire 1 < instruction_ready $end
$var wire 1 = instruction_done $end
$var wire 8 > instruction [7:0] $end
$var wire 8 ? imm [7:0] $end
$var wire 8 @ iY [7:0] $end
$var wire 8 A iX [7:0] $end
$var wire 8 B iSTATUS [7:0] $end
$var wire 8 C iSP [7:0] $end
$var wire 8 D iPC [7:0] $end
$var wire 8 E iADD [7:0] $end
$var wire 16 F fetcher_addr [15:0] $end
$var wire 4 G fetch_selector [3:0] $end
$var wire 4 H decode_selector [3:0] $end
$var wire 8 I d_to_mem1 [7:0] $end
$var wire 8 J d_to_mem [7:0] $end
$var wire 8 K d_to_fetch [7:0] $end
$var wire 8 L d_to_alu_1 [7:0] $end
$var wire 8 M d_to_alu_0 [7:0] $end
$var wire 8 N d_from_mem [7:0] $end
$var wire 8 O d_from_fetch [7:0] $end
$var wire 8 P d_from_alu [7:0] $end
$var wire 8 Q alu_opp [7:0] $end
$var wire 1 R alu_done $end
$var wire 4 S alu1_selector [3:0] $end
$var wire 4 T alu0_selector [3:0] $end
$var wire 16 U addr [15:0] $end
$var wire 4 V add_selector [3:0] $end
$var reg 16 W addr_in [15:0] $end
$var reg 8 X d_in [7:0] $end
$var reg 32 Y i [31:0] $end
$var reg 1 Z manual_mem $end
$var reg 1 [ mem_write $end
$var reg 16 \ pc [15:0] $end
$var reg 1 ] phi0 $end
$var reg 1 ^ reset_n $end
$var reg 32 _ seed [31:0] $end
$var reg 1 ` trigger_program $end
$scope module ADD $end
$var wire 1 ^ reset_n $end
$var wire 1 a valid $end
$var wire 1 + we $end
$var wire 8 b din [7:0] $end
$var wire 1 1 clk $end
$var parameter 32 c REG_WIDTH $end
$var reg 8 d dout [7:0] $end
$upscope $end
$scope module PC $end
$var wire 1 ^ reset_n $end
$var wire 1 e valid $end
$var wire 1 ) we $end
$var wire 8 f din [7:0] $end
$var wire 1 1 clk $end
$var parameter 32 g REG_WIDTH $end
$var reg 8 h dout [7:0] $end
$upscope $end
$scope module SP $end
$var wire 1 ^ reset_n $end
$var wire 1 i valid $end
$var wire 1 ( we $end
$var wire 8 j din [7:0] $end
$var wire 1 1 clk $end
$var parameter 32 k REG_WIDTH $end
$var reg 8 l dout [7:0] $end
$upscope $end
$scope module STAT $end
$var wire 8 m din [7:0] $end
$var wire 1 ^ reset_n $end
$var wire 1 n valid $end
$var wire 1 ' we $end
$var wire 1 1 clk $end
$var parameter 32 o REG_WIDTH $end
$var reg 8 p dout [7:0] $end
$upscope $end
$scope module X $end
$var wire 1 ^ reset_n $end
$var wire 1 q valid $end
$var wire 1 & we $end
$var wire 8 r din [7:0] $end
$var wire 1 1 clk $end
$var parameter 32 s REG_WIDTH $end
$var reg 8 t dout [7:0] $end
$upscope $end
$scope module Y $end
$var wire 1 ^ reset_n $end
$var wire 1 u valid $end
$var wire 1 % we $end
$var wire 8 v din [7:0] $end
$var wire 1 1 clk $end
$var parameter 32 w REG_WIDTH $end
$var reg 8 x dout [7:0] $end
$upscope $end
$scope module alu $end
$var wire 1 y dec_mode $end
$var wire 1 ^ reset_n $end
$var wire 8 z status_in [7:0] $end
$var wire 1 1 phi2 $end
$var wire 1 2 phi1 $end
$var wire 8 { func [7:0] $end
$var wire 1 | carry_in $end
$var wire 8 } b [7:0] $end
$var wire 8 ~ a [7:0] $end
$var reg 1 !" carry_out $end
$var reg 8 "" dout [7:0] $end
$var reg 1 #" opp_reg $end
$var reg 8 $" status_out [7:0] $end
$var reg 1 R wout $end
$var reg 1 %" wout_status $end
$upscope $end
$scope module bus $end
$var wire 8 &" add_in [7:0] $end
$var wire 8 '" alu_in [7:0] $end
$var wire 8 (" decode_in [7:0] $end
$var wire 8 )" pc_in [7:0] $end
$var wire 1 ^ reset_n $end
$var wire 8 *" sp_in [7:0] $end
$var wire 8 +" stat_in [7:0] $end
$var wire 8 ," x_in [7:0] $end
$var wire 8 -" y_in [7:0] $end
$var wire 4 ." y_selector [3:0] $end
$var wire 8 /" y_out [7:0] $end
$var wire 4 0" x_selector [3:0] $end
$var wire 8 1" x_out [7:0] $end
$var wire 4 2" stat_selector [3:0] $end
$var wire 8 3" stat_out [7:0] $end
$var wire 4 4" sp_selector [3:0] $end
$var wire 8 5" sp_out [7:0] $end
$var wire 4 6" pc_selector [3:0] $end
$var wire 8 7" pc_out [7:0] $end
$var wire 4 8" mem_selector [3:0] $end
$var wire 8 9" mem_out [7:0] $end
$var wire 8 :" mem_in [7:0] $end
$var wire 8 ;" imm_in [7:0] $end
$var wire 4 <" fetch_selector [3:0] $end
$var wire 8 =" fetch_out [7:0] $end
$var wire 8 >" fetch_in [7:0] $end
$var wire 4 ?" decode_selector [3:0] $end
$var wire 8 @" decode_out [7:0] $end
$var wire 1 1 clk $end
$var wire 4 A" alu1_selector [3:0] $end
$var wire 8 B" alu1_out [7:0] $end
$var wire 4 C" alu0_selector [3:0] $end
$var wire 8 D" alu0_out [7:0] $end
$var wire 4 E" add_selector [3:0] $end
$var wire 8 F" add_out [7:0] $end
$var parameter 32 G" SELECTOR_WIDTH $end
$var parameter 32 H" SIGNAL_WIDTH $end
$scope module add_mux $end
$var wire 8 I" in0 [7:0] $end
$var wire 8 J" in1 [7:0] $end
$var wire 8 K" in10 [7:0] $end
$var wire 8 L" in11 [7:0] $end
$var wire 8 M" in12 [7:0] $end
$var wire 8 N" in13 [7:0] $end
$var wire 8 O" in14 [7:0] $end
$var wire 8 P" in15 [7:0] $end
$var wire 8 Q" in2 [7:0] $end
$var wire 8 R" in3 [7:0] $end
$var wire 8 S" in4 [7:0] $end
$var wire 8 T" in5 [7:0] $end
$var wire 8 U" in6 [7:0] $end
$var wire 4 V" selector [3:0] $end
$var wire 8 W" out [7:0] $end
$var wire 8 X" in9 [7:0] $end
$var wire 8 Y" in8 [7:0] $end
$var wire 8 Z" in7 [7:0] $end
$var wire 1 1 clk $end
$var parameter 32 [" SELECTOR_WIDTH $end
$var parameter 32 \" SIGNAL_WIDTH $end
$upscope $end
$scope module alu0_mux $end
$var wire 8 ]" in0 [7:0] $end
$var wire 8 ^" in1 [7:0] $end
$var wire 8 _" in10 [7:0] $end
$var wire 8 `" in11 [7:0] $end
$var wire 8 a" in12 [7:0] $end
$var wire 8 b" in13 [7:0] $end
$var wire 8 c" in14 [7:0] $end
$var wire 8 d" in15 [7:0] $end
$var wire 8 e" in2 [7:0] $end
$var wire 8 f" in3 [7:0] $end
$var wire 8 g" in4 [7:0] $end
$var wire 8 h" in5 [7:0] $end
$var wire 8 i" in6 [7:0] $end
$var wire 4 j" selector [3:0] $end
$var wire 8 k" out [7:0] $end
$var wire 8 l" in9 [7:0] $end
$var wire 8 m" in8 [7:0] $end
$var wire 8 n" in7 [7:0] $end
$var wire 1 1 clk $end
$var parameter 32 o" SELECTOR_WIDTH $end
$var parameter 32 p" SIGNAL_WIDTH $end
$upscope $end
$scope module alu1_mux $end
$var wire 8 q" in0 [7:0] $end
$var wire 8 r" in1 [7:0] $end
$var wire 8 s" in10 [7:0] $end
$var wire 8 t" in11 [7:0] $end
$var wire 8 u" in12 [7:0] $end
$var wire 8 v" in13 [7:0] $end
$var wire 8 w" in14 [7:0] $end
$var wire 8 x" in15 [7:0] $end
$var wire 8 y" in2 [7:0] $end
$var wire 8 z" in3 [7:0] $end
$var wire 8 {" in4 [7:0] $end
$var wire 8 |" in5 [7:0] $end
$var wire 8 }" in6 [7:0] $end
$var wire 4 ~" selector [3:0] $end
$var wire 8 !# out [7:0] $end
$var wire 8 "# in9 [7:0] $end
$var wire 8 ## in8 [7:0] $end
$var wire 8 $# in7 [7:0] $end
$var wire 1 1 clk $end
$var parameter 32 %# SELECTOR_WIDTH $end
$var parameter 32 &# SIGNAL_WIDTH $end
$upscope $end
$scope module decode_mux $end
$var wire 8 '# in0 [7:0] $end
$var wire 8 (# in1 [7:0] $end
$var wire 8 )# in10 [7:0] $end
$var wire 8 *# in11 [7:0] $end
$var wire 8 +# in12 [7:0] $end
$var wire 8 ,# in13 [7:0] $end
$var wire 8 -# in14 [7:0] $end
$var wire 8 .# in15 [7:0] $end
$var wire 8 /# in2 [7:0] $end
$var wire 8 0# in3 [7:0] $end
$var wire 8 1# in4 [7:0] $end
$var wire 8 2# in5 [7:0] $end
$var wire 8 3# in6 [7:0] $end
$var wire 4 4# selector [3:0] $end
$var wire 8 5# out [7:0] $end
$var wire 8 6# in9 [7:0] $end
$var wire 8 7# in8 [7:0] $end
$var wire 8 8# in7 [7:0] $end
$var wire 1 1 clk $end
$var parameter 32 9# SELECTOR_WIDTH $end
$var parameter 32 :# SIGNAL_WIDTH $end
$upscope $end
$scope module fetch_mux $end
$var wire 8 ;# in0 [7:0] $end
$var wire 8 <# in1 [7:0] $end
$var wire 8 =# in10 [7:0] $end
$var wire 8 ># in11 [7:0] $end
$var wire 8 ?# in12 [7:0] $end
$var wire 8 @# in13 [7:0] $end
$var wire 8 A# in14 [7:0] $end
$var wire 8 B# in15 [7:0] $end
$var wire 8 C# in2 [7:0] $end
$var wire 8 D# in3 [7:0] $end
$var wire 8 E# in4 [7:0] $end
$var wire 8 F# in5 [7:0] $end
$var wire 8 G# in6 [7:0] $end
$var wire 4 H# selector [3:0] $end
$var wire 8 I# out [7:0] $end
$var wire 8 J# in9 [7:0] $end
$var wire 8 K# in8 [7:0] $end
$var wire 8 L# in7 [7:0] $end
$var wire 1 1 clk $end
$var parameter 32 M# SELECTOR_WIDTH $end
$var parameter 32 N# SIGNAL_WIDTH $end
$upscope $end
$scope module mem_mux $end
$var wire 8 O# in0 [7:0] $end
$var wire 8 P# in1 [7:0] $end
$var wire 8 Q# in10 [7:0] $end
$var wire 8 R# in11 [7:0] $end
$var wire 8 S# in12 [7:0] $end
$var wire 8 T# in13 [7:0] $end
$var wire 8 U# in14 [7:0] $end
$var wire 8 V# in15 [7:0] $end
$var wire 8 W# in2 [7:0] $end
$var wire 8 X# in3 [7:0] $end
$var wire 8 Y# in4 [7:0] $end
$var wire 8 Z# in5 [7:0] $end
$var wire 8 [# in6 [7:0] $end
$var wire 4 \# selector [3:0] $end
$var wire 8 ]# out [7:0] $end
$var wire 8 ^# in9 [7:0] $end
$var wire 8 _# in8 [7:0] $end
$var wire 8 `# in7 [7:0] $end
$var wire 1 1 clk $end
$var parameter 32 a# SELECTOR_WIDTH $end
$var parameter 32 b# SIGNAL_WIDTH $end
$upscope $end
$scope module pc_mux $end
$var wire 8 c# in0 [7:0] $end
$var wire 8 d# in1 [7:0] $end
$var wire 8 e# in10 [7:0] $end
$var wire 8 f# in11 [7:0] $end
$var wire 8 g# in12 [7:0] $end
$var wire 8 h# in13 [7:0] $end
$var wire 8 i# in14 [7:0] $end
$var wire 8 j# in15 [7:0] $end
$var wire 8 k# in2 [7:0] $end
$var wire 8 l# in3 [7:0] $end
$var wire 8 m# in4 [7:0] $end
$var wire 8 n# in5 [7:0] $end
$var wire 8 o# in6 [7:0] $end
$var wire 4 p# selector [3:0] $end
$var wire 8 q# out [7:0] $end
$var wire 8 r# in9 [7:0] $end
$var wire 8 s# in8 [7:0] $end
$var wire 8 t# in7 [7:0] $end
$var wire 1 1 clk $end
$var parameter 32 u# SELECTOR_WIDTH $end
$var parameter 32 v# SIGNAL_WIDTH $end
$upscope $end
$scope module sp_mux $end
$var wire 8 w# in0 [7:0] $end
$var wire 8 x# in1 [7:0] $end
$var wire 8 y# in10 [7:0] $end
$var wire 8 z# in11 [7:0] $end
$var wire 8 {# in12 [7:0] $end
$var wire 8 |# in13 [7:0] $end
$var wire 8 }# in14 [7:0] $end
$var wire 8 ~# in15 [7:0] $end
$var wire 8 !$ in2 [7:0] $end
$var wire 8 "$ in3 [7:0] $end
$var wire 8 #$ in4 [7:0] $end
$var wire 8 $$ in5 [7:0] $end
$var wire 8 %$ in6 [7:0] $end
$var wire 4 &$ selector [3:0] $end
$var wire 8 '$ out [7:0] $end
$var wire 8 ($ in9 [7:0] $end
$var wire 8 )$ in8 [7:0] $end
$var wire 8 *$ in7 [7:0] $end
$var wire 1 1 clk $end
$var parameter 32 +$ SELECTOR_WIDTH $end
$var parameter 32 ,$ SIGNAL_WIDTH $end
$upscope $end
$scope module stat_mux $end
$var wire 8 -$ in0 [7:0] $end
$var wire 8 .$ in1 [7:0] $end
$var wire 8 /$ in10 [7:0] $end
$var wire 8 0$ in11 [7:0] $end
$var wire 8 1$ in12 [7:0] $end
$var wire 8 2$ in13 [7:0] $end
$var wire 8 3$ in14 [7:0] $end
$var wire 8 4$ in15 [7:0] $end
$var wire 8 5$ in2 [7:0] $end
$var wire 8 6$ in3 [7:0] $end
$var wire 8 7$ in4 [7:0] $end
$var wire 8 8$ in5 [7:0] $end
$var wire 8 9$ in6 [7:0] $end
$var wire 4 :$ selector [3:0] $end
$var wire 8 ;$ out [7:0] $end
$var wire 8 <$ in9 [7:0] $end
$var wire 8 =$ in8 [7:0] $end
$var wire 8 >$ in7 [7:0] $end
$var wire 1 1 clk $end
$var parameter 32 ?$ SELECTOR_WIDTH $end
$var parameter 32 @$ SIGNAL_WIDTH $end
$upscope $end
$scope module x_mux $end
$var wire 8 A$ in0 [7:0] $end
$var wire 8 B$ in1 [7:0] $end
$var wire 8 C$ in10 [7:0] $end
$var wire 8 D$ in11 [7:0] $end
$var wire 8 E$ in12 [7:0] $end
$var wire 8 F$ in13 [7:0] $end
$var wire 8 G$ in14 [7:0] $end
$var wire 8 H$ in15 [7:0] $end
$var wire 8 I$ in2 [7:0] $end
$var wire 8 J$ in3 [7:0] $end
$var wire 8 K$ in4 [7:0] $end
$var wire 8 L$ in5 [7:0] $end
$var wire 8 M$ in6 [7:0] $end
$var wire 4 N$ selector [3:0] $end
$var wire 8 O$ out [7:0] $end
$var wire 8 P$ in9 [7:0] $end
$var wire 8 Q$ in8 [7:0] $end
$var wire 8 R$ in7 [7:0] $end
$var wire 1 1 clk $end
$var parameter 32 S$ SELECTOR_WIDTH $end
$var parameter 32 T$ SIGNAL_WIDTH $end
$upscope $end
$scope module y_mux $end
$var wire 8 U$ in0 [7:0] $end
$var wire 8 V$ in1 [7:0] $end
$var wire 8 W$ in10 [7:0] $end
$var wire 8 X$ in11 [7:0] $end
$var wire 8 Y$ in12 [7:0] $end
$var wire 8 Z$ in13 [7:0] $end
$var wire 8 [$ in14 [7:0] $end
$var wire 8 \$ in15 [7:0] $end
$var wire 8 ]$ in2 [7:0] $end
$var wire 8 ^$ in3 [7:0] $end
$var wire 8 _$ in4 [7:0] $end
$var wire 8 `$ in5 [7:0] $end
$var wire 8 a$ in6 [7:0] $end
$var wire 4 b$ selector [3:0] $end
$var wire 8 c$ out [7:0] $end
$var wire 8 d$ in9 [7:0] $end
$var wire 8 e$ in8 [7:0] $end
$var wire 8 f$ in7 [7:0] $end
$var wire 1 1 clk $end
$var parameter 32 g$ SELECTOR_WIDTH $end
$var parameter 32 h$ SIGNAL_WIDTH $end
$upscope $end
$upscope $end
$scope module clk_mod $end
$var wire 1 ] phi0 $end
$var wire 1 2 phi1 $end
$var wire 1 1 phi2 $end
$var wire 1 i$ reset_n $end
$upscope $end
$scope module decode $end
$var wire 1 R alu_done $end
$var wire 1 2 clk $end
$var wire 1 ^ reset_n $end
$var wire 1 < instruction_ready $end
$var wire 8 j$ instruction_in [7:0] $end
$var wire 16 k$ addr_in [15:0] $end
$var parameter 32 l$ ADDR_WIDTH $end
$var parameter 32 m$ OPP_WIDTH $end
$var parameter 32 n$ REG_WIDTH $end
$var reg 3 o$ add_mode [2:0] $end
$var reg 4 p$ add_selector [3:0] $end
$var reg 16 q$ addr [15:0] $end
$var reg 4 r$ alu0_selector [3:0] $end
$var reg 4 s$ alu1_selector [3:0] $end
$var reg 1 - alu_update_status $end
$var reg 8 t$ decode_counter [7:0] $end
$var reg 4 u$ decode_selector [3:0] $end
$var reg 8 v$ instruction [7:0] $end
$var reg 1 = instruction_done $end
$var reg 4 w$ mem_selector [3:0] $end
$var reg 8 x$ opp [7:0] $end
$var reg 5 y$ opp_code [4:0] $end
$var reg 4 z$ pc_selector [3:0] $end
$var reg 4 {$ sp_selector [3:0] $end
$var reg 4 |$ stat_selector [3:0] $end
$var reg 7 }$ we [6:0] $end
$var reg 4 ~$ x_selector [3:0] $end
$var reg 4 !% y_selector [3:0] $end
$upscope $end
$scope module fetch $end
$var wire 8 "% data_in [7:0] $end
$var wire 1 ! get_next $end
$var wire 1 = instruction_done $end
$var wire 16 #% pc [15:0] $end
$var wire 1 2 phi1 $end
$var wire 1 1 phi2 $end
$var wire 1 ^ reset_n $end
$var parameter 32 $% ADDR_WIDTH $end
$var parameter 32 %% OPP_WIDTH $end
$var parameter 32 &% REG_WIDTH $end
$var reg 3 '% add_mode [2:0] $end
$var reg 16 (% addr [15:0] $end
$var reg 16 )% addr_reg [15:0] $end
$var reg 3 *% fetch_counter [2:0] $end
$var reg 4 +% fetch_selector [3:0] $end
$var reg 8 ,% imm [7:0] $end
$var reg 8 -% instruction_out [7:0] $end
$var reg 1 < instruction_ready $end
$var reg 16 .% pc_next [15:0] $end
$var reg 1 /% pc_wait $end
$var reg 8 0% reg_out [7:0] $end
$upscope $end
$scope module mem_test $end
$var wire 16 1% addr [15:0] $end
$var wire 1 1 clk $end
$var wire 8 2% din [7:0] $end
$var wire 1 ^ reset_n $end
$var wire 1 3% we $end
$var wire 16 4% local_addr [15:0] $end
$var wire 8 5% dout [7:0] $end
$var parameter 32 6% ADDR_WIDTH $end
$var parameter 32 7% BASE $end
$var parameter 32 8% DEPTH $end
$var parameter 32 9% WIDTH $end
$upscope $end
$scope begin main_loop $end
$var reg 8 :% mem_unit [7:0] $end
$upscope $end
$upscope $end
$enddefinitions $end
$comment Show the parameter values. $end
$dumpall
b1000 9%
b11111 8%
b0 7%
b10000 6%
b1000 &%
b1000 %%
b10000 $%
b1000 n$
b1000 m$
b10000 l$
b1000 h$
b100 g$
b1000 T$
b100 S$
b1000 @$
b100 ?$
b1000 ,$
b100 +$
b1000 v#
b100 u#
b1000 b#
b100 a#
b1000 N#
b100 M#
b1000 :#
b100 9#
b1000 &#
b100 %#
b1000 p"
b100 o"
b1000 \"
b100 ["
b1000 H"
b100 G"
b1000 w
b1000 s
b1000 o
b1000 k
b1000 g
b1000 c
$end
#0
$dumpvars
bx :%
bx 5%
bx 4%
x3%
bx 2%
bx 1%
bx 0%
x/%
bx .%
bx -%
bx ,%
bx +%
bx *%
bx )%
bx (%
bx '%
bx #%
bx "%
bx !%
bx ~$
b0 }$
bx |$
bx {$
bx z$
bx y$
bx x$
bx w$
bx v$
bx u$
bx t$
bx s$
bx r$
bx q$
bx p$
bx o$
bx k$
bx j$
zi$
bx f$
bx e$
bx d$
bx c$
bx b$
bx a$
bx `$
bx _$
bx ^$
bx ]$
bz \$
bz [$
bz Z$
bz Y$
bz X$
bz W$
bx V$
b0 U$
bx R$
bx Q$
bx P$
bx O$
bx N$
bx M$
bx L$
bx K$
bx J$
bx I$
bz H$
bz G$
bz F$
bz E$
bz D$
bz C$
bx B$
b0 A$
bx >$
bx =$
bx <$
bx ;$
bx :$
bx 9$
bx 8$
bx 7$
bx 6$
bx 5$
bz 4$
bz 3$
bz 2$
bz 1$
bz 0$
bz /$
bx .$
b0 -$
bx *$
bx )$
bx ($
bx '$
bx &$
bx %$
bx $$
bx #$
bx "$
bx !$
bz ~#
bz }#
bz |#
bz {#
bz z#
bz y#
bx x#
b0 w#
bx t#
bx s#
bx r#
bx q#
bx p#
bx o#
bx n#
bx m#
bx l#
bx k#
bz j#
bz i#
bz h#
bz g#
bz f#
bz e#
bx d#
b0 c#
bx `#
bx _#
bx ^#
bx ]#
bx \#
bx [#
bx Z#
bx Y#
bx X#
bx W#
bz V#
bz U#
bz T#
bz S#
bz R#
bz Q#
bx P#
b0 O#
bx L#
bx K#
bx J#
bx I#
bx H#
bx G#
bx F#
bx E#
bx D#
bx C#
bz B#
bz A#
bz @#
bz ?#
bz >#
bz =#
bx <#
b0 ;#
bx 8#
bx 7#
bx 6#
bx 5#
bx 4#
bx 3#
bx 2#
bx 1#
bx 0#
bx /#
bz .#
bz -#
bz ,#
bz +#
bz *#
bz )#
bx (#
b0 '#
bx $#
bx ##
bx "#
bx !#
bx ~"
bx }"
bx |"
bx {"
bx z"
bx y"
bz x"
bz w"
bz v"
bz u"
bz t"
bz s"
bx r"
b0 q"
bx n"
bx m"
bx l"
bx k"
bx j"
bx i"
bx h"
bx g"
bx f"
bx e"
bz d"
bz c"
bz b"
bz a"
bz `"
bz _"
bx ^"
b0 ]"
bx Z"
bx Y"
bx X"
bx W"
bx V"
bx U"
bx T"
bx S"
bx R"
bx Q"
bz P"
bz O"
bz N"
bz M"
bz L"
bz K"
bx J"
b0 I"
bx F"
bx E"
bx D"
bx C"
bx B"
bx A"
bx @"
bx ?"
bx >"
bx ="
bx <"
bx ;"
bx :"
bx 9"
bx 8"
bx 7"
bx 6"
bx 5"
bx 4"
bx 3"
bx 2"
bx 1"
bx 0"
bx /"
bx ."
bx -"
bx ,"
bx +"
bx *"
bx )"
bz ("
bz '"
bx &"
x%"
bx $"
x#"
bz ""
x!"
bx ~
bx }
x|
bx {
bx z
zy
bx x
bx v
zu
bx t
bx r
zq
bx p
zn
bx m
bx l
bx j
zi
bx h
bx f
ze
bx d
bx b
za
x`
b1000001100001111 _
1^
0]
bx \
x[
1Z
bx Y
bx X
bx W
bx V
bx U
bx T
bx S
0R
bx Q
bz P
bx O
bx N
bx M
bx L
bx K
bx J
bx I
bx H
bx G
bx F
bx E
bx D
bx C
bx B
bx A
bx @
bx ?
bx >
x=
x<
bx ;
bx :
bx 9
bx 8
bx 7
bx 6
bx 5
bx 4
bx 3
12
01
bx 0
bx /
bx .
x-
bx000000 ,
0+
0*
0)
0(
0'
0&
0%
bx $
bx #
bz "
x!
$end
#5
02
11
1]
#10
b10000 \
b10000 #%
0=
b0 P
b0 ""
b0 '"
b0 L"
b0 `"
b0 t"
b0 *#
b0 >#
b0 R#
b0 f#
b0 z#
b0 0$
b0 D$
b0 X$
0#"
b0 t$
b0 Q
b0 {
b0 x$
1/%
b10000 4
b10000 .%
1<
b0 *%
12
0^
01
0]
#15
0|
b0 7
b0 p
b0 z
b0 +"
b0 U"
b0 i"
b0 }"
b0 3#
b0 G#
b0 [#
b0 o#
b0 %$
b0 9$
b0 M$
b0 a$
b0 5
b0 x
b0 -"
b0 T"
b0 h"
b0 |"
b0 2#
b0 F#
b0 Z#
b0 n#
b0 $$
b0 8$
b0 L$
b0 `$
b0 6
b0 t
b0 ,"
b0 S"
b0 g"
b0 {"
b0 1#
b0 E#
b0 Y#
b0 m#
b0 #$
b0 7$
b0 K$
b0 _$
b0 :
b0 d
b0 &"
b0 R"
b0 f"
b0 z"
b0 0#
b0 D#
b0 X#
b0 l#
b0 "$
b0 6$
b0 J$
b0 ^$
b0 8
b0 l
b0 *"
b0 Q"
b0 e"
b0 y"
b0 /#
b0 C#
b0 W#
b0 k#
b0 !$
b0 5$
b0 I$
b0 ]$
b0 9
b0 h
b0 )"
b0 J"
b0 ^"
b0 r"
b0 (#
b0 <#
b0 P#
b0 d#
b0 x#
b0 .$
b0 B$
b0 V$
02
11
1]
#20
bz N
bz :"
bz Z"
bz n"
bz $#
bz 8#
bz L#
bz `#
bz t#
bz *$
bz >$
bz R$
bz f$
bz 5%
b0 4%
13%
b10100 I
b10100 2%
b0 U
b0 1%
b1000000 ,
12
b10100 X
b0 W
1[
b10100 :%
b10001010000111111011011000000100 _
b0 Y
01
0]
#25
02
11
1]
#30
b1 4%
b11011011 I
b11011011 2%
b1 U
b1 1%
12
b11011011 X
b1 W
b11011011 :%
b11101101101001101111010100110101 _
b1 Y
01
0]
#35
02
11
1]
#40
b10 4%
b1111100 I
b1111100 2%
b10 U
b10 1%
12
b1111100 X
b10 W
b1111100 :%
b10111110010110110000110001110010 _
b10 Y
01
0]
#45
02
11
1]
#50
b11 4%
b110101 I
b110101 2%
b11 U
b11 1%
12
b110101 X
b11 W
b110101 :%
b11010111111001100000101001011 _
b11 Y
01
0]
#55
02
11
1]
#60
b100 4%
b1100111 I
b1100111 2%
b100 U
b100 1%
12
b1100111 X
b100 W
b1100111 :%
b110011100000101001100000010000 _
b100 Y
01
0]
#65
02
11
1]
#70
b101 4%
b11110010 I
b11110010 2%
b101 U
b101 1%
12
b11110010 X
b101 W
b11110010 :%
b1111001010111001001010011010001 _
b101 Y
01
0]
#75
02
11
1]
#80
b110 4%
b11101111 I
b11101111 2%
b110 U
b110 1%
12
b11101111 X
b110 W
b11101111 :%
b1110111100000101100100001011110 _
b110 Y
01
0]
#85
02
11
1]
#90
b111 4%
b1000000 I
b1000000 2%
b111 U
b111 1%
12
b1000000 X
b111 W
b1000000 :%
b100000010001010011100101000111 _
b111 Y
01
0]
#95
02
11
1]
#100
b1000 4%
b101001 I
b101001 2%
b1000 U
b1000 1%
12
b101001 X
b1000 W
b101001 :%
b10010100100111100111100011011100 _
b1000 Y
01
0]
#105
02
11
1]
#110
b1001 4%
b1111 I
b1111 2%
b1001 U
b1001 1%
12
b1111 X
b1001 W
b1111 :%
b10000111111001011111010000101101 _
b1001 Y
01
0]
#115
02
11
1]
#120
b1010 4%
b11101001 I
b11101001 2%
b1010 U
b1010 1%
12
b11101001 X
b1010 W
b11101001 :%
b1110100101101111101000100001010 _
b1010 Y
01
0]
#125
02
11
1]
#130
b1011 4%
b111011 I
b111011 2%
b1011 U
b1011 1%
12
b111011 X
b1011 W
b111011 :%
b10011101110110011110011100000011 _
b1011 Y
01
0]
#135
02
11
1]
#140
b1100 4%
b10111110 I
b10111110 2%
b1100 U
b1100 1%
12
b10111110 X
b1100 W
b10111110 :%
b1011111001111000010010001101000 _
b1100 Y
01
0]
#145
02
11
1]
#150
b1101 4%
b11101010 I
b11101010 2%
b1101 U
b1101 1%
12
b11101010 X
b1101 W
b11101010 :%
b1110101011010100110111101001001 _
b1101 Y
01
0]
#155
02
11
1]
#160
b1110 4%
b10111010 I
b10111010 2%
b1110 U
b1110 1%
12
b10111010 X
b1110 W
b10111010 :%
b11011101001010101101001001110110 _
b1110 Y
01
0]
#165
02
11
1]
#170
b1111 4%
b110100 I
b110100 2%
b1111 U
b1111 1%
12
b110100 X
b1111 W
b110100 :%
b11010011100001000011001111111 _
b1111 Y
01
0]
#175
02
11
1]
#180
b10100 N
b10100 :"
b10100 Z"
b10100 n"
b10100 $#
b10100 8#
b10100 L#
b10100 `#
b10100 t#
b10100 *$
b10100 >$
b10100 R$
b10100 f$
b10100 5%
b0 4%
03%
b0 U
b0 1%
b0 ,
12
b0 W
0[
b0 Y
01
0]
#185
02
11
1]
#190
12
01
0]
#195
b11011011 N
b11011011 :"
b11011011 Z"
b11011011 n"
b11011011 $#
b11011011 8#
b11011011 L#
b11011011 `#
b11011011 t#
b11011011 *$
b11011011 >$
b11011011 R$
b11011011 f$
b11011011 5%
b1 4%
b1 U
b1 1%
b1 W
b1 Y
b10100 :%
#200
02
11
1]
#205
12
01
0]
#210
b1111100 N
b1111100 :"
b1111100 Z"
b1111100 n"
b1111100 $#
b1111100 8#
b1111100 L#
b1111100 `#
b1111100 t#
b1111100 *$
b1111100 >$
b1111100 R$
b1111100 f$
b1111100 5%
b10 4%
b10 U
b10 1%
b10 W
b10 Y
b11011011 :%
#215
02
11
1]
#220
12
01
0]
#225
b110101 N
b110101 :"
b110101 Z"
b110101 n"
b110101 $#
b110101 8#
b110101 L#
b110101 `#
b110101 t#
b110101 *$
b110101 >$
b110101 R$
b110101 f$
b110101 5%
b11 4%
b11 U
b11 1%
b11 W
b11 Y
b1111100 :%
#230
02
11
1]
#235
12
01
0]
#240
b1100111 N
b1100111 :"
b1100111 Z"
b1100111 n"
b1100111 $#
b1100111 8#
b1100111 L#
b1100111 `#
b1100111 t#
b1100111 *$
b1100111 >$
b1100111 R$
b1100111 f$
b1100111 5%
b100 4%
b100 U
b100 1%
b100 W
b100 Y
b110101 :%
#245
02
11
1]
#250
12
01
0]
#255
b11110010 N
b11110010 :"
b11110010 Z"
b11110010 n"
b11110010 $#
b11110010 8#
b11110010 L#
b11110010 `#
b11110010 t#
b11110010 *$
b11110010 >$
b11110010 R$
b11110010 f$
b11110010 5%
b101 4%
b101 U
b101 1%
b101 W
b101 Y
b1100111 :%
#260
02
11
1]
#265
12
01
0]
#270
b11101111 N
b11101111 :"
b11101111 Z"
b11101111 n"
b11101111 $#
b11101111 8#
b11101111 L#
b11101111 `#
b11101111 t#
b11101111 *$
b11101111 >$
b11101111 R$
b11101111 f$
b11101111 5%
b110 4%
b110 U
b110 1%
b110 W
b110 Y
b11110010 :%
#275
02
11
1]
