Out/mux831.vcd
$date
	Fri Jul 14 00:03:00 2023
$end
$version
	Icarus Verilog
$end
$timescale
	1ns
$end
$scope module tb_mux831 $end
$var wire 1 ! out $end
$var reg 32 " i [31:0] $end
$var reg 8 # in [7:0] $end
$var reg 1 $ phi0 $end
$var reg 32 % seed [31:0] $end
$var reg 3 & selector [2:0] $end
$scope module mux $end
$var wire 1 $ clk $end
$var wire 1 ' in0 $end
$var wire 1 ( in1 $end
$var wire 1 ) in2 $end
$var wire 1 * in3 $end
$var wire 1 + in4 $end
$var wire 1 , in5 $end
$var wire 1 - in6 $end
$var wire 1 . in7 $end
$var wire 3 / selector [2:0] $end
$var parameter 32 0 SIGNAL_WIDTH $end
$var reg 1 ! out $end
$upscope $end
$upscope $end
$enddefinitions $end
$comment Show the parameter values. $end
$dumpall
b1 0
$end
#0
$dumpvars
b11 /
0.
0-
0,
1+
0*
1)
0(
0'
b11 &
b11101101101001101111010100110101 %
0$
b10100 #
b0 "
x!
$end
#5
0!
1$
#11
0$
#12
1*
1,
1-
b101 &
b101 /
b1111100 #
b11010111111001100000101001011 %
b1 "
#17
1!
1$
#23
0$
#24
1'
1(
0*
0+
b10 &
b10 /
b1100111 #
b1111001010111001001010011010001 %
b10 "
#29
1$
#35
0$
#36
1*
1.
b0 &
b0 /
b11101111 #
b100000010001010011100101000111 %
b11 "
#41
1$
#47
0$
#48
0(
0)
0-
0.
b111 &
b111 /
b101001 #
b10000111111001011111010000101101 %
b100 "
#53
0!
1$
#59
0$
#60
1-
1.
b11 &
b11 /
b11101001 #
b10011101110110011110011100000011 %
b101 "
#65
1!
1$
#71
0$
#72
0'
1(
1)
1+
0-
b10 &
b10 /
b10111110 #
b1110101011010100110111101001001 %
b110 "
#77
1$
#83
0$
#84
0)
b100 &
b100 /
b10111010 #
b11010011100001000011001111111 %
b111 "
#89
1$
#95
0$
#96
0*
0,
1-
b11 &
b11 /
b11010010 #
b111001101011010010001000100101 %
b1000 "
#101
0!
1$
#107
0$
#108
1'
0(
1*
1,
0-
0.
b110 &
b110 /
b111001 #
b11010011001100001001001110111011 %
b1001 "
#113
1$
#119
0$
#120
0'
1(
0*
0,
1-
b1010010 #
b1110011001010001110100011000001 %
b1010 "
#125
1!
1$
#131
0$
#132
0(
1*
0+
1,
b1101000 #
b1101011001011110100101010110111 %
b1011 "
#137
1$
#143
0$
#144
1)
0,
0-
b11 &
b11 /
b1100 #
b10101001111011000101111100011101 %
b1100 "
#149
1$
#155
0$
#156
0*
1,
1-
1.
b1 &
b1 /
b11100100 #
b1000101010111010011101110011 %
b1101 "
#161
0!
1$
#167
0$
#168
0)
0-
b100 &
b100 /
b10100000 #
b10100110001101011110000100111001 %
b1110 "
#173
1$
#179
0$
#180
1'
1)
1*
1-
0.
b0 &
b0 /
b1101101 #
b11100000010100110010111101111 %
b1111 "
#185
1!
1$
#191
0$
#192
0'
1(
0)
0*
0,
1.
b101 &
b101 /
b11000010 #
b1110110110011111000101100010101 %
b10000 "
#197
0!
1$
#203
0$
#204
1+
1,
0.
b1 &
b1 /
b1110010 #
b11001100100100100000001000101011 %
b10001 "
#209
1!
1$
#215
0$
#216
1*
b110 &
b110 /
b1111010 #
b10000011001010110011100010110001 %
b10010 "
#221
1$
#227
0$
#228
0(
0+
1.
b101 &
b101 /
b11101000 #
b11000110111001101011100000100111 %
b10011 "
#233
1$
#239
0$
#240
1)
0.
b10 &
b10 /
b1101100 #
b11000101001111101000011000001101 %
b10100 "
#245
1$
#251
0$
#252
1'
1(
0)
0,
b1001011 #
b11101001010001101000001111100011 %
b10101 "
#257
0!
1$
#263
0$
#264
0'
0(
1)
1.
b110 &
b110 /
b11001100 #
b111000111101100111100101001 %
b10110 "
#269
1!
1$
#275
0$
#276
1(
0*
1,
0-
0.
b11 &
b11 /
b100110 #
b1001100001010010000101011111 %
b10111 "
#281
0!
1$
#287
0$
#288
1'
0,
b0 &
b0 /
b111 #
b11000000010111010011000000000101 %
b11000 "
#293
1!
1$
#299
0$
#300
0'
0(
1*
1,
1-
1.
b1 &
b1 /
b11101100 #
b11010000110010000000110010011011 %
b11001 "
#305
0!
1$
#311
0$
#312
1(
0)
0,
b110 &
b110 /
b11001010 #
b11101111001000101000010010100001 %
b11010 "
#317
1!
1$
#323
0$
#324
0(
0-
b10 &
b10 /
b10001000 #
b1101001000000101000000110010111 %
b11011 "
#329
0!
1$
#335
0$
#336
1(
0*
1+
1,
1-
0.
b1110010 #
b1001000010110110100011111101 %
b11100 "
#341
1$
#347
0$
#348
1)
b0 &
b0 /
b1110110 #
b1111000001100010111110001010011 %
b11101 "
#353
1$
#359
0$
#360
b11110 "
